metingen/metingen suiker/0.5/0.5ml_2g4g.csv

X,CH1,Start,Increment
Sequence,VOLT,-2.00E+0,1.00E-2
0,4.40E-1
1,7.60E-1
2,7.60E-1
3,4.40E-1
4,4.80E-1
5,9.20E-1
6,4.40E-1
7,1.36E+0
8,1.64E+0
9,4.40E-1
10,4.80E-1
11,1.64E+0
12,4.80E-1
13,1.40E+0
14,1.00E+0
15,4.40E-1
16,1.00E+0
17,4.80E-1
18,4.40E-1
19,1.16E+0
20,4.40E-1
21,1.16E+0
22,5.20E-1
23,1.08E+0
24,9.60E-1
25,4.80E-1
26,1.24E+0
27,5.20E-1
28,4.80E-1
29,1.24E+0
30,4.40E-1
31,1.48E+0
32,1.60E+0
33,4.80E-1
34,1.56E+0
35,4.40E-1
36,4.80E-1
37,1.32E+0
38,4.80E-1
39,1.52E+0
40,4.80E-1
41,1.36E+0
42,6.40E-1
43,1.48E+0
44,6.00E-1
45,1.64E+0
46,5.60E-1
47,1.64E+0
48,1.64E+0
49,8.40E-1
50,7.60E-1
51,1.60E+0
52,7.20E-1
53,1.36E+0
54,1.52E+0
55,8.40E-1
56,1.52E+0
57,8.40E-1
58,1.00E+0
59,1.56E+0
60,1.48E+0
61,1.00E+0
62,1.40E+0
63,8.00E-1
64,6.00E-1
65,1.40E+0
66,1.40E+0
67,5.20E-1
68,6.80E-1
69,1.56E+0
70,1.56E+0
71,5.20E-1
72,6.40E-1
73,1.56E+0
74,1.32E+0
75,6.00E-1
76,1.44E+0
77,7.20E-1
78,6.40E-1
79,1.32E+0
80,1.24E+0
81,8.00E-1
82,1.32E+0
83,1.00E+0
84,8.00E-1
85,1.24E+0
86,1.32E+0
87,7.60E-1
88,1.24E+0
89,6.00E-1
90,4.80E-1
91,1.48E+0
92,5.20E-1
93,1.44E+0
94,6.80E-1
95,1.56E+0
96,7.20E-1
97,1.64E+0
98,1.68E+0
99,7.60E-1
100,7.60E-1
101,1.68E+0
102,1.68E+0
103,1.00E+0
104,8.40E-1
105,1.68E+0
106,1.12E+0
107,1.68E+0
108,1.64E+0
109,1.04E+0
110,1.24E+0
111,1.68E+0
112,1.68E+0
113,1.16E+0
114,1.68E+0
115,1.20E+0
116,1.24E+0
117,1.68E+0
118,1.68E+0
119,1.24E+0
120,1.28E+0
121,1.68E+0
122,1.36E+0
123,1.68E+0
124,1.68E+0
125,1.28E+0
126,1.60E+0
127,1.04E+0
128,1.52E+0
129,1.08E+0
130,8.00E-1
131,1.68E+0
132,1.00E+0
133,1.64E+0
134,1.68E+0
135,1.08E+0
136,1.68E+0
137,1.40E+0
138,1.68E+0
139,1.32E+0
140,1.16E+0
141,1.68E+0
142,1.68E+0
143,1.48E+0
144,1.68E+0
145,1.56E+0
146,1.64E+0
147,1.56E+0
148,1.68E+0
149,1.44E+0
150,1.36E+0
151,1.68E+0
152,1.48E+0
153,1.68E+0
154,1.68E+0
155,1.52E+0
156,1.32E+0
157,1.64E+0
158,1.24E+0
159,1.68E+0
160,1.48E+0
161,1.68E+0
162,1.68E+0
163,1.48E+0
164,1.60E+0
165,1.32E+0
166,1.44E+0
167,1.68E+0
168,1.68E+0
169,1.16E+0
170,1.64E+0
171,1.36E+0
172,1.16E+0
173,1.68E+0
174,1.32E+0
175,1.64E+0
176,1.72E+0
177,1.44E+0
178,1.72E+0
179,1.48E+0
180,1.52E+0
181,1.68E+0
182,1.68E+0
183,1.52E+0
184,1.68E+0
185,1.56E+0
186,1.56E+0
187,1.68E+0
188,1.52E+0
189,1.68E+0
190,1.68E+0
191,1.52E+0
192,1.68E+0
193,1.40E+0
194,1.68E+0
195,1.48E+0
196,1.48E+0
197,1.68E+0
198,1.48E+0
199,1.68E+0
200,1.68E+0
201,1.44E+0
202,1.68E+0
203,1.44E+0
204,1.68E+0
205,1.48E+0
206,1.44E+0
207,1.68E+0
208,1.48E+0
209,1.68E+0
210,1.68E+0
211,1.52E+0
212,1.68E+0
213,1.56E+0
214,1.68E+0
215,1.56E+0
216,1.68E+0
217,1.56E+0
218,1.60E+0
219,1.68E+0
220,1.68E+0
221,1.56E+0
222,1.56E+0
223,1.68E+0
224,1.68E+0
225,1.52E+0
226,1.56E+0
227,1.68E+0
228,1.68E+0
229,1.48E+0
230,1.68E+0
231,1.44E+0
232,1.64E+0
233,1.44E+0
234,1.56E+0
235,1.12E+0
236,1.12E+0
237,1.48E+0
238,1.20E+0
239,8.00E-1
240,1.16E+0
241,5.60E-1
242,8.00E-1
243,4.80E-1
244,4.40E-1
245,8.00E-1
246,4.80E-1
247,6.80E-1
248,8.80E-1
249,4.80E-1
250,6.40E-1
251,8.40E-1
252,5.60E-1
253,1.00E+0
254,1.00E+0
255,5.60E-1
256,8.80E-1
257,5.20E-1
258,9.20E-1
259,4.40E-1
260,7.60E-1
261,4.40E-1
262,4.40E-1
263,5.60E-1
264,4.40E-1
265,6.80E-1
266,4.80E-1
267,1.04E+0
268,6.40E-1
269,1.08E+0
270,1.16E+0
271,8.40E-1
272,8.40E-1
273,1.40E+0
274,9.20E-1
275,1.44E+0
276,1.08E+0
277,1.44E+0
278,1.52E+0
279,1.04E+0
280,1.60E+0
281,1.16E+0
282,1.56E+0
283,1.28E+0
284,1.68E+0
285,1.24E+0
286,1.40E+0
287,1.68E+0
288,1.52E+0
289,1.68E+0
290,1.68E+0
291,1.44E+0
292,1.64E+0
293,1.32E+0
294,1.44E+0
295,1.16E+0
296,1.40E+0
297,9.60E-1
298,1.32E+0
299,7.60E-1
300,1.28E+0
301,7.20E-1
302,1.20E+0
303,6.00E-1
304,5.60E-1
305,8.40E-1
306,9.60E-1
307,4.80E-1
308,6.40E-1
309,4.80E-1
310,4.40E-1
311,5.60E-1
312,5.60E-1
313,4.40E-1
314,4.40E-1
315,7.20E-1
316,4.40E-1
317,9.60E-1
318,5.60E-1
319,9.60E-1
320,7.60E-1
321,1.28E+0
322,1.00E+0
323,1.44E+0
324,1.16E+0
325,1.60E+0
326,1.24E+0
327,1.64E+0
328,1.56E+0
329,1.28E+0
330,1.68E+0
331,1.32E+0
332,1.40E+0
333,1.64E+0
334,1.64E+0
335,1.32E+0
336,1.64E+0
337,1.36E+0
338,1.64E+0
339,1.32E+0
340,1.28E+0
341,1.68E+0
342,1.44E+0
343,1.64E+0
344,1.68E+0
345,1.52E+0
346,1.48E+0
347,1.68E+0
348,1.64E+0
349,1.44E+0
350,1.64E+0
351,1.32E+0
352,1.24E+0
353,1.56E+0
354,1.64E+0
355,1.12E+0
356,1.60E+0
357,1.36E+0
358,1.24E+0
359,1.56E+0
360,1.16E+0
361,1.56E+0
362,1.12E+0
363,1.40E+0
364,1.28E+0
365,1.52E+0
366,1.32E+0
367,1.68E+0
368,1.36E+0
369,1.68E+0
370,1.68E+0
371,1.52E+0
372,1.68E+0
373,1.44E+0
374,1.44E+0
375,1.68E+0
376,1.52E+0
377,1.68E+0
378,1.72E+0
379,1.52E+0
380,1.68E+0
381,1.56E+0
382,1.68E+0
383,1.36E+0
384,1.68E+0
385,1.48E+0
386,1.64E+0
387,1.40E+0
388,1.32E+0
389,1.64E+0
390,1.60E+0
391,1.32E+0
392,1.64E+0
393,1.28E+0
394,1.48E+0
395,1.32E+0
396,1.44E+0
397,9.20E-1
398,1.20E+0
399,6.80E-1
400,9.20E-1
401,4.80E-1
402,6.40E-1
403,4.40E-1
404,4.40E-1
405,6.00E-1
406,4.80E-1
407,1.04E+0
408,9.60E-1
409,1.60E+0
410,1.68E+0
411,1.32E+0
412,1.48E+0
413,9.20E-1
414,1.04E+0
415,6.40E-1
416,7.20E-1
417,4.40E-1
418,4.40E-1
419,6.00E-1
420,5.20E-1
421,8.80E-1
422,9.20E-1
423,6.00E-1
424,6.00E-1
425,1.20E+0
426,6.80E-1
427,1.24E+0
428,8.40E-1
429,1.20E+0
430,1.40E+0
431,9.60E-1
432,1.40E+0
433,1.08E+0
434,1.12E+0
435,1.56E+0
436,1.56E+0
437,1.28E+0
438,1.40E+0
439,1.64E+0
440,1.44E+0
441,1.64E+0
442,1.64E+0
443,1.48E+0
444,1.64E+0
445,1.36E+0
446,1.56E+0
447,1.20E+0
448,1.32E+0
449,8.40E-1
450,1.20E+0
451,6.40E-1
452,8.00E-1
453,4.80E-1
454,4.40E-1
455,6.00E-1
456,4.40E-1
457,7.60E-1
458,5.20E-1
459,8.00E-1
460,6.40E-1
461,1.04E+0
462,8.80E-1
463,1.32E+0
464,1.20E+0
465,1.52E+0
466,1.48E+0
467,1.64E+0
468,1.48E+0
469,1.64E+0
470,1.64E+0
471,1.48E+0
472,1.44E+0
473,1.64E+0
474,1.32E+0
475,1.60E+0
476,1.32E+0
477,1.56E+0
478,1.56E+0
479,1.20E+0
480,1.52E+0
481,1.12E+0
482,1.12E+0
483,1.44E+0
484,1.40E+0
485,9.60E-1
486,1.00E+0
487,1.32E+0
488,1.40E+0
489,9.60E-1
490,1.28E+0
491,8.40E-1
492,1.24E+0
493,8.80E-1
494,1.12E+0
495,8.80E-1
496,8.40E-1
497,1.16E+0
498,8.40E-1
499,1.36E+0
500,8.80E-1
501,1.16E+0
502,1.20E+0
503,8.40E-1
504,8.80E-1
505,1.08E+0
506,6.40E-1
507,1.12E+0
508,1.04E+0
509,6.40E-1
510,9.60E-1
511,5.20E-1
512,5.60E-1
513,8.40E-1
514,7.20E-1
515,5.20E-1
516,7.20E-1
517,4.80E-1
518,4.80E-1
519,6.00E-1
520,4.80E-1
521,6.00E-1
522,6.40E-1
523,4.80E-1
524,7.60E-1
525,4.80E-1
526,4.80E-1
527,8.40E-1
528,6.00E-1
529,9.20E-1
530,1.08E+0
531,7.60E-1
532,9.20E-1
533,1.24E+0
534,1.08E+0
535,1.44E+0
536,1.16E+0
537,1.56E+0
538,1.36E+0
539,1.60E+0
540,1.60E+0
541,1.48E+0
542,1.64E+0
543,1.48E+0
544,1.64E+0
545,1.48E+0
546,1.60E+0
547,1.40E+0
548,1.56E+0
549,1.28E+0
550,1.20E+0
551,1.48E+0
552,1.32E+0
553,9.20E-1
554,1.20E+0
555,7.60E-1
556,8.00E-1
557,1.00E+0
558,1.08E+0
559,6.00E-1
560,9.60E-1
561,5.60E-1
562,8.80E-1
563,5.20E-1
564,4.80E-1
565,8.40E-1
566,4.80E-1
567,6.00E-1
568,6.40E-1
569,4.80E-1
570,4.80E-1
571,6.40E-1
572,7.60E-1
573,4.80E-1
574,6.00E-1
575,9.20E-1
576,6.80E-1
577,1.24E+0
578,7.20E-1
579,1.32E+0
580,1.00E+0
581,1.36E+0
582,1.20E+0
583,1.44E+0
584,1.20E+0
585,1.56E+0
586,1.40E+0
587,1.60E+0
588,1.60E+0
589,1.44E+0
590,1.60E+0
591,1.36E+0
592,1.60E+0
593,1.00E+0
594,1.44E+0
595,1.00E+0
596,1.16E+0
597,8.00E-1
598,6.80E-1
599,1.00E+0
600,1.04E+0
601,6.40E-1
602,1.08E+0
603,6.80E-1
604,7.60E-1
605,9.60E-1
606,6.00E-1
607,9.20E-1
608,5.20E-1
609,7.60E-1
610,7.60E-1
611,4.80E-1
612,7.60E-1
613,4.80E-1
614,6.00E-1
615,4.80E-1
616,4.80E-1
617,6.80E-1
618,4.80E-1
619,6.40E-1
620,4.80E-1
621,8.00E-1
622,8.00E-1
623,6.00E-1
624,6.40E-1
625,1.00E+0
626,7.20E-1
627,1.16E+0
628,9.20E-1
629,1.36E+0
630,1.04E+0
631,1.48E+0
632,1.28E+0
633,1.56E+0
634,1.40E+0
635,1.56E+0
636,1.44E+0
637,1.56E+0
638,1.48E+0
639,1.60E+0
640,1.56E+0
641,1.44E+0
642,1.44E+0
643,1.60E+0
644,1.60E+0
645,1.44E+0
646,1.40E+0
647,1.60E+0
648,1.48E+0
649,1.60E+0
650,1.60E+0
651,1.40E+0
652,1.52E+0
653,1.28E+0
654,1.44E+0
655,9.20E-1
656,1.32E+0
657,9.20E-1
658,7.20E-1
659,1.20E+0
660,1.20E+0
661,7.20E-1
662,9.20E-1
663,5.60E-1
664,8.40E-1
665,5.20E-1
666,5.20E-1
667,6.80E-1
668,7.20E-1
669,4.80E-1
670,5.20E-1
671,7.20E-1
672,4.80E-1
673,7.20E-1
674,4.80E-1
675,6.80E-1
676,6.40E-1
677,4.80E-1
678,4.80E-1
679,7.60E-1
680,4.80E-1
681,8.00E-1
682,5.60E-1
683,8.00E-1
684,6.80E-1
685,1.08E+0
686,7.60E-1
687,1.20E+0
688,9.60E-1
689,1.32E+0
690,1.00E+0
691,1.44E+0
692,1.28E+0
693,1.48E+0
694,1.32E+0
695,1.52E+0
696,1.56E+0
697,1.40E+0
698,1.56E+0
699,1.40E+0
700,1.56E+0
701,1.44E+0
702,1.56E+0
703,1.28E+0
704,1.52E+0
705,1.28E+0
706,1.08E+0
707,1.44E+0
708,1.20E+0
709,9.20E-1
710,1.28E+0
711,6.80E-1
712,1.24E+0
713,6.40E-1
714,8.80E-1
715,5.60E-1
716,5.20E-1
717,6.80E-1
718,4.80E-1
719,6.00E-1
720,5.20E-1
721,8.40E-1
722,6.00E-1
723,8.40E-1
724,7.60E-1
725,1.08E+0
726,8.80E-1
727,1.36E+0
728,1.12E+0
729,1.52E+0
730,1.56E+0
731,1.40E+0
732,1.56E+0
733,1.44E+0
734,1.56E+0
735,1.28E+0
736,1.44E+0
737,1.08E+0
738,9.20E-1
739,1.28E+0
740,6.00E-1
741,1.08E+0
742,8.00E-1
743,6.00E-1
744,8.40E-1
745,5.20E-1
746,7.60E-1
747,5.20E-1
748,6.40E-1
749,5.20E-1
750,5.20E-1
751,9.60E-1
752,5.20E-1
753,1.32E+0
754,1.40E+0
755,8.00E-1
756,1.00E+0
757,1.48E+0
758,1.08E+0
759,1.52E+0
760,1.40E+0
761,1.56E+0
762,1.56E+0
763,1.24E+0
764,1.16E+0
765,1.52E+0
766,1.28E+0
767,8.80E-1
768,1.16E+0
769,6.00E-1
770,8.00E-1
771,5.20E-1
772,5.20E-1
773,7.60E-1
774,6.00E-1
775,1.08E+0
776,9.20E-1
777,1.24E+0
778,1.08E+0
779,1.48E+0
780,1.40E+0
781,1.52E+0
782,1.52E+0
783,1.24E+0
784,1.28E+0
785,7.60E-1
786,8.00E-1
787,5.20E-1
788,5.20E-1
789,7.20E-1
790,5.60E-1
791,8.80E-1
792,8.00E-1
793,1.12E+0
794,1.00E+0
795,1.44E+0
796,1.36E+0
797,1.52E+0
798,1.52E+0
799,1.40E+0
800,1.52E+0
801,1.36E+0
802,1.40E+0
803,1.00E+0
804,1.16E+0
805,6.40E-1
806,7.60E-1
807,5.20E-1
808,5.20E-1
809,8.00E-1
810,6.40E-1
811,1.12E+0
812,8.80E-1
813,1.48E+0
814,1.56E+0
815,1.32E+0
816,1.40E+0
817,6.80E-1
818,9.20E-1
819,5.20E-1
820,5.20E-1
821,8.80E-1
822,6.80E-1
823,1.32E+0
824,1.24E+0
825,1.56E+0
826,1.56E+0
827,1.28E+0
828,1.36E+0
829,8.40E-1
830,1.04E+0
831,6.40E-1
832,8.40E-1
833,5.60E-1
834,7.20E-1
835,5.20E-1
836,6.40E-1
837,5.20E-1
838,5.20E-1
839,1.04E+0
840,1.08E+0
841,5.20E-1
842,1.24E+0
843,7.60E-1
844,7.60E-1
845,1.40E+0
846,1.24E+0
847,1.56E+0
848,1.56E+0
849,1.36E+0
850,1.52E+0
851,1.16E+0
852,9.20E-1
853,1.32E+0
854,1.32E+0
855,6.40E-1
856,8.80E-1
857,6.40E-1
858,7.60E-1
859,5.20E-1
860,6.40E-1
861,5.20E-1
862,5.60E-1
863,7.60E-1
864,6.00E-1
865,9.60E-1
866,7.60E-1
867,1.16E+0
868,1.00E+0
869,1.44E+0
870,1.28E+0
871,1.56E+0
872,1.56E+0
873,1.24E+0
874,1.44E+0
875,9.20E-1
876,1.04E+0
877,8.00E-1
878,9.20E-1
879,5.20E-1
880,5.20E-1
881,9.60E-1
882,6.80E-1
883,1.08E+0
884,1.00E+0
885,1.36E+0
886,1.08E+0
887,1.52E+0
888,1.32E+0
889,1.56E+0
890,1.44E+0
891,1.56E+0
892,1.56E+0
893,1.36E+0
894,1.36E+0
895,1.56E+0
896,1.52E+0
897,1.32E+0
898,1.56E+0
899,1.44E+0
900,1.56E+0
901,1.44E+0
902,1.56E+0
903,1.32E+0
904,1.56E+0
905,1.28E+0
906,9.20E-1
907,1.56E+0
908,8.00E-1
909,1.52E+0
910,1.48E+0
911,7.20E-1
912,1.44E+0
913,5.60E-1
914,5.60E-1
915,1.36E+0
916,5.20E-1
917,1.36E+0
918,5.60E-1
919,1.20E+0
920,1.36E+0
921,6.00E-1
922,6.40E-1
923,1.36E+0
924,6.40E-1
925,1.24E+0
926,1.16E+0
927,7.60E-1
928,1.16E+0
929,8.00E-1
930,8.40E-1
931,1.16E+0
932,8.40E-1
933,1.16E+0
934,1.16E+0
935,7.60E-1
936,1.44E+0
937,7.20E-1
938,9.60E-1
939,1.32E+0
940,9.20E-1
941,1.32E+0
942,1.24E+0
943,9.60E-1
944,1.28E+0
945,8.80E-1
946,1.40E+0
947,9.20E-1
948,1.08E+0
949,1.40E+0
950,1.36E+0
951,9.60E-1
952,1.36E+0
953,1.04E+0
954,1.28E+0
955,1.04E+0
956,1.36E+0
957,1.00E+0
958,1.36E+0
959,1.12E+0
960,1.36E+0
961,1.08E+0
962,1.40E+0
963,1.12E+0
964,1.08E+0
965,1.40E+0
966,1.08E+0
967,1.36E+0
968,1.44E+0
969,9.20E-1
970,1.52E+0
971,1.04E+0
972,1.44E+0
973,1.08E+0
974,8.80E-1
975,1.48E+0
976,1.00E+0
977,1.28E+0
978,1.44E+0
979,8.40E-1
980,1.32E+0
981,1.00E+0
982,9.60E-1
983,1.36E+0
984,1.28E+0
985,8.40E-1
986,1.32E+0
987,8.40E-1
988,8.40E-1
989,1.28E+0
990,9.20E-1
991,1.16E+0
992,9.20E-1
993,1.28E+0
994,8.00E-1
995,1.32E+0
996,1.16E+0
997,8.80E-1
998,1.20E+0
999,8.00E-1
1000,8.40E-1
1001,1.24E+0
1002,1.12E+0
1003,7.20E-1
1004,1.24E+0
1005,8.80E-1
1006,7.60E-1
1007,1.16E+0
1008,8.00E-1
1009,1.04E+0
1010,1.04E+0
1011,8.40E-1
1012,1.08E+0
1013,8.40E-1
1014,8.00E-1
1015,1.20E+0
1016,6.00E-1
1017,1.40E+0
1018,1.20E+0
1019,6.80E-1
1020,1.36E+0
1021,6.80E-1
1022,7.20E-1
1023,1.28E+0
1024,5.60E-1
1025,1.40E+0
1026,1.48E+0
1027,7.20E-1
1028,7.20E-1
1029,1.28E+0
1030,6.00E-1
1031,1.28E+0
1032,7.20E-1
1033,1.24E+0
1034,7.60E-1
1035,1.36E+0
1036,1.44E+0
1037,7.20E-1
1038,1.20E+0
1039,8.40E-1
1040,7.60E-1
1041,1.16E+0
1042,7.60E-1
1043,1.12E+0
1044,1.16E+0
1045,8.00E-1
1046,1.24E+0
1047,8.40E-1
1048,8.40E-1
1049,1.20E+0
1050,1.16E+0
1051,7.60E-1
1052,8.40E-1
1053,1.04E+0
1054,1.12E+0
1055,8.00E-1
1056,1.20E+0
1057,9.20E-1
1058,8.00E-1
1059,1.28E+0
1060,1.28E+0
1061,8.40E-1
1062,1.16E+0
1063,8.00E-1
1064,8.40E-1
1065,1.20E+0
1066,8.80E-1
1067,1.20E+0
1068,1.28E+0
1069,8.40E-1
1070,1.28E+0
1071,9.60E-1
1072,8.00E-1
1073,1.24E+0
1074,8.00E-1
1075,1.12E+0
1076,1.20E+0
1077,6.80E-1
1078,7.60E-1
1079,1.28E+0
1080,1.12E+0
1081,8.80E-1
