metingen/metingen cuvet/1/1_4g6g.csv

X,CH1,Start,Increment
Sequence,VOLT,-1.00E+0,2.00E-2
0,1.56E+0
1,1.76E+0
2,1.56E+0
3,1.76E+0
4,1.52E+0
5,1.76E+0
6,1.76E+0
7,1.52E+0
8,1.72E+0
9,1.56E+0
10,1.52E+0
11,1.76E+0
12,1.52E+0
13,1.76E+0
14,1.56E+0
15,1.76E+0
16,1.52E+0
17,1.72E+0
18,1.76E+0
19,1.48E+0
20,1.52E+0
21,1.76E+0
22,1.72E+0
23,1.56E+0
24,1.48E+0
25,1.76E+0
26,1.76E+0
27,1.52E+0
28,1.72E+0
29,1.52E+0
30,1.72E+0
31,1.52E+0
32,1.56E+0
33,1.72E+0
34,1.52E+0
35,1.72E+0
36,1.52E+0
37,1.76E+0
38,1.72E+0
39,1.48E+0
40,1.72E+0
41,1.44E+0
42,1.76E+0
43,1.48E+0
44,1.76E+0
45,1.44E+0
46,1.76E+0
47,1.40E+0
48,1.48E+0
49,1.76E+0
50,1.72E+0
51,1.44E+0
52,1.76E+0
53,1.40E+0
54,1.72E+0
55,1.40E+0
56,1.72E+0
57,1.40E+0
58,1.72E+0
59,1.44E+0
60,1.76E+0
61,1.44E+0
62,1.72E+0
63,1.44E+0
64,1.76E+0
65,1.24E+0
66,1.28E+0
67,1.76E+0
68,1.76E+0
69,1.36E+0
70,1.32E+0
71,1.72E+0
72,1.76E+0
73,1.40E+0
74,1.72E+0
75,1.44E+0
76,1.40E+0
77,1.68E+0
78,1.76E+0
79,1.48E+0
80,1.28E+0
81,1.72E+0
82,1.36E+0
83,1.76E+0
84,1.72E+0
85,1.40E+0
86,1.68E+0
87,1.40E+0
88,1.48E+0
89,1.68E+0
90,1.72E+0
91,1.44E+0
92,1.72E+0
93,1.28E+0
94,1.48E+0
95,1.76E+0
96,1.68E+0
97,1.36E+0
98,1.40E+0
99,1.68E+0
100,1.72E+0
101,1.36E+0
102,1.68E+0
103,1.44E+0
104,1.68E+0
105,1.40E+0
106,1.72E+0
107,1.44E+0
108,1.40E+0
109,1.68E+0
110,1.76E+0
111,1.28E+0
112,1.28E+0
113,1.72E+0
114,1.72E+0
115,1.32E+0
116,1.68E+0
117,1.36E+0
118,1.72E+0
119,1.32E+0
120,1.64E+0
121,1.32E+0
122,1.36E+0
123,1.64E+0
124,1.72E+0
125,1.32E+0
126,1.28E+0
127,1.64E+0
128,1.28E+0
129,1.72E+0
130,1.28E+0
131,1.72E+0
132,1.68E+0
133,1.28E+0
134,1.32E+0
135,1.76E+0
136,1.64E+0
137,1.24E+0
138,1.68E+0
139,1.24E+0
140,1.72E+0
141,1.20E+0
142,1.24E+0
143,1.68E+0
144,1.60E+0
145,1.24E+0
146,1.20E+0
147,1.72E+0
148,1.72E+0
149,1.04E+0
150,1.04E+0
151,1.72E+0
152,1.00E+0
153,1.80E+0
154,1.80E+0
155,9.20E-1
156,1.80E+0
157,1.00E+0
158,1.80E+0
159,1.04E+0
160,1.72E+0
161,1.00E+0
162,1.76E+0
163,1.12E+0
164,1.16E+0
165,1.68E+0
166,1.60E+0
167,1.12E+0
168,1.16E+0
169,1.76E+0
170,1.76E+0
171,1.20E+0
172,1.56E+0
173,1.24E+0
174,1.08E+0
175,1.68E+0
176,1.08E+0
177,1.56E+0
178,1.00E+0
179,1.64E+0
180,1.04E+0
181,1.56E+0
182,1.44E+0
183,1.12E+0
184,1.20E+0
185,1.48E+0
186,1.04E+0
187,1.52E+0
188,1.20E+0
189,1.56E+0
190,1.56E+0
191,1.24E+0
192,1.64E+0
193,1.04E+0
194,1.56E+0
195,1.16E+0
196,1.20E+0
197,1.56E+0
198,1.48E+0
199,1.08E+0
200,1.20E+0
201,1.52E+0
202,1.60E+0
203,1.12E+0
204,1.56E+0
205,1.04E+0
206,1.44E+0
207,1.12E+0
208,1.36E+0
209,1.00E+0
210,9.60E-1
211,1.32E+0
212,1.28E+0
213,1.00E+0
214,1.24E+0
215,9.60E-1
216,9.60E-1
217,1.20E+0
218,1.32E+0
219,8.80E-1
220,8.80E-1
221,1.36E+0
222,8.80E-1
223,1.28E+0
224,1.44E+0
225,8.80E-1
226,8.80E-1
227,1.20E+0
228,8.80E-1
229,1.24E+0
230,8.80E-1
231,1.20E+0
232,8.80E-1
233,1.20E+0
234,8.80E-1
235,1.12E+0
236,1.12E+0
237,8.80E-1
238,8.80E-1
239,1.04E+0
240,8.80E-1
241,1.04E+0
242,1.12E+0
243,8.80E-1
244,8.80E-1
245,1.16E+0
246,8.80E-1
247,1.24E+0
248,8.80E-1
249,1.60E+0
250,1.44E+0
251,1.00E+0
252,1.00E+0
253,1.56E+0
254,1.16E+0
255,1.52E+0
256,1.28E+0
257,1.72E+0
258,1.52E+0
259,1.76E+0
260,1.56E+0
261,1.76E+0
262,1.76E+0
263,1.56E+0
264,1.72E+0
265,1.44E+0
266,1.72E+0
267,1.44E+0
268,1.72E+0
269,1.40E+0
270,1.64E+0
271,1.32E+0
272,1.64E+0
273,1.12E+0
274,1.12E+0
275,1.44E+0
276,1.04E+0
277,1.36E+0
278,1.36E+0
279,9.20E-1
280,1.32E+0
281,9.60E-1
282,9.20E-1
283,1.20E+0
284,1.24E+0
285,9.20E-1
286,9.20E-1
287,1.08E+0
288,9.60E-1
289,1.20E+0
290,9.20E-1
291,1.16E+0
292,1.04E+0
293,8.80E-1
294,8.80E-1
295,1.08E+0
296,8.80E-1
297,1.04E+0
298,1.04E+0
299,8.80E-1
300,8.80E-1
301,1.08E+0
302,1.16E+0
303,8.80E-1
304,8.80E-1
305,1.24E+0
306,1.12E+0
307,8.80E-1
308,8.80E-1
309,1.32E+0
310,8.80E-1
311,1.24E+0
312,8.80E-1
313,1.28E+0
314,9.20E-1
315,1.28E+0
316,9.20E-1
317,1.40E+0
318,1.12E+0
319,1.60E+0
320,1.68E+0
321,1.28E+0
322,1.32E+0
323,1.68E+0
324,1.28E+0
325,1.80E+0
326,1.48E+0
327,1.84E+0
328,1.72E+0
329,1.84E+0
330,1.84E+0
331,1.72E+0
332,1.84E+0
333,1.68E+0
334,1.84E+0
335,1.68E+0
336,1.84E+0
337,1.56E+0
338,1.72E+0
339,1.48E+0
340,1.52E+0
341,1.84E+0
342,1.84E+0
343,1.52E+0
344,1.52E+0
345,1.72E+0
346,1.36E+0
347,1.72E+0
348,1.80E+0
349,1.16E+0
350,1.68E+0
351,9.60E-1
352,1.04E+0
353,1.36E+0
354,1.36E+0
355,9.20E-1
356,1.24E+0
357,9.20E-1
358,1.08E+0
359,8.40E-1
360,8.40E-1
361,1.00E+0
362,9.20E-1
363,8.40E-1
364,8.40E-1
365,1.00E+0
366,1.00E+0
367,8.40E-1
368,8.40E-1
369,1.00E+0
370,1.04E+0
371,8.80E-1
372,8.80E-1
373,1.16E+0
374,1.24E+0
375,9.20E-1
376,1.00E+0
377,1.56E+0
378,1.36E+0
379,1.80E+0
380,1.32E+0
381,1.68E+0
382,1.68E+0
383,1.32E+0
384,1.36E+0
385,1.84E+0
386,1.56E+0
387,1.88E+0
388,1.68E+0
389,1.92E+0
390,1.76E+0
391,1.92E+0
392,1.92E+0
393,1.80E+0
394,1.84E+0
395,1.92E+0
396,1.92E+0
397,1.72E+0
398,1.56E+0
399,1.84E+0
400,1.56E+0
401,1.88E+0
402,1.56E+0
403,1.80E+0
404,1.68E+0
405,1.44E+0
406,1.68E+0
407,1.32E+0
408,1.64E+0
409,1.16E+0
410,1.16E+0
411,1.48E+0
412,1.20E+0
413,1.68E+0
414,1.64E+0
415,1.08E+0
416,1.36E+0
417,1.00E+0
418,9.20E-1
419,1.20E+0
420,9.20E-1
421,1.44E+0
422,8.40E-1
423,1.52E+0
424,1.56E+0
425,8.40E-1
426,1.32E+0
427,8.40E-1
428,8.80E-1
429,1.12E+0
430,8.40E-1
431,1.12E+0
432,1.12E+0
433,8.80E-1
434,8.40E-1
435,1.04E+0
436,8.40E-1
437,1.08E+0
438,8.40E-1
439,1.04E+0
440,8.40E-1
441,1.08E+0
442,8.40E-1
443,1.04E+0
444,8.40E-1
445,1.12E+0
446,8.40E-1
447,1.24E+0
448,1.04E+0
449,8.40E-1
450,8.40E-1
451,1.32E+0
452,8.40E-1
453,1.32E+0
454,1.28E+0
455,8.40E-1
456,8.40E-1
457,1.48E+0
458,9.20E-1
459,1.40E+0
460,9.20E-1
461,1.56E+0
462,1.00E+0
463,1.68E+0
464,1.04E+0
465,1.52E+0
466,1.04E+0
467,1.68E+0
468,1.80E+0
469,1.16E+0
470,1.84E+0
471,1.20E+0
472,1.88E+0
473,1.20E+0
474,1.88E+0
475,1.56E+0
476,1.60E+0
477,1.92E+0
478,1.48E+0
479,1.84E+0
480,1.76E+0
481,1.96E+0
482,1.80E+0
483,1.96E+0
484,1.92E+0
485,1.80E+0
486,1.92E+0
487,1.72E+0
488,1.92E+0
489,1.76E+0
490,1.92E+0
491,1.76E+0
492,1.92E+0
493,1.60E+0
494,1.92E+0
495,1.48E+0
496,1.52E+0
497,1.92E+0
498,1.92E+0
499,1.64E+0
500,1.64E+0
501,1.92E+0
502,1.52E+0
503,1.92E+0
504,1.92E+0
505,1.60E+0
506,1.92E+0
507,1.60E+0
508,1.92E+0
509,1.36E+0
510,1.92E+0
511,1.28E+0
512,1.84E+0
513,1.40E+0
514,1.40E+0
515,1.80E+0
516,1.56E+0
517,1.80E+0
518,1.44E+0
519,1.80E+0
520,1.80E+0
521,1.36E+0
522,1.44E+0
523,1.80E+0
524,1.36E+0
525,1.76E+0
526,1.64E+0
527,1.16E+0
528,1.48E+0
529,1.16E+0
530,1.12E+0
531,1.60E+0
532,1.04E+0
533,1.40E+0
534,9.60E-1
535,1.48E+0
536,1.44E+0
537,9.20E-1
538,1.48E+0
539,1.04E+0
540,1.04E+0
541,1.48E+0
542,1.16E+0
543,1.56E+0
544,1.08E+0
545,1.44E+0
546,1.40E+0
547,1.04E+0
548,1.00E+0
549,1.36E+0
550,1.28E+0
551,9.20E-1
552,1.24E+0
553,9.60E-1
554,8.80E-1
555,1.16E+0
556,8.80E-1
557,1.24E+0
558,1.36E+0
559,8.40E-1
560,1.24E+0
561,8.40E-1
562,1.16E+0
563,8.40E-1
564,8.80E-1
565,1.68E+0
566,8.80E-1
567,1.88E+0
568,1.32E+0
569,8.80E-1
570,8.80E-1
571,1.44E+0
572,8.80E-1
573,1.32E+0
574,1.40E+0
575,8.80E-1
576,8.80E-1
577,1.32E+0
578,8.40E-1
579,1.84E+0
580,8.80E-1
581,1.92E+0
582,1.92E+0
583,8.40E-1
584,8.80E-1
585,1.80E+0
586,1.52E+0
587,8.40E-1
588,8.80E-1
589,1.68E+0
590,8.80E-1
591,1.60E+0
592,9.20E-1
593,1.52E+0
594,1.60E+0
595,9.20E-1
596,1.52E+0
597,9.60E-1
598,1.64E+0
599,1.04E+0
600,1.56E+0
601,1.16E+0
602,1.56E+0
603,1.20E+0
604,1.28E+0
605,1.76E+0
606,1.40E+0
607,1.76E+0
608,1.68E+0
609,1.36E+0
610,1.44E+0
611,1.80E+0
612,1.56E+0
613,1.88E+0
614,1.92E+0
615,1.52E+0
616,1.64E+0
617,1.92E+0
618,1.92E+0
619,1.64E+0
620,1.68E+0
621,1.92E+0
622,1.84E+0
623,1.96E+0
624,1.92E+0
625,1.80E+0
626,1.76E+0
627,1.96E+0
628,1.92E+0
629,1.68E+0
630,1.68E+0
631,1.92E+0
632,1.64E+0
633,1.92E+0
634,1.88E+0
635,1.44E+0
636,1.76E+0
637,1.44E+0
638,1.80E+0
639,1.36E+0
640,1.56E+0
641,1.16E+0
642,9.60E-1
643,1.40E+0
644,1.24E+0
645,9.20E-1
646,8.80E-1
647,1.20E+0
648,1.16E+0
649,8.40E-1
650,8.80E-1
651,1.08E+0
652,8.80E-1
653,1.28E+0
654,8.80E-1
655,1.52E+0
656,1.04E+0
657,1.68E+0
658,1.20E+0
659,1.84E+0
660,1.52E+0
661,1.92E+0
662,1.60E+0
663,1.92E+0
664,2.00E+0
665,1.76E+0
666,2.00E+0
667,1.84E+0
668,2.00E+0
669,1.88E+0
670,2.00E+0
671,1.88E+0
672,1.80E+0
673,2.00E+0
674,1.88E+0
675,2.00E+0
676,2.00E+0
677,1.88E+0
678,2.00E+0
679,1.88E+0
680,2.00E+0
681,1.80E+0
682,1.88E+0
683,2.00E+0
684,2.00E+0
685,1.88E+0
686,1.88E+0
687,2.00E+0
688,2.00E+0
689,1.64E+0
690,2.00E+0
691,1.84E+0
692,1.96E+0
693,1.72E+0
694,1.84E+0
695,9.20E-1
696,2.00E+0
697,1.08E+0
698,1.76E+0
699,8.40E-1
700,8.40E-1
701,1.40E+0
702,8.40E-1
703,1.48E+0
704,8.40E-1
705,1.44E+0
706,8.40E-1
707,1.20E+0
708,8.40E-1
709,1.16E+0
710,1.04E+0
711,8.40E-1
712,1.00E+0
713,8.40E-1
714,8.40E-1
715,1.04E+0
716,8.40E-1
717,9.60E-1
718,8.40E-1
719,1.00E+0
720,8.40E-1
721,1.04E+0
722,8.40E-1
723,9.60E-1
724,8.40E-1
725,9.60E-1
726,8.40E-1
727,9.60E-1
728,9.60E-1
729,8.40E-1
730,8.40E-1
731,9.60E-1
732,8.40E-1
733,1.00E+0
734,8.40E-1
735,1.04E+0
736,1.08E+0
737,8.40E-1
738,9.60E-1
739,8.40E-1
740,8.40E-1
741,1.00E+0
742,8.40E-1
743,9.60E-1
744,8.40E-1
745,1.04E+0
746,8.40E-1
747,1.12E+0
748,8.40E-1
749,1.16E+0
750,8.40E-1
751,1.24E+0
752,1.08E+0
753,8.40E-1
754,8.40E-1
755,1.20E+0
756,8.40E-1
757,1.08E+0
758,8.40E-1
759,1.32E+0
760,1.40E+0
761,8.40E-1
762,8.40E-1
763,1.84E+0
764,1.72E+0
765,8.40E-1
766,8.40E-1
767,1.04E+0
768,8.40E-1
769,1.56E+0
770,1.52E+0
771,8.40E-1
772,8.40E-1
773,1.00E+0
774,9.20E-1
775,1.44E+0
776,1.32E+0
777,8.40E-1
778,8.40E-1
779,1.20E+0
780,9.60E-1
781,1.32E+0
782,8.40E-1
783,1.20E+0
784,8.40E-1
785,1.32E+0
786,1.72E+0
787,8.80E-1
788,1.16E+0
789,8.40E-1
790,8.40E-1
791,1.52E+0
792,1.48E+0
793,8.40E-1
794,8.40E-1
795,1.08E+0
796,8.40E-1
797,1.32E+0
798,1.20E+0
799,8.40E-1
800,8.40E-1
801,1.04E+0
802,8.80E-1
803,1.28E+0
804,1.36E+0
805,8.40E-1
806,8.40E-1
807,1.16E+0
808,1.28E+0
809,8.80E-1
810,8.40E-1
811,1.28E+0
812,8.40E-1
813,1.16E+0
814,8.80E-1
815,1.32E+0
816,1.12E+0
817,8.40E-1
818,1.32E+0
819,8.80E-1
820,1.36E+0
821,8.40E-1
822,1.24E+0
823,8.40E-1
824,8.80E-1
825,1.12E+0
826,1.04E+0
827,8.40E-1
828,8.40E-1
829,1.00E+0
830,1.08E+0
831,8.40E-1
832,1.12E+0
833,8.40E-1
834,8.40E-1
835,1.20E+0
836,8.40E-1
837,1.08E+0
838,8.40E-1
839,1.20E+0
840,8.40E-1
841,1.12E+0
842,1.00E+0
843,8.40E-1
844,8.40E-1
845,9.60E-1
846,8.40E-1
847,1.08E+0
848,8.40E-1
849,1.04E+0
850,1.04E+0
851,8.40E-1
852,8.40E-1
853,1.16E+0
854,8.40E-1
855,1.20E+0
856,8.40E-1
857,1.24E+0
858,8.40E-1
859,1.28E+0
860,8.40E-1
861,1.24E+0
862,1.20E+0
863,8.40E-1
864,8.40E-1
865,1.08E+0
866,1.04E+0
867,8.40E-1
868,8.40E-1
869,1.24E+0
870,1.24E+0
871,8.40E-1
872,1.12E+0
873,8.40E-1
874,1.12E+0
875,8.40E-1
876,8.80E-1
877,1.04E+0
878,8.80E-1
879,1.04E+0
880,8.80E-1
881,1.08E+0
882,1.04E+0
883,8.80E-1
884,8.80E-1
885,1.20E+0
886,1.08E+0
887,8.40E-1
888,1.00E+0
889,8.40E-1
890,8.40E-1
891,1.08E+0
892,1.04E+0
893,8.80E-1
894,8.40E-1
895,1.00E+0
896,8.80E-1
897,1.12E+0
898,8.80E-1
899,1.12E+0
900,8.80E-1
901,1.12E+0
902,9.20E-1
903,1.52E+0
904,1.48E+0
905,8.80E-1
906,8.80E-1
907,1.48E+0
908,1.68E+0
909,9.60E-1
910,1.48E+0
911,8.80E-1
912,1.04E+0
913,1.72E+0
914,1.72E+0
915,1.20E+0
916,1.04E+0
917,1.52E+0
918,1.08E+0
919,1.68E+0
920,1.08E+0
921,1.56E+0
922,1.16E+0
923,1.68E+0
924,1.60E+0
925,1.16E+0
926,1.56E+0
927,1.12E+0
928,1.12E+0
929,1.64E+0
930,1.76E+0
931,1.16E+0
932,1.20E+0
933,1.56E+0
934,1.20E+0
935,1.56E+0
936,1.24E+0
937,1.56E+0
938,1.48E+0
939,1.04E+0
940,1.00E+0
941,1.48E+0
942,1.48E+0
943,1.08E+0
944,1.64E+0
945,9.20E-1
946,1.20E+0
947,1.64E+0
948,1.44E+0
949,8.80E-1
950,9.20E-1
951,1.56E+0
952,1.60E+0
953,1.08E+0
954,1.28E+0
955,8.80E-1
956,9.20E-1
957,1.56E+0
958,1.60E+0
959,1.08E+0
960,1.36E+0
961,8.80E-1
