metingen/metingen cuvet/3_8g10g.csv

X,CH1,Start,Increment
Sequence,VOLT,-1.00E+0,2.00E-2
0,8.80E-1
1,1.00E+0
2,1.08E+0
3,8.80E-1
4,8.80E-1
5,1.00E+0
6,1.04E+0
7,8.80E-1
8,8.80E-1
9,1.16E+0
10,8.80E-1
11,1.00E+0
12,8.80E-1
13,1.04E+0
14,1.04E+0
15,8.80E-1
16,8.80E-1
17,1.04E+0
18,1.04E+0
19,8.80E-1
20,8.80E-1
21,1.08E+0
22,1.04E+0
23,8.80E-1
24,8.80E-1
25,1.04E+0
26,8.80E-1
27,1.04E+0
28,8.80E-1
29,1.04E+0
30,1.00E+0
31,8.80E-1
32,8.80E-1
33,1.04E+0
34,8.80E-1
35,1.04E+0
36,8.80E-1
37,1.00E+0
38,8.80E-1
39,1.04E+0
40,8.80E-1
41,1.04E+0
42,8.80E-1
43,1.00E+0
44,8.80E-1
45,1.04E+0
46,8.80E-1
47,1.04E+0
48,8.80E-1
49,1.04E+0
50,1.04E+0
51,8.80E-1
52,1.08E+0
53,8.80E-1
54,8.80E-1
55,1.04E+0
56,1.08E+0
57,8.80E-1
58,8.80E-1
59,1.08E+0
60,8.80E-1
61,1.12E+0
62,8.80E-1
63,1.08E+0
64,8.80E-1
65,1.12E+0
66,8.80E-1
67,1.08E+0
68,1.08E+0
69,8.80E-1
70,8.80E-1
71,1.08E+0
72,1.04E+0
73,8.80E-1
74,8.80E-1
75,1.08E+0
76,8.80E-1
77,1.04E+0
78,1.04E+0
79,8.80E-1
80,8.80E-1
81,1.04E+0
82,8.80E-1
83,1.08E+0
84,8.80E-1
85,1.04E+0
86,8.80E-1
87,1.08E+0
88,8.80E-1
89,1.00E+0
90,1.08E+0
91,8.80E-1
92,8.80E-1
93,1.04E+0
94,8.80E-1
95,1.08E+0
96,1.08E+0
97,8.80E-1
98,8.80E-1
99,1.12E+0
100,8.80E-1
101,1.16E+0
102,8.80E-1
103,1.16E+0
104,9.20E-1
105,1.16E+0
106,1.12E+0
107,8.80E-1
108,1.16E+0
109,8.80E-1
110,1.12E+0
111,9.20E-1
112,1.20E+0
113,9.20E-1
114,1.16E+0
115,8.80E-1
116,9.20E-1
117,1.20E+0
118,1.16E+0
119,9.20E-1
120,1.20E+0
121,8.80E-1
122,1.16E+0
123,8.80E-1
124,1.24E+0
125,9.20E-1
126,8.80E-1
127,1.28E+0
128,1.16E+0
129,9.60E-1
130,9.20E-1
131,1.20E+0
132,9.20E-1
133,1.16E+0
134,1.12E+0
135,9.20E-1
136,9.20E-1
137,1.16E+0
138,9.20E-1
139,1.20E+0
140,1.16E+0
141,8.80E-1
142,9.20E-1
143,1.20E+0
144,9.60E-1
145,1.12E+0
146,9.20E-1
147,1.28E+0
148,1.12E+0
149,9.20E-1
150,1.24E+0
151,9.20E-1
152,9.60E-1
153,1.24E+0
154,9.60E-1
155,1.20E+0
156,9.20E-1
157,1.24E+0
158,1.00E+0
159,1.32E+0
160,1.32E+0
161,1.00E+0
162,1.16E+0
163,1.56E+0
164,1.16E+0
165,1.60E+0
166,1.52E+0
167,1.24E+0
168,1.68E+0
169,1.12E+0
170,1.36E+0
171,1.00E+0
172,1.04E+0
173,1.36E+0
174,1.28E+0
175,1.00E+0
176,9.60E-1
177,1.24E+0
178,1.28E+0
179,9.20E-1
180,9.20E-1
181,1.24E+0
182,1.20E+0
183,9.20E-1
184,9.20E-1
185,1.24E+0
186,1.16E+0
187,9.20E-1
188,1.24E+0
189,8.80E-1
190,1.28E+0
191,8.80E-1
192,1.32E+0
193,8.80E-1
194,8.80E-1
195,1.64E+0
196,9.60E-1
197,1.60E+0
198,1.00E+0
199,1.48E+0
200,1.24E+0
201,9.20E-1
202,9.20E-1
203,1.24E+0
204,1.36E+0
205,9.20E-1
206,8.80E-1
207,1.20E+0
208,9.20E-1
209,1.24E+0
210,8.80E-1
211,1.96E+0
212,8.80E-1
213,2.04E+0
214,8.80E-1
215,2.08E+0
216,8.80E-1
217,2.00E+0
218,9.20E-1
219,1.88E+0
220,1.88E+0
221,1.00E+0
222,1.80E+0
223,1.00E+0
224,9.60E-1
225,1.92E+0
226,1.20E+0
227,1.88E+0
228,1.80E+0
229,1.20E+0
230,1.44E+0
231,1.84E+0
232,1.52E+0
233,1.96E+0
234,1.44E+0
235,2.00E+0
236,1.64E+0
237,2.04E+0
238,2.08E+0
239,1.88E+0
240,2.12E+0
241,1.88E+0
242,1.96E+0
243,2.12E+0
244,2.12E+0
245,2.00E+0
246,2.00E+0
247,2.12E+0
248,2.12E+0
249,1.88E+0
250,2.04E+0
251,1.84E+0
252,2.08E+0
253,1.48E+0
254,1.88E+0
255,1.40E+0
256,1.84E+0
257,1.32E+0
258,1.72E+0
259,1.24E+0
260,1.68E+0
261,1.36E+0
262,1.84E+0
263,1.20E+0
264,1.68E+0
265,1.28E+0
266,1.20E+0
267,1.76E+0
268,1.20E+0
269,1.72E+0
270,1.68E+0
271,1.00E+0
272,1.36E+0
273,9.20E-1
274,1.20E+0
275,8.80E-1
276,8.80E-1
277,1.04E+0
278,8.80E-1
279,1.20E+0
280,1.08E+0
281,1.68E+0
282,1.44E+0
283,1.84E+0
284,1.40E+0
285,1.84E+0
286,1.60E+0
287,1.96E+0
288,2.04E+0
289,1.72E+0
290,1.68E+0
291,2.08E+0
292,2.08E+0
293,1.92E+0
294,1.96E+0
295,2.12E+0
296,2.08E+0
297,1.88E+0
298,2.00E+0
299,2.12E+0
300,1.88E+0
301,2.12E+0
302,2.12E+0
303,1.80E+0
304,1.88E+0
305,2.12E+0
306,2.08E+0
307,1.76E+0
308,2.12E+0
309,1.68E+0
310,2.00E+0
311,1.40E+0
312,1.36E+0
313,1.84E+0
314,1.32E+0
315,1.88E+0
316,1.32E+0
317,1.92E+0
318,1.96E+0
319,1.40E+0
320,1.92E+0
321,1.44E+0
322,1.76E+0
323,1.36E+0
324,1.80E+0
325,1.40E+0
326,1.76E+0
327,1.24E+0
328,1.72E+0
329,1.36E+0
330,1.80E+0
331,1.28E+0
332,1.68E+0
333,1.04E+0
334,1.04E+0
335,1.44E+0
336,1.32E+0
337,9.60E-1
338,9.60E-1
339,1.24E+0
340,1.20E+0
341,8.80E-1
342,1.12E+0
343,8.80E-1
344,8.80E-1
345,9.60E-1
346,8.80E-1
347,1.00E+0
348,8.80E-1
349,1.20E+0
350,9.20E-1
351,1.16E+0
352,9.60E-1
353,1.20E+0
354,9.20E-1
355,1.40E+0
356,1.08E+0
357,1.64E+0
358,1.00E+0
359,1.44E+0
360,1.08E+0
361,1.56E+0
362,1.44E+0
363,1.12E+0
364,1.24E+0
365,1.60E+0
366,1.24E+0
367,1.76E+0
368,1.72E+0
369,1.36E+0
370,1.08E+0
371,1.56E+0
372,1.76E+0
373,1.32E+0
374,1.88E+0
375,1.44E+0
376,1.88E+0
377,1.60E+0
378,1.56E+0
379,2.08E+0
380,1.92E+0
381,2.04E+0
382,1.76E+0
383,2.08E+0
384,2.08E+0
385,1.84E+0
386,1.84E+0
387,2.08E+0
388,1.84E+0
389,2.08E+0
390,1.96E+0
391,2.12E+0
392,2.12E+0
393,2.00E+0
394,2.04E+0
395,2.12E+0
396,2.12E+0
397,2.00E+0
398,2.12E+0
399,2.00E+0
400,2.04E+0
401,2.12E+0
402,2.12E+0
403,1.96E+0
404,2.12E+0
405,1.92E+0
406,2.12E+0
407,2.00E+0
408,2.12E+0
409,2.00E+0
410,2.12E+0
411,1.96E+0
412,2.04E+0
413,2.12E+0
414,2.12E+0
415,2.00E+0
416,2.08E+0
417,1.84E+0
418,1.84E+0
419,2.08E+0
420,2.04E+0
421,1.84E+0
422,1.72E+0
423,2.04E+0
424,1.80E+0
425,2.04E+0
426,2.00E+0
427,1.68E+0
428,2.04E+0
429,1.60E+0
430,2.08E+0
431,1.72E+0
432,1.76E+0
433,2.04E+0
434,1.68E+0
435,2.12E+0
436,1.84E+0
437,2.12E+0
438,2.08E+0
439,1.84E+0
440,2.08E+0
441,1.84E+0
442,1.84E+0
443,2.12E+0
444,1.92E+0
445,2.12E+0
446,1.96E+0
447,2.12E+0
448,2.12E+0
449,1.88E+0
450,1.88E+0
451,2.12E+0
452,2.00E+0
453,2.12E+0
454,2.12E+0
455,1.96E+0
456,2.00E+0
457,2.12E+0
458,2.12E+0
459,1.88E+0
460,2.12E+0
461,1.76E+0
462,2.12E+0
463,1.56E+0
464,2.08E+0
465,1.52E+0
466,2.08E+0
467,1.48E+0
468,1.92E+0
469,1.32E+0
470,1.72E+0
471,1.24E+0
472,1.68E+0
473,1.24E+0
474,1.36E+0
475,1.00E+0
476,1.36E+0
477,9.60E-1
478,1.24E+0
479,8.80E-1
480,1.20E+0
481,8.80E-1
482,8.80E-1
483,1.00E+0
484,8.80E-1
485,1.04E+0
486,8.80E-1
487,1.16E+0
488,8.80E-1
489,1.04E+0
490,8.80E-1
491,1.12E+0
492,9.20E-1
493,1.36E+0
494,9.60E-1
495,1.52E+0
496,9.60E-1
497,1.48E+0
498,1.68E+0
499,1.20E+0
500,1.28E+0
501,1.72E+0
502,1.28E+0
503,1.72E+0
504,1.36E+0
505,1.80E+0
506,1.48E+0
507,1.80E+0
508,1.52E+0
509,1.88E+0
510,1.60E+0
511,1.88E+0
512,1.60E+0
513,1.96E+0
514,1.68E+0
515,2.16E+0
516,1.88E+0
517,2.16E+0
518,1.92E+0
519,2.12E+0
520,2.16E+0
521,2.00E+0
522,2.16E+0
523,2.00E+0
524,2.08E+0
525,1.80E+0
526,2.12E+0
527,1.60E+0
528,1.92E+0
529,1.44E+0
530,1.80E+0
531,1.16E+0
532,1.48E+0
533,1.04E+0
534,1.28E+0
535,1.00E+0
536,1.20E+0
537,9.20E-1
538,9.20E-1
539,1.08E+0
540,9.20E-1
541,1.12E+0
542,9.60E-1
543,1.32E+0
544,1.04E+0
545,1.40E+0
546,1.24E+0
547,1.80E+0
548,1.56E+0
549,1.88E+0
550,2.04E+0
551,1.68E+0
552,2.16E+0
553,1.88E+0
554,2.00E+0
555,2.20E+0
556,2.20E+0
557,2.08E+0
558,2.20E+0
559,1.96E+0
560,1.80E+0
561,2.12E+0
562,2.04E+0
563,1.68E+0
564,2.00E+0
565,1.44E+0
566,1.68E+0
567,1.28E+0
568,1.44E+0
569,1.04E+0
570,9.60E-1
571,1.16E+0
572,1.16E+0
573,9.60E-1
574,9.60E-1
575,1.12E+0
576,9.60E-1
577,1.28E+0
578,1.04E+0
579,1.40E+0
580,1.08E+0
581,1.68E+0
582,1.44E+0
583,1.84E+0
584,1.64E+0
585,2.00E+0
586,1.72E+0
587,2.16E+0
588,1.88E+0
589,2.20E+0
590,2.20E+0
591,2.00E+0
592,2.24E+0
593,2.08E+0
594,2.20E+0
595,2.04E+0
596,2.20E+0
597,2.04E+0
598,2.20E+0
599,2.00E+0
600,2.12E+0
601,1.72E+0
602,2.00E+0
603,1.52E+0
604,1.76E+0
605,1.32E+0
606,1.72E+0
607,1.20E+0
608,1.16E+0
609,1.80E+0
610,1.48E+0
611,1.04E+0
612,1.00E+0
613,1.24E+0
614,1.20E+0
615,9.60E-1
616,1.16E+0
617,9.60E-1
618,9.60E-1
619,1.16E+0
620,9.60E-1
621,1.20E+0
622,1.00E+0
623,1.28E+0
624,1.04E+0
625,1.48E+0
626,1.16E+0
627,1.68E+0
628,1.52E+0
629,2.00E+0
630,1.80E+0
631,2.16E+0
632,1.76E+0
633,2.16E+0
634,2.00E+0
635,2.24E+0
636,2.24E+0
637,2.08E+0
638,2.20E+0
639,2.00E+0
640,2.24E+0
641,1.84E+0
642,2.12E+0
643,1.60E+0
644,2.08E+0
645,1.48E+0
646,1.76E+0
647,1.20E+0
648,1.88E+0
649,1.04E+0
650,1.68E+0
651,9.60E-1
652,1.48E+0
653,9.20E-1
654,1.20E+0
655,9.60E-1
656,1.12E+0
657,9.20E-1
658,9.60E-1
659,1.08E+0
660,9.20E-1
661,1.12E+0
662,1.04E+0
663,9.20E-1
664,9.60E-1
665,1.32E+0
666,1.00E+0
667,1.60E+0
668,1.28E+0
669,2.04E+0
670,1.44E+0
671,2.00E+0
672,1.84E+0
673,2.24E+0
674,2.20E+0
675,2.04E+0
676,2.20E+0
677,1.96E+0
678,2.12E+0
679,1.80E+0
680,2.00E+0
681,1.52E+0
682,1.68E+0
683,1.24E+0
684,1.36E+0
685,9.60E-1
686,1.24E+0
687,9.20E-1
688,9.20E-1
689,1.04E+0
690,9.20E-1
691,1.20E+0
692,1.08E+0
693,1.48E+0
694,1.28E+0
695,2.16E+0
696,2.20E+0
697,1.92E+0
698,2.20E+0
699,2.00E+0
700,2.16E+0
701,1.84E+0
702,2.12E+0
703,1.72E+0
704,2.00E+0
705,1.56E+0
706,1.68E+0
707,1.00E+0
708,1.44E+0
709,9.60E-1
710,1.28E+0
711,9.20E-1
712,1.08E+0
713,8.80E-1
714,9.20E-1
715,1.08E+0
716,9.60E-1
717,1.36E+0
718,1.24E+0
719,1.64E+0
720,1.68E+0
721,1.24E+0
722,1.36E+0
723,1.76E+0
724,1.64E+0
725,2.08E+0
726,2.04E+0
727,1.68E+0
728,1.68E+0
729,2.12E+0
730,1.96E+0
731,2.16E+0
732,2.00E+0
733,2.16E+0
734,2.16E+0
735,1.96E+0
736,2.16E+0
737,1.96E+0
738,2.16E+0
739,1.96E+0
740,2.12E+0
741,1.72E+0
742,2.04E+0
743,1.52E+0
744,2.04E+0
745,1.64E+0
746,2.04E+0
747,1.64E+0
748,2.08E+0
749,1.64E+0
750,2.04E+0
751,1.72E+0
752,2.00E+0
753,1.60E+0
754,1.52E+0
755,2.04E+0
756,2.04E+0
757,1.44E+0
758,1.92E+0
759,1.48E+0
760,1.40E+0
761,2.08E+0
762,2.00E+0
763,1.44E+0
764,1.52E+0
765,1.92E+0
766,1.56E+0
767,2.08E+0
768,1.68E+0
769,2.00E+0
770,1.72E+0
771,2.08E+0
772,1.72E+0
773,2.08E+0
774,1.52E+0
775,2.16E+0
776,1.84E+0
777,2.16E+0
778,1.76E+0
779,2.16E+0
780,2.16E+0
781,1.76E+0
782,2.16E+0
783,9.20E-1
784,9.20E-1
785,2.16E+0
786,2.08E+0
787,8.80E-1
788,9.20E-1
789,2.16E+0
790,2.16E+0
791,9.20E-1
792,8.80E-1
793,2.16E+0
794,2.16E+0
795,8.80E-1
796,2.16E+0
797,8.80E-1
798,8.80E-1
799,2.16E+0
800,8.80E-1
801,2.12E+0
802,8.80E-1
803,2.12E+0
804,8.80E-1
805,2.16E+0
806,2.16E+0
807,1.00E+0
808,2.16E+0
809,1.16E+0
810,1.80E+0
811,2.16E+0
812,2.16E+0
813,1.76E+0
814,2.20E+0
815,1.88E+0
816,2.16E+0
817,2.00E+0
818,2.16E+0
819,1.92E+0
820,1.88E+0
821,2.20E+0
822,2.16E+0
823,2.00E+0
824,2.16E+0
825,1.96E+0
826,2.20E+0
827,1.96E+0
828,2.20E+0
829,2.04E+0
830,2.16E+0
831,1.92E+0
832,2.16E+0
833,2.00E+0
834,2.20E+0
835,2.00E+0
836,2.04E+0
837,2.20E+0
838,1.92E+0
839,2.20E+0
840,2.16E+0
841,1.96E+0
842,2.16E+0
843,2.00E+0
844,2.20E+0
845,1.96E+0
846,1.96E+0
847,2.20E+0
848,2.16E+0
849,2.00E+0
850,2.16E+0
851,2.04E+0
852,2.20E+0
853,2.00E+0
854,2.16E+0
855,1.96E+0
856,2.16E+0
857,1.96E+0
858,1.92E+0
859,2.16E+0
860,2.16E+0
861,2.04E+0
862,2.16E+0
863,2.04E+0
864,2.20E+0
865,2.04E+0
866,2.04E+0
867,2.16E+0
868,2.16E+0
869,2.00E+0
870,2.16E+0
871,2.00E+0
872,2.16E+0
873,2.00E+0
874,2.16E+0
875,2.00E+0
876,1.96E+0
877,2.16E+0
878,2.16E+0
879,2.04E+0
880,2.16E+0
881,2.00E+0
882,2.16E+0
883,2.04E+0
884,2.16E+0
885,2.00E+0
886,2.16E+0
887,2.04E+0
888,2.16E+0
889,2.00E+0
890,2.20E+0
891,2.04E+0
892,2.04E+0
893,2.20E+0
894,2.20E+0
895,2.00E+0
896,2.04E+0
897,2.20E+0
