metingen/metingen cuvet/4_2g4g.csv

X,CH1,Start,Increment
Sequence,VOLT,-6.80E-1,2.00E-2
0,1.40E+0
1,1.24E+0
2,1.28E+0
3,1.40E+0
4,1.40E+0
5,1.24E+0
6,1.28E+0
7,1.40E+0
8,1.32E+0
9,1.40E+0
10,1.32E+0
11,1.40E+0
12,1.32E+0
13,1.40E+0
14,1.32E+0
15,1.40E+0
16,1.40E+0
17,1.32E+0
18,1.40E+0
19,1.32E+0
20,1.40E+0
21,1.32E+0
22,1.32E+0
23,1.40E+0
24,1.40E+0
25,1.28E+0
26,1.32E+0
27,1.40E+0
28,1.28E+0
29,1.40E+0
30,1.36E+0
31,1.28E+0
32,1.36E+0
33,1.28E+0
34,1.24E+0
35,1.40E+0
36,1.36E+0
37,1.24E+0
38,1.36E+0
39,1.24E+0
40,1.36E+0
41,1.24E+0
42,1.36E+0
43,1.24E+0
44,1.36E+0
45,1.20E+0
46,1.12E+0
47,1.40E+0
48,1.08E+0
49,1.40E+0
50,1.40E+0
51,1.12E+0
52,1.40E+0
53,1.08E+0
54,1.40E+0
55,1.08E+0
56,1.12E+0
57,1.40E+0
58,1.40E+0
59,1.08E+0
60,1.08E+0
61,1.36E+0
62,1.28E+0
63,1.08E+0
64,1.08E+0
65,1.28E+0
66,1.08E+0
67,1.28E+0
68,1.24E+0
69,1.08E+0
70,1.08E+0
71,1.24E+0
72,1.08E+0
73,1.24E+0
74,1.16E+0
75,1.28E+0
76,1.16E+0
77,1.28E+0
78,1.08E+0
79,1.40E+0
80,1.40E+0
81,1.08E+0
82,1.08E+0
83,1.40E+0
84,1.08E+0
85,1.40E+0
86,1.12E+0
87,1.40E+0
88,1.40E+0
89,1.08E+0
90,1.36E+0
91,1.08E+0
92,1.12E+0
93,1.36E+0
94,1.36E+0
95,1.12E+0
96,1.08E+0
97,1.40E+0
98,1.08E+0
99,1.40E+0
100,1.12E+0
101,1.40E+0
102,1.40E+0
103,1.08E+0
104,1.40E+0
105,1.08E+0
106,1.40E+0
107,1.08E+0
108,1.08E+0
109,1.40E+0
110,1.32E+0
111,1.16E+0
112,1.16E+0
113,1.36E+0
114,1.36E+0
115,1.16E+0
116,1.36E+0
117,1.20E+0
118,1.20E+0
119,1.36E+0
120,1.24E+0
121,1.36E+0
122,1.36E+0
123,1.24E+0
124,1.24E+0
125,1.40E+0
126,1.36E+0
127,1.24E+0
128,1.36E+0
129,1.24E+0
130,1.24E+0
131,1.36E+0
132,1.36E+0
133,1.24E+0
134,1.40E+0
135,1.08E+0
136,1.40E+0
137,1.08E+0
138,1.20E+0
139,1.40E+0
140,1.16E+0
141,1.40E+0
142,1.24E+0
143,1.40E+0
144,1.36E+0
145,1.20E+0
146,1.20E+0
147,1.36E+0
148,1.36E+0
149,1.20E+0
150,1.40E+0
151,1.08E+0
152,1.40E+0
153,1.08E+0
154,1.40E+0
155,1.12E+0
156,1.16E+0
157,1.40E+0
158,1.20E+0
159,1.40E+0
160,1.36E+0
161,1.24E+0
162,1.24E+0
163,1.40E+0
164,1.28E+0
165,1.40E+0
166,1.36E+0
167,1.20E+0
168,1.24E+0
169,1.36E+0
170,1.36E+0
171,1.24E+0
172,1.40E+0
173,1.16E+0
174,1.16E+0
175,1.40E+0
176,1.40E+0
177,1.20E+0
178,1.40E+0
179,1.20E+0
180,1.40E+0
181,1.20E+0
182,1.40E+0
183,1.24E+0
184,1.40E+0
185,1.24E+0
186,1.40E+0
187,1.28E+0
188,1.40E+0
189,1.32E+0
190,1.40E+0
191,1.28E+0
192,1.28E+0
193,1.40E+0
194,1.32E+0
195,1.40E+0
196,1.32E+0
197,1.40E+0
198,1.40E+0
199,1.32E+0
200,1.40E+0
201,1.32E+0
202,1.40E+0
203,1.32E+0
204,1.40E+0
205,1.32E+0
206,1.32E+0
207,1.40E+0
208,1.40E+0
209,1.28E+0
210,1.36E+0
211,1.20E+0
212,1.36E+0
213,1.20E+0
214,1.16E+0
215,1.36E+0
216,1.16E+0
217,1.36E+0
218,1.32E+0
219,1.16E+0
220,1.28E+0
221,1.12E+0
222,1.24E+0
223,1.12E+0
224,1.12E+0
225,1.24E+0
226,1.12E+0
227,1.24E+0
228,1.12E+0
229,1.24E+0
230,1.20E+0
231,1.12E+0
232,1.20E+0
233,1.12E+0
234,1.12E+0
235,1.24E+0
236,1.16E+0
237,1.24E+0
238,1.16E+0
239,1.28E+0
240,1.20E+0
241,1.32E+0
242,1.20E+0
243,1.32E+0
244,1.20E+0
245,1.36E+0
246,1.24E+0
247,1.36E+0
248,1.28E+0
249,1.40E+0
250,1.40E+0
251,1.28E+0
252,1.40E+0
253,1.28E+0
254,1.32E+0
255,1.44E+0
256,1.44E+0
257,1.36E+0
258,1.44E+0
259,1.36E+0
260,1.36E+0
261,1.48E+0
262,1.44E+0
263,1.36E+0
264,1.36E+0
265,1.48E+0
266,1.44E+0
267,1.36E+0
268,1.36E+0
269,1.48E+0
270,1.48E+0
271,1.36E+0
272,1.48E+0
273,1.36E+0
274,1.48E+0
275,1.36E+0
276,1.40E+0
277,1.48E+0
278,1.48E+0
279,1.40E+0
280,1.48E+0
281,1.36E+0
282,1.40E+0
283,1.48E+0
284,1.48E+0
285,1.40E+0
286,1.48E+0
287,1.40E+0
288,1.40E+0
289,1.48E+0
290,1.48E+0
291,1.40E+0
292,1.48E+0
293,1.40E+0
294,1.48E+0
295,1.40E+0
296,1.48E+0
297,1.40E+0
298,1.48E+0
299,1.40E+0
300,1.48E+0
301,1.36E+0
302,1.48E+0
303,1.40E+0
304,1.40E+0
305,1.48E+0
306,1.48E+0
307,1.36E+0
308,1.48E+0
309,1.36E+0
310,1.36E+0
311,1.48E+0
312,1.36E+0
313,1.48E+0
314,1.48E+0
315,1.36E+0
316,1.48E+0
317,1.36E+0
318,1.48E+0
319,1.32E+0
320,1.32E+0
321,1.48E+0
322,1.36E+0
323,1.48E+0
324,1.36E+0
325,1.48E+0
326,1.44E+0
327,1.32E+0
328,1.32E+0
329,1.44E+0
330,1.44E+0
331,1.28E+0
332,1.28E+0
333,1.40E+0
334,1.36E+0
335,1.28E+0
336,1.36E+0
337,1.20E+0
338,1.36E+0
339,1.20E+0
340,1.36E+0
341,1.20E+0
342,1.32E+0
343,1.16E+0
344,1.16E+0
345,1.32E+0
346,1.28E+0
347,1.16E+0
348,1.28E+0
349,1.16E+0
350,1.16E+0
351,1.28E+0
352,1.28E+0
353,1.12E+0
354,1.28E+0
355,1.12E+0
356,1.12E+0
357,1.28E+0
358,1.12E+0
359,1.24E+0
360,1.16E+0
361,1.28E+0
362,1.16E+0
363,1.28E+0
364,1.28E+0
365,1.12E+0
366,1.12E+0
367,1.24E+0
368,1.08E+0
369,1.24E+0
370,1.08E+0
371,1.24E+0
372,1.24E+0
373,1.08E+0
374,1.32E+0
375,1.08E+0
376,1.32E+0
377,1.04E+0
378,1.08E+0
379,1.24E+0
380,1.08E+0
381,1.20E+0
382,1.04E+0
383,1.20E+0
384,1.16E+0
385,1.04E+0
386,1.16E+0
387,1.04E+0
388,1.16E+0
389,1.04E+0
390,1.16E+0
391,1.04E+0
392,1.08E+0
393,1.16E+0
394,1.08E+0
395,1.20E+0
396,1.08E+0
397,1.20E+0
398,1.08E+0
399,1.20E+0
400,1.08E+0
401,1.20E+0
402,1.08E+0
403,1.20E+0
404,1.08E+0
405,1.20E+0
406,1.08E+0
407,1.24E+0
408,1.24E+0
409,1.08E+0
410,1.32E+0
411,1.12E+0
412,1.20E+0
413,1.32E+0
414,1.20E+0
415,1.40E+0
416,1.28E+0
417,1.48E+0
418,1.32E+0
419,1.56E+0
420,1.36E+0
421,1.60E+0
422,1.48E+0
423,1.68E+0
424,1.52E+0
425,1.72E+0
426,1.72E+0
427,1.56E+0
428,1.60E+0
429,1.76E+0
430,1.68E+0
431,1.76E+0
432,1.68E+0
433,1.80E+0
434,1.80E+0
435,1.60E+0
436,1.80E+0
437,1.64E+0
438,1.64E+0
439,1.80E+0
440,1.60E+0
441,1.80E+0
442,1.68E+0
443,1.84E+0
444,1.84E+0
445,1.72E+0
446,1.76E+0
447,1.84E+0
448,1.76E+0
449,1.88E+0
450,1.76E+0
451,1.88E+0
452,1.88E+0
453,1.76E+0
454,1.88E+0
455,1.76E+0
456,1.76E+0
457,1.88E+0
458,1.88E+0
459,1.76E+0
460,1.76E+0
461,1.88E+0
462,1.76E+0
463,1.88E+0
464,1.88E+0
465,1.72E+0
466,1.68E+0
467,1.88E+0
468,1.88E+0
469,1.68E+0
470,1.88E+0
471,1.68E+0
472,1.88E+0
473,1.68E+0
474,1.72E+0
475,1.88E+0
476,1.88E+0
477,1.80E+0
478,1.80E+0
479,1.92E+0
480,1.88E+0
481,1.76E+0
482,1.88E+0
483,1.72E+0
484,1.88E+0
485,1.64E+0
486,1.80E+0
487,1.52E+0
488,1.52E+0
489,1.80E+0
490,1.80E+0
491,1.52E+0
492,1.72E+0
493,1.44E+0
494,1.44E+0
495,1.68E+0
496,1.68E+0
497,1.48E+0
498,1.60E+0
499,1.36E+0
500,1.40E+0
501,1.60E+0
502,1.56E+0
503,1.32E+0
504,1.44E+0
505,1.28E+0
506,1.24E+0
507,1.44E+0
508,1.40E+0
509,1.16E+0
510,1.32E+0
511,1.12E+0
512,1.36E+0
513,1.08E+0
514,1.28E+0
515,1.04E+0
516,1.04E+0
517,1.20E+0
518,1.04E+0
519,1.20E+0
520,1.20E+0
521,1.04E+0
522,1.04E+0
523,1.20E+0
524,1.04E+0
525,1.32E+0
526,1.32E+0
527,1.04E+0
528,1.44E+0
529,1.08E+0
530,1.44E+0
531,1.12E+0
532,1.12E+0
533,1.52E+0
534,1.16E+0
535,1.64E+0
536,1.32E+0
537,1.68E+0
538,1.72E+0
539,1.48E+0
540,1.84E+0
541,1.52E+0
542,1.48E+0
543,1.96E+0
544,1.68E+0
545,2.04E+0
546,1.80E+0
547,2.08E+0
548,2.12E+0
549,1.76E+0
550,2.16E+0
551,1.56E+0
552,1.68E+0
553,2.16E+0
554,1.48E+0
555,2.16E+0
556,2.16E+0
557,1.40E+0
558,2.16E+0
559,1.56E+0
560,2.16E+0
561,1.72E+0
562,2.20E+0
563,1.76E+0
564,2.20E+0
565,1.64E+0
566,1.84E+0
567,2.20E+0
568,2.20E+0
569,1.68E+0
570,2.20E+0
571,1.76E+0
572,2.20E+0
573,1.76E+0
574,1.76E+0
575,2.20E+0
576,1.80E+0
577,2.20E+0
578,2.12E+0
579,1.76E+0
580,1.68E+0
581,2.12E+0
582,2.12E+0
583,1.76E+0
584,2.00E+0
585,1.64E+0
586,1.88E+0
587,1.64E+0
588,1.96E+0
589,1.56E+0
590,1.48E+0
591,1.72E+0
592,1.16E+0
593,2.20E+0
594,2.20E+0
595,1.12E+0
596,1.16E+0
597,2.08E+0
598,1.40E+0
599,2.04E+0
600,1.20E+0
601,2.12E+0
602,1.28E+0
603,2.16E+0
604,1.56E+0
605,2.20E+0
606,2.24E+0
607,1.32E+0
608,2.20E+0
609,1.60E+0
610,1.72E+0
611,2.24E+0
612,1.76E+0
613,2.24E+0
614,2.00E+0
615,2.24E+0
616,2.24E+0
617,2.08E+0
618,2.24E+0
619,2.12E+0
620,2.24E+0
621,2.00E+0
622,2.24E+0
623,2.12E+0
624,2.24E+0
625,1.60E+0
626,1.48E+0
627,2.24E+0
628,1.80E+0
629,2.24E+0
630,2.24E+0
631,2.08E+0
632,2.24E+0
633,2.04E+0
634,2.24E+0
635,2.08E+0
636,2.24E+0
637,2.08E+0
638,2.24E+0
639,2.00E+0
640,2.08E+0
641,2.24E+0
642,2.24E+0
643,2.00E+0
644,2.08E+0
645,2.24E+0
646,2.24E+0
647,2.04E+0
648,2.24E+0
649,2.12E+0
650,2.24E+0
651,2.04E+0
652,2.24E+0
653,1.96E+0
654,2.24E+0
655,1.96E+0
656,1.92E+0
657,2.24E+0
658,2.00E+0
659,2.24E+0
660,2.08E+0
661,2.24E+0
662,2.24E+0
663,2.08E+0
664,2.24E+0
665,2.00E+0
666,2.24E+0
667,2.04E+0
668,2.04E+0
669,2.24E+0
670,2.20E+0
671,2.04E+0
672,1.88E+0
673,2.24E+0
674,2.24E+0
675,1.88E+0
676,2.24E+0
677,1.68E+0
678,2.24E+0
679,1.76E+0
680,2.24E+0
681,1.60E+0
682,1.72E+0
683,2.24E+0
684,1.68E+0
685,2.24E+0
686,2.24E+0
687,1.84E+0
688,2.24E+0
689,1.96E+0
690,2.24E+0
691,1.96E+0
692,2.20E+0
693,1.96E+0
694,2.24E+0
695,2.00E+0
696,1.96E+0
697,2.24E+0
698,2.20E+0
699,2.04E+0
700,2.00E+0
701,2.24E+0
702,2.24E+0
703,2.04E+0
704,2.24E+0
705,2.04E+0
706,2.12E+0
707,2.24E+0
708,2.12E+0
709,2.24E+0
710,2.24E+0
711,2.12E+0
712,2.24E+0
713,2.12E+0
714,2.24E+0
715,2.12E+0
716,2.24E+0
717,2.12E+0
718,2.24E+0
719,2.12E+0
720,2.24E+0
721,2.12E+0
722,2.12E+0
723,2.28E+0
724,2.28E+0
725,2.12E+0
726,2.24E+0
727,2.08E+0
728,2.24E+0
729,2.12E+0
730,2.12E+0
731,2.24E+0
732,2.12E+0
733,2.24E+0
734,2.12E+0
735,2.24E+0
736,2.12E+0
737,2.24E+0
738,2.24E+0
739,2.08E+0
740,2.24E+0
741,2.08E+0
742,2.24E+0
743,1.72E+0
744,1.80E+0
745,2.24E+0
746,1.60E+0
747,2.24E+0
748,2.24E+0
749,1.48E+0
750,2.24E+0
751,1.52E+0
752,2.24E+0
753,1.72E+0
754,2.24E+0
755,1.80E+0
756,1.92E+0
757,2.24E+0
758,1.96E+0
759,2.24E+0
760,2.24E+0
761,2.04E+0
762,2.24E+0
763,2.08E+0
764,2.24E+0
765,2.00E+0
766,2.00E+0
767,2.24E+0
768,1.96E+0
769,2.24E+0
770,2.24E+0
771,1.88E+0
772,2.24E+0
773,1.84E+0
774,2.24E+0
775,1.92E+0
776,1.92E+0
777,2.24E+0
778,1.88E+0
779,2.24E+0
780,1.96E+0
781,2.24E+0
782,2.24E+0
783,1.80E+0
784,2.24E+0
785,1.76E+0
786,2.20E+0
787,1.80E+0
788,1.80E+0
789,2.12E+0
790,1.80E+0
791,2.20E+0
792,1.84E+0
793,2.16E+0
794,2.20E+0
795,1.68E+0
796,1.72E+0
797,2.20E+0
798,1.76E+0
799,2.16E+0
800,1.80E+0
801,2.16E+0
802,2.12E+0
803,1.80E+0
804,2.12E+0
805,1.80E+0
806,2.12E+0
807,1.92E+0
808,1.96E+0
809,2.12E+0
810,1.96E+0
811,2.16E+0
812,2.00E+0
813,2.16E+0
814,1.96E+0
815,2.16E+0
816,1.92E+0
817,2.16E+0
818,2.12E+0
819,1.92E+0
820,2.16E+0
821,1.92E+0
822,2.16E+0
823,1.92E+0
824,2.12E+0
825,1.88E+0
826,1.88E+0
827,2.16E+0
828,2.08E+0
829,1.84E+0
830,1.84E+0
831,2.08E+0
832,2.04E+0
833,1.84E+0
834,2.00E+0
835,1.72E+0
836,1.92E+0
837,1.64E+0
838,1.88E+0
839,1.56E+0
840,1.72E+0
841,1.44E+0
842,1.44E+0
843,1.64E+0
844,1.32E+0
845,1.68E+0
846,1.36E+0
847,1.68E+0
848,1.68E+0
849,1.36E+0
850,1.64E+0
851,1.36E+0
852,1.36E+0
853,1.72E+0
854,1.32E+0
855,1.80E+0
856,1.24E+0
857,1.84E+0
858,1.88E+0
859,1.36E+0
860,1.96E+0
861,1.40E+0
862,1.56E+0
863,1.96E+0
864,1.64E+0
865,2.00E+0
866,1.68E+0
867,2.00E+0
868,1.80E+0
869,2.04E+0
870,2.04E+0
871,1.76E+0
872,2.00E+0
873,1.80E+0
874,1.88E+0
875,2.08E+0
876,1.84E+0
877,2.12E+0
878,2.12E+0
879,1.92E+0
880,1.88E+0
881,2.24E+0
882,1.92E+0
883,2.24E+0
884,1.88E+0
885,2.20E+0
886,1.92E+0
887,2.16E+0
888,2.20E+0
889,1.88E+0
890,2.20E+0
891,1.88E+0
892,1.84E+0
893,2.20E+0
894,1.96E+0
895,2.20E+0
896,2.16E+0
897,1.92E+0
