metingen/metingen cuvet/2/2_4g6g.csv

X,CH1,Start,Increment
Sequence,VOLT,-1.00E+0,2.00E-2
0,1.24E+0
1,1.00E+0
2,1.24E+0
3,9.60E-1
4,1.32E+0
5,9.60E-1
6,1.00E+0
7,1.24E+0
8,1.28E+0
9,8.80E-1
10,1.52E+0
11,8.40E-1
12,8.80E-1
13,1.76E+0
14,8.40E-1
15,1.44E+0
16,9.60E-1
17,1.44E+0
18,1.40E+0
19,9.60E-1
20,1.04E+0
21,1.40E+0
22,1.36E+0
23,1.00E+0
24,1.04E+0
25,1.40E+0
26,1.36E+0
27,1.04E+0
28,1.04E+0
29,1.40E+0
30,1.04E+0
31,1.36E+0
32,1.08E+0
33,1.36E+0
34,1.04E+0
35,1.36E+0
36,1.08E+0
37,1.36E+0
38,1.04E+0
39,1.40E+0
40,1.36E+0
41,1.08E+0
42,1.36E+0
43,1.00E+0
44,1.12E+0
45,1.40E+0
46,1.00E+0
47,1.40E+0
48,1.00E+0
49,1.32E+0
50,1.08E+0
51,1.32E+0
52,1.32E+0
53,1.04E+0
54,1.08E+0
55,1.44E+0
56,1.40E+0
57,1.04E+0
58,1.00E+0
59,1.32E+0
60,1.40E+0
61,1.04E+0
62,1.40E+0
63,1.00E+0
64,1.08E+0
65,1.40E+0
66,1.04E+0
67,1.36E+0
68,9.60E-1
69,1.44E+0
70,1.04E+0
71,1.40E+0
72,1.40E+0
73,1.08E+0
74,1.04E+0
75,1.48E+0
76,9.60E-1
77,1.48E+0
78,1.44E+0
79,1.00E+0
80,1.08E+0
81,1.40E+0
82,1.04E+0
83,1.48E+0
84,1.36E+0
85,1.04E+0
86,1.40E+0
87,1.04E+0
88,1.44E+0
89,1.00E+0
90,1.08E+0
91,1.40E+0
92,1.36E+0
93,1.00E+0
94,1.00E+0
95,1.36E+0
96,1.00E+0
97,1.32E+0
98,1.36E+0
99,1.00E+0
100,1.32E+0
101,1.00E+0
102,1.04E+0
103,1.32E+0
104,1.28E+0
105,1.04E+0
106,1.32E+0
107,1.00E+0
108,1.00E+0
109,1.28E+0
110,1.00E+0
111,1.28E+0
112,1.04E+0
113,1.28E+0
114,1.36E+0
115,9.20E-1
116,9.60E-1
117,1.32E+0
118,1.36E+0
119,8.80E-1
120,8.80E-1
121,1.48E+0
122,8.40E-1
123,1.60E+0
124,8.00E-1
125,1.60E+0
126,1.56E+0
127,8.40E-1
128,8.40E-1
129,1.60E+0
130,8.00E-1
131,1.56E+0
132,8.00E-1
133,1.56E+0
134,1.60E+0
135,8.00E-1
136,8.80E-1
137,1.52E+0
138,9.20E-1
139,1.32E+0
140,9.20E-1
141,1.28E+0
142,9.60E-1
143,1.28E+0
144,1.28E+0
145,9.60E-1
146,1.24E+0
147,9.20E-1
148,1.32E+0
149,8.80E-1
150,8.80E-1
151,1.28E+0
152,9.20E-1
153,1.28E+0
154,8.80E-1
155,1.32E+0
156,1.20E+0
157,8.40E-1
158,8.80E-1
159,1.24E+0
160,9.20E-1
161,1.24E+0
162,8.80E-1
163,1.24E+0
164,8.80E-1
165,1.20E+0
166,1.36E+0
167,8.80E-1
168,1.20E+0
169,8.80E-1
170,1.20E+0
171,9.20E-1
172,8.80E-1
173,1.24E+0
174,8.80E-1
175,1.20E+0
176,9.20E-1
177,1.28E+0
178,1.24E+0
179,9.20E-1
180,9.20E-1
181,1.16E+0
182,9.20E-1
183,1.28E+0
184,9.20E-1
185,1.24E+0
186,1.28E+0
187,8.80E-1
188,1.24E+0
189,9.20E-1
190,9.20E-1
191,1.24E+0
192,9.60E-1
193,1.24E+0
194,9.20E-1
195,1.24E+0
196,9.60E-1
197,1.28E+0
198,1.28E+0
199,1.00E+0
200,1.32E+0
201,1.04E+0
202,1.00E+0
203,1.32E+0
204,1.04E+0
205,1.40E+0
206,1.32E+0
207,1.04E+0
208,1.40E+0
209,1.08E+0
210,1.12E+0
211,1.36E+0
212,1.04E+0
213,1.40E+0
214,1.04E+0
215,1.48E+0
216,1.52E+0
217,1.08E+0
218,1.04E+0
219,1.44E+0
220,1.44E+0
221,1.08E+0
222,1.44E+0
223,1.08E+0
224,1.08E+0
225,1.44E+0
226,1.08E+0
227,1.44E+0
228,1.44E+0
229,1.12E+0
230,1.44E+0
231,1.16E+0
232,1.16E+0
233,1.48E+0
234,1.48E+0
235,1.12E+0
236,1.44E+0
237,1.16E+0
238,1.16E+0
239,1.56E+0
240,1.44E+0
241,1.12E+0
242,1.56E+0
243,1.12E+0
244,1.56E+0
245,1.20E+0
246,1.52E+0
247,1.12E+0
248,1.16E+0
249,1.44E+0
250,1.20E+0
251,1.44E+0
252,1.44E+0
253,1.12E+0
254,1.52E+0
255,1.24E+0
256,1.16E+0
257,1.44E+0
258,1.16E+0
259,1.48E+0
260,1.44E+0
261,1.16E+0
262,1.24E+0
263,1.44E+0
264,1.20E+0
265,1.48E+0
266,1.48E+0
267,1.12E+0
268,1.52E+0
269,1.16E+0
270,1.48E+0
271,1.08E+0
272,1.48E+0
273,1.12E+0
274,1.40E+0
275,1.20E+0
276,1.12E+0
277,1.44E+0
278,1.20E+0
279,1.40E+0
280,1.44E+0
281,1.12E+0
282,1.44E+0
283,1.04E+0
284,1.08E+0
285,1.40E+0
286,1.36E+0
287,1.08E+0
288,1.32E+0
289,1.08E+0
290,1.04E+0
291,1.32E+0
292,1.08E+0
293,1.36E+0
294,1.00E+0
295,1.36E+0
296,1.04E+0
297,1.36E+0
298,9.20E-1
299,1.32E+0
300,1.28E+0
301,1.00E+0
302,1.00E+0
303,1.28E+0
304,9.60E-1
305,1.28E+0
306,9.60E-1
307,1.24E+0
308,1.24E+0
309,1.00E+0
310,1.04E+0
311,1.28E+0
312,1.20E+0
313,9.60E-1
314,1.28E+0
315,1.00E+0
316,1.20E+0
317,1.00E+0
318,9.60E-1
319,1.24E+0
320,9.60E-1
321,1.20E+0
322,1.00E+0
323,1.24E+0
324,1.24E+0
325,9.20E-1
326,9.60E-1
327,1.28E+0
328,1.20E+0
329,9.60E-1
330,1.20E+0
331,9.20E-1
332,9.60E-1
333,1.24E+0
334,1.16E+0
335,9.20E-1
336,9.20E-1
337,1.16E+0
338,1.12E+0
339,9.20E-1
340,8.80E-1
341,1.20E+0
342,1.20E+0
343,8.80E-1
344,1.16E+0
345,8.80E-1
346,1.12E+0
347,8.80E-1
348,1.12E+0
349,8.40E-1
350,1.08E+0
351,8.80E-1
352,8.80E-1
353,1.16E+0
354,1.12E+0
355,8.80E-1
356,8.80E-1
357,1.16E+0
358,1.08E+0
359,8.80E-1
360,8.80E-1
361,1.20E+0
362,8.40E-1
363,1.12E+0
364,1.08E+0
365,8.80E-1
366,8.80E-1
367,1.20E+0
368,8.80E-1
369,1.12E+0
370,8.80E-1
371,1.16E+0
372,1.16E+0
373,8.40E-1
374,1.16E+0
375,8.40E-1
376,1.16E+0
377,8.40E-1
378,8.80E-1
379,1.20E+0
380,8.80E-1
381,1.20E+0
382,8.80E-1
383,1.20E+0
384,1.16E+0
385,8.80E-1
386,1.20E+0
387,8.80E-1
388,9.20E-1
389,1.12E+0
390,9.20E-1
391,1.20E+0
392,1.20E+0
393,8.80E-1
394,8.80E-1
395,1.12E+0
396,1.16E+0
397,9.20E-1
398,1.12E+0
399,8.80E-1
400,9.20E-1
401,1.12E+0
402,1.12E+0
403,9.20E-1
404,8.80E-1
405,1.12E+0
406,1.20E+0
407,8.80E-1
408,1.16E+0
409,8.80E-1
410,8.80E-1
411,1.12E+0
412,8.80E-1
413,1.16E+0
414,1.12E+0
415,8.80E-1
416,8.80E-1
417,1.16E+0
418,8.80E-1
419,1.16E+0
420,8.80E-1
421,1.16E+0
422,1.16E+0
423,8.40E-1
424,8.80E-1
425,1.12E+0
426,1.08E+0
427,8.80E-1
428,1.16E+0
429,8.40E-1
430,1.16E+0
431,8.80E-1
432,1.16E+0
433,9.20E-1
434,8.80E-1
435,1.08E+0
436,9.20E-1
437,1.16E+0
438,8.80E-1
439,1.12E+0
440,9.20E-1
441,1.16E+0
442,1.20E+0
443,8.80E-1
444,9.20E-1
445,1.24E+0
446,8.80E-1
447,1.20E+0
448,1.20E+0
449,8.80E-1
450,1.12E+0
451,8.80E-1
452,1.20E+0
453,9.20E-1
454,9.20E-1
455,1.28E+0
456,9.20E-1
457,1.28E+0
458,9.20E-1
459,1.28E+0
460,1.24E+0
461,9.20E-1
462,1.12E+0
463,9.20E-1
464,8.80E-1
465,1.24E+0
466,9.20E-1
467,1.20E+0
468,1.24E+0
469,9.60E-1
470,1.28E+0
471,8.00E-1
472,8.00E-1
473,1.04E+0
474,1.20E+0
475,8.40E-1
476,8.00E-1
477,1.08E+0
478,1.08E+0
479,8.00E-1
480,1.00E+0
481,8.00E-1
482,8.00E-1
483,9.20E-1
484,9.60E-1
485,8.00E-1
486,9.20E-1
487,8.00E-1
488,8.00E-1
489,1.04E+0
490,8.40E-1
491,1.04E+0
492,1.08E+0
493,8.40E-1
494,8.80E-1
495,1.20E+0
496,9.60E-1
497,1.20E+0
498,9.20E-1
499,1.20E+0
500,9.20E-1
501,1.32E+0
502,9.60E-1
503,1.28E+0
504,1.32E+0
505,1.00E+0
506,1.04E+0
507,1.28E+0
508,9.60E-1
509,1.20E+0
510,1.16E+0
511,9.20E-1
512,1.00E+0
513,1.32E+0
514,1.04E+0
515,1.52E+0
516,1.60E+0
517,1.24E+0
518,1.52E+0
519,1.20E+0
520,1.24E+0
521,1.56E+0
522,1.32E+0
523,1.60E+0
524,1.28E+0
525,1.56E+0
526,9.60E-1
527,1.76E+0
528,1.76E+0
529,1.12E+0
530,1.12E+0
531,1.72E+0
532,1.20E+0
533,1.76E+0
534,1.80E+0
535,1.64E+0
536,1.76E+0
537,1.44E+0
538,1.68E+0
539,1.20E+0
540,1.48E+0
541,1.04E+0
542,1.40E+0
543,8.80E-1
544,1.12E+0
545,8.40E-1
546,1.08E+0
547,8.40E-1
548,9.60E-1
549,8.00E-1
550,8.00E-1
551,1.04E+0
552,1.04E+0
553,8.00E-1
554,8.00E-1
555,1.00E+0
556,8.00E-1
557,9.20E-1
558,8.00E-1
559,9.20E-1
560,8.40E-1
561,1.16E+0
562,9.20E-1
563,1.24E+0
564,1.12E+0
565,1.44E+0
566,1.16E+0
567,1.52E+0
568,1.20E+0
569,1.72E+0
570,1.68E+0
571,1.40E+0
572,1.72E+0
573,1.44E+0
574,1.32E+0
575,1.68E+0
576,1.56E+0
577,1.80E+0
578,1.80E+0
579,1.64E+0
580,1.56E+0
581,1.80E+0
582,1.80E+0
583,1.48E+0
584,1.72E+0
585,1.32E+0
586,1.60E+0
587,1.16E+0
588,1.04E+0
589,1.52E+0
590,1.28E+0
591,9.60E-1
592,1.04E+0
593,1.44E+0
594,1.04E+0
595,1.36E+0
596,1.36E+0
597,1.00E+0
598,8.80E-1
599,1.08E+0
600,1.12E+0
601,8.00E-1
602,8.00E-1
603,1.04E+0
604,9.60E-1
605,7.60E-1
606,7.60E-1
607,8.80E-1
608,8.80E-1
609,7.60E-1
610,8.80E-1
611,7.60E-1
612,7.60E-1
613,8.80E-1
614,9.60E-1
615,7.60E-1
616,8.80E-1
617,7.60E-1
618,9.60E-1
619,7.60E-1
620,7.60E-1
621,1.00E+0
622,9.20E-1
623,7.60E-1
624,1.00E+0
625,7.60E-1
626,8.00E-1
627,1.20E+0
628,8.00E-1
629,1.16E+0
630,8.00E-1
631,1.08E+0
632,9.60E-1
633,7.60E-1
634,9.60E-1
635,8.00E-1
636,8.80E-1
637,1.12E+0
638,8.80E-1
639,1.20E+0
640,8.40E-1
641,1.28E+0
642,1.00E+0
643,1.44E+0
644,1.52E+0
645,1.04E+0
646,1.12E+0
647,1.44E+0
648,1.36E+0
649,1.76E+0
650,1.52E+0
651,1.80E+0
652,1.56E+0
653,1.88E+0
654,1.68E+0
655,1.88E+0
656,1.88E+0
657,1.72E+0
658,1.88E+0
659,1.76E+0
660,1.88E+0
661,1.76E+0
662,1.88E+0
663,1.56E+0
664,1.72E+0
665,1.24E+0
666,1.40E+0
667,1.04E+0
668,1.12E+0
669,1.44E+0
670,1.28E+0
671,9.60E-1
672,8.40E-1
673,1.24E+0
674,9.20E-1
675,1.20E+0
676,1.28E+0
677,8.80E-1
678,1.24E+0
679,8.40E-1
680,1.00E+0
681,1.36E+0
682,1.24E+0
683,9.60E-1
684,1.16E+0
685,8.80E-1
686,9.20E-1
687,1.28E+0
688,1.28E+0
689,8.80E-1
690,9.20E-1
691,1.20E+0
692,1.28E+0
693,9.20E-1
694,8.80E-1
695,1.16E+0
696,1.24E+0
697,9.20E-1
698,8.80E-1
699,1.08E+0
700,8.80E-1
701,1.12E+0
702,8.80E-1
703,1.16E+0
704,1.04E+0
705,8.00E-1
706,8.00E-1
707,9.60E-1
708,7.60E-1
709,9.60E-1
710,8.00E-1
711,9.60E-1
712,8.80E-1
713,7.60E-1
714,7.60E-1
715,9.60E-1
716,8.40E-1
717,1.04E+0
718,1.00E+0
719,8.00E-1
720,8.00E-1
721,1.04E+0
722,8.40E-1
723,1.16E+0
724,1.16E+0
725,8.40E-1
726,9.60E-1
727,7.60E-1
728,8.80E-1
729,7.60E-1
730,7.60E-1
731,8.80E-1
732,8.00E-1
733,9.20E-1
734,8.00E-1
735,9.60E-1
736,9.60E-1
737,7.60E-1
738,9.60E-1
739,7.60E-1
740,8.00E-1
741,1.00E+0
742,8.40E-1
743,1.08E+0
744,1.08E+0
745,8.40E-1
746,8.80E-1
747,1.24E+0
748,9.20E-1
749,1.28E+0
750,9.60E-1
751,1.28E+0
752,1.08E+0
753,1.48E+0
754,1.20E+0
755,1.60E+0
756,1.20E+0
757,1.68E+0
758,1.80E+0
759,1.48E+0
760,1.72E+0
761,1.36E+0
762,1.40E+0
763,1.68E+0
764,1.52E+0
765,1.88E+0
766,1.88E+0
767,1.64E+0
768,1.72E+0
769,1.88E+0
770,1.92E+0
771,1.76E+0
772,1.88E+0
773,1.68E+0
774,1.72E+0
775,1.88E+0
776,1.84E+0
777,1.60E+0
778,1.84E+0
779,1.40E+0
780,1.76E+0
781,1.48E+0
782,1.72E+0
783,1.32E+0
784,1.72E+0
785,1.36E+0
786,1.68E+0
787,1.28E+0
788,1.24E+0
789,1.56E+0
790,1.12E+0
791,1.56E+0
792,1.48E+0
793,1.12E+0
794,1.52E+0
795,1.12E+0
796,1.48E+0
797,1.12E+0
798,1.28E+0
799,9.60E-1
800,1.32E+0
801,8.80E-1
802,1.04E+0
803,1.36E+0
804,1.00E+0
805,1.20E+0
806,1.20E+0
807,8.80E-1
808,1.08E+0
809,8.00E-1
810,8.00E-1
811,1.04E+0
812,1.00E+0
813,8.00E-1
814,8.00E-1
815,9.60E-1
816,8.00E-1
817,1.00E+0
818,8.00E-1
819,9.60E-1
820,8.40E-1
821,1.04E+0
822,8.40E-1
823,1.12E+0
824,8.40E-1
825,1.20E+0
826,1.00E+0
827,1.36E+0
828,1.08E+0
829,1.40E+0
830,1.16E+0
831,1.48E+0
832,1.20E+0
833,1.60E+0
834,1.40E+0
835,1.72E+0
836,1.44E+0
837,1.88E+0
838,1.92E+0
839,1.76E+0
840,1.76E+0
841,1.92E+0
842,1.92E+0
843,1.80E+0
844,1.92E+0
845,1.68E+0
846,1.68E+0
847,1.88E+0
848,1.88E+0
849,1.52E+0
850,1.72E+0
851,1.36E+0
852,1.64E+0
853,1.32E+0
854,1.24E+0
855,1.56E+0
856,1.56E+0
857,9.60E-1
858,1.04E+0
859,8.00E-1
860,8.40E-1
861,1.08E+0
862,8.80E-1
863,1.16E+0
864,1.00E+0
865,8.00E-1
866,8.00E-1
867,9.20E-1
868,8.00E-1
869,1.04E+0
870,8.40E-1
871,1.08E+0
872,9.20E-1
873,1.28E+0
874,1.12E+0
875,8.40E-1
876,9.60E-1
877,8.00E-1
878,8.00E-1
879,9.20E-1
880,8.00E-1
881,1.04E+0
882,8.40E-1
883,1.16E+0
884,9.60E-1
885,1.32E+0
886,1.04E+0
887,1.40E+0
888,1.24E+0
889,1.56E+0
890,1.48E+0
891,1.84E+0
892,1.84E+0
893,1.40E+0
894,1.36E+0
895,1.80E+0
896,1.92E+0
897,1.72E+0
898,1.84E+0
899,1.52E+0
900,1.64E+0
901,1.96E+0
902,1.80E+0
903,1.96E+0
904,1.92E+0
905,1.60E+0
906,1.72E+0
907,1.96E+0
908,1.92E+0
909,1.64E+0
910,1.68E+0
911,1.96E+0
912,1.96E+0
913,1.64E+0
914,1.68E+0
915,1.92E+0
916,1.64E+0
917,1.96E+0
918,2.00E+0
919,1.56E+0
920,1.92E+0
921,1.64E+0
922,1.92E+0
923,1.60E+0
924,1.60E+0
925,1.96E+0
926,2.00E+0
927,1.80E+0
928,1.80E+0
929,2.00E+0
930,2.00E+0
931,1.88E+0
932,1.88E+0
933,2.00E+0
934,2.00E+0
935,1.88E+0
936,2.00E+0
937,1.68E+0
938,1.64E+0
939,2.00E+0
940,2.00E+0
941,1.44E+0
942,1.64E+0
943,1.36E+0
944,1.68E+0
945,1.12E+0
946,1.40E+0
947,9.20E-1
948,1.20E+0
949,8.80E-1
950,1.16E+0
951,8.80E-1
952,9.20E-1
953,8.00E-1
954,9.20E-1
955,8.00E-1
956,8.00E-1
957,9.20E-1
958,8.00E-1
959,1.04E+0
960,1.08E+0
961,8.00E-1
962,8.40E-1
963,1.20E+0
964,1.00E+0
965,1.36E+0
966,1.20E+0
967,1.56E+0
968,1.36E+0
969,1.76E+0
970,1.52E+0
971,1.92E+0
972,1.72E+0
973,1.96E+0
974,1.84E+0
975,2.04E+0
976,2.00E+0
977,1.92E+0
978,1.92E+0
979,2.04E+0
980,2.04E+0
981,1.88E+0
982,2.04E+0
983,1.60E+0
984,2.00E+0
985,1.44E+0
986,2.00E+0
987,1.48E+0
988,1.76E+0
989,1.00E+0
990,1.40E+0
991,8.80E-1
992,1.12E+0
993,8.00E-1
994,1.32E+0
995,8.00E-1
996,8.00E-1
997,1.00E+0
998,8.00E-1
999,9.60E-1
1000,8.00E-1
1001,9.20E-1
1002,8.00E-1
1003,1.00E+0
1004,8.00E-1
1005,1.04E+0
1006,8.00E-1
1007,1.00E+0
1008,1.08E+0
1009,8.40E-1
1010,8.40E-1
1011,1.08E+0
1012,8.80E-1
1013,1.24E+0
1014,8.40E-1
1015,1.20E+0
1016,1.16E+0
1017,9.20E-1
1018,9.20E-1
1019,1.32E+0
1020,1.28E+0
1021,9.60E-1
1022,1.28E+0
1023,9.60E-1
1024,1.28E+0
1025,9.20E-1
1026,9.60E-1
1027,1.32E+0
1028,1.32E+0
1029,9.60E-1
1030,1.28E+0
1031,1.00E+0
1032,9.60E-1
1033,1.36E+0
1034,1.08E+0
1035,1.44E+0
1036,1.00E+0
1037,1.32E+0
1038,1.04E+0
1039,1.36E+0
1040,1.04E+0
1041,1.36E+0
1042,1.40E+0
1043,1.04E+0
1044,1.48E+0
1045,1.04E+0
1046,1.16E+0
1047,1.48E+0
1048,1.08E+0
1049,1.36E+0
1050,1.20E+0
1051,1.44E+0
1052,1.16E+0
1053,1.48E+0
1054,1.40E+0
1055,1.16E+0
1056,1.08E+0
1057,1.52E+0
1058,1.04E+0
1059,1.44E+0
1060,1.36E+0
1061,1.04E+0
1062,1.04E+0
1063,1.36E+0
1064,1.08E+0
1065,1.40E+0
1066,1.36E+0
1067,1.04E+0
1068,1.36E+0
1069,1.00E+0
1070,1.36E+0
1071,9.60E-1
1072,1.36E+0
1073,1.04E+0
1074,1.08E+0
1075,1.36E+0
1076,1.48E+0
1077,1.08E+0
1078,1.08E+0
1079,1.40E+0
1080,1.08E+0
1081,1.44E+0
1082,1.40E+0
1083,1.12E+0
1084,1.36E+0
1085,1.04E+0
1086,1.04E+0
1087,1.44E+0
1088,1.44E+0
1089,1.08E+0
1090,1.08E+0
1091,1.52E+0
1092,1.16E+0
1093,1.48E+0
1094,1.08E+0
1095,1.52E+0
1096,1.44E+0
1097,1.08E+0
1098,1.12E+0
1099,1.44E+0
1100,1.52E+0
1101,1.12E+0
1102,1.08E+0
1103,1.60E+0
1104,1.16E+0
1105,1.52E+0
1106,1.00E+0
1107,1.56E+0
1108,1.60E+0
1109,1.12E+0
1110,1.48E+0
1111,1.20E+0
1112,1.08E+0
1113,1.56E+0
1114,1.52E+0
1115,1.16E+0
1116,1.48E+0
1117,1.16E+0
1118,1.52E+0
1119,1.08E+0
