metingen/metingen cuvet/2/2_6g8g.csv

X,CH1,Start,Increment
Sequence,VOLT,-1.00E+0,2.00E-2
0,1.60E+0
1,1.92E+0
2,1.60E+0
3,1.92E+0
4,1.48E+0
5,1.92E+0
6,1.88E+0
7,1.56E+0
8,1.84E+0
9,1.44E+0
10,1.40E+0
11,1.80E+0
12,1.52E+0
13,1.84E+0
14,1.36E+0
15,1.80E+0
16,1.80E+0
17,1.40E+0
18,1.80E+0
19,1.44E+0
20,1.84E+0
21,1.40E+0
22,1.40E+0
23,1.76E+0
24,1.48E+0
25,1.80E+0
26,1.44E+0
27,1.76E+0
28,1.80E+0
29,1.44E+0
30,1.80E+0
31,1.48E+0
32,1.80E+0
33,1.40E+0
34,1.40E+0
35,1.84E+0
36,1.36E+0
37,1.80E+0
38,1.44E+0
39,1.80E+0
40,1.84E+0
41,1.44E+0
42,1.76E+0
43,1.48E+0
44,1.44E+0
45,1.72E+0
46,1.80E+0
47,1.44E+0
48,1.68E+0
49,1.40E+0
50,1.80E+0
51,1.44E+0
52,1.48E+0
53,1.76E+0
54,1.88E+0
55,1.48E+0
56,1.48E+0
57,1.80E+0
58,1.80E+0
59,1.52E+0
60,1.88E+0
61,1.40E+0
62,1.88E+0
63,1.56E+0
64,1.56E+0
65,1.84E+0
66,1.40E+0
67,1.92E+0
68,1.80E+0
69,1.56E+0
70,1.84E+0
71,1.52E+0
72,1.56E+0
73,1.84E+0
74,1.80E+0
75,1.48E+0
76,1.88E+0
77,1.44E+0
78,1.84E+0
79,1.48E+0
80,1.84E+0
81,1.40E+0
82,1.88E+0
83,1.36E+0
84,1.88E+0
85,1.44E+0
86,1.36E+0
87,1.88E+0
88,1.40E+0
89,1.92E+0
90,1.36E+0
91,1.84E+0
92,1.84E+0
93,1.40E+0
94,1.88E+0
95,1.44E+0
96,1.80E+0
97,1.44E+0
98,1.84E+0
99,1.40E+0
100,1.88E+0
101,1.40E+0
102,1.80E+0
103,1.40E+0
104,1.80E+0
105,1.24E+0
106,1.84E+0
107,1.36E+0
108,1.84E+0
109,1.32E+0
110,1.32E+0
111,1.84E+0
112,1.84E+0
113,1.36E+0
114,1.72E+0
115,1.40E+0
116,1.80E+0
117,1.32E+0
118,1.72E+0
119,1.40E+0
120,1.36E+0
121,1.76E+0
122,1.76E+0
123,1.44E+0
124,1.32E+0
125,1.72E+0
126,1.72E+0
127,1.36E+0
128,1.32E+0
129,1.72E+0
130,1.76E+0
131,1.36E+0
132,1.32E+0
133,1.68E+0
134,1.32E+0
135,1.76E+0
136,1.84E+0
137,1.32E+0
138,1.84E+0
139,1.40E+0
140,1.40E+0
141,1.80E+0
142,1.84E+0
143,1.36E+0
144,1.40E+0
145,1.80E+0
146,1.80E+0
147,1.52E+0
148,1.80E+0
149,1.48E+0
150,1.84E+0
151,1.44E+0
152,1.48E+0
153,1.84E+0
154,1.84E+0
155,1.40E+0
156,1.52E+0
157,1.84E+0
158,1.48E+0
159,1.84E+0
160,1.40E+0
161,1.88E+0
162,1.48E+0
163,1.84E+0
164,1.84E+0
165,1.52E+0
166,1.84E+0
167,1.52E+0
168,1.60E+0
169,1.88E+0
170,1.60E+0
171,1.88E+0
172,1.88E+0
173,1.52E+0
174,1.52E+0
175,1.84E+0
176,1.56E+0
177,1.92E+0
178,1.84E+0
179,1.52E+0
180,1.88E+0
181,1.56E+0
182,1.56E+0
183,1.88E+0
184,1.48E+0
185,1.92E+0
186,1.56E+0
187,1.88E+0
188,1.92E+0
189,1.64E+0
190,1.92E+0
191,1.60E+0
192,1.64E+0
193,1.92E+0
194,1.68E+0
195,1.96E+0
196,1.92E+0
197,1.68E+0
198,1.72E+0
199,1.96E+0
200,1.68E+0
201,2.00E+0
202,1.96E+0
203,1.68E+0
204,1.68E+0
205,1.96E+0
206,1.64E+0
207,2.00E+0
208,1.96E+0
209,1.64E+0
210,1.96E+0
211,1.72E+0
212,1.60E+0
213,1.96E+0
214,1.68E+0
215,1.92E+0
216,1.68E+0
217,1.96E+0
218,1.96E+0
219,1.60E+0
220,1.56E+0
221,1.92E+0
222,1.72E+0
223,1.96E+0
224,1.60E+0
225,1.96E+0
226,1.92E+0
227,1.64E+0
228,1.92E+0
229,1.68E+0
230,1.96E+0
231,1.52E+0
232,1.56E+0
233,1.96E+0
234,1.92E+0
235,1.60E+0
236,1.96E+0
237,1.64E+0
238,1.68E+0
239,1.96E+0
240,1.96E+0
241,1.72E+0
242,1.96E+0
243,1.68E+0
244,1.72E+0
245,1.96E+0
246,1.68E+0
247,1.96E+0
248,1.92E+0
249,1.64E+0
250,1.96E+0
251,1.68E+0
252,1.96E+0
253,1.64E+0
254,1.68E+0
255,1.96E+0
256,1.96E+0
257,1.76E+0
258,1.72E+0
259,1.96E+0
260,1.96E+0
261,1.80E+0
262,1.84E+0
263,2.00E+0
264,1.84E+0
265,2.00E+0
266,1.84E+0
267,2.00E+0
268,2.00E+0
269,1.76E+0
270,2.00E+0
271,1.84E+0
272,2.00E+0
273,1.88E+0
274,1.88E+0
275,2.00E+0
276,2.00E+0
277,1.88E+0
278,2.00E+0
279,1.88E+0
280,2.00E+0
281,1.84E+0
282,1.88E+0
283,2.00E+0
284,2.00E+0
285,1.84E+0
286,1.80E+0
287,2.00E+0
288,1.72E+0
289,2.00E+0
290,2.00E+0
291,1.88E+0
292,2.00E+0
293,1.84E+0
294,1.96E+0
295,1.68E+0
296,1.52E+0
297,1.84E+0
298,1.76E+0
299,1.28E+0
300,1.28E+0
301,1.72E+0
302,1.60E+0
303,1.88E+0
304,1.88E+0
305,1.56E+0
306,1.80E+0
307,1.52E+0
308,1.88E+0
309,1.56E+0
310,1.88E+0
311,1.44E+0
312,1.40E+0
313,1.76E+0
314,1.80E+0
315,1.32E+0
316,1.72E+0
317,1.24E+0
318,1.64E+0
319,1.24E+0
320,1.56E+0
321,1.20E+0
322,1.24E+0
323,1.72E+0
324,1.60E+0
325,1.84E+0
326,1.64E+0
327,1.92E+0
328,1.84E+0
329,2.00E+0
330,1.96E+0
331,1.72E+0
332,1.92E+0
333,1.64E+0
334,1.76E+0
335,1.96E+0
336,1.88E+0
337,2.00E+0
338,2.00E+0
339,1.84E+0
340,1.96E+0
341,1.76E+0
342,1.96E+0
343,1.72E+0
344,1.72E+0
345,1.92E+0
346,1.88E+0
347,1.60E+0
348,1.88E+0
349,1.56E+0
350,1.64E+0
351,1.92E+0
352,1.60E+0
353,1.88E+0
354,1.88E+0
355,1.64E+0
356,1.92E+0
357,1.52E+0
358,1.60E+0
359,1.96E+0
360,2.00E+0
361,1.72E+0
362,1.96E+0
363,1.76E+0
364,1.72E+0
365,2.00E+0
366,1.80E+0
367,2.00E+0
368,1.84E+0
369,2.00E+0
370,1.96E+0
371,1.68E+0
372,1.68E+0
373,1.96E+0
374,2.00E+0
375,1.84E+0
376,2.00E+0
377,1.84E+0
378,1.84E+0
379,2.00E+0
380,2.00E+0
381,1.76E+0
382,1.76E+0
383,1.96E+0
384,2.00E+0
385,1.76E+0
386,1.96E+0
387,1.64E+0
388,1.60E+0
389,1.92E+0
390,1.52E+0
391,1.88E+0
392,1.88E+0
393,1.40E+0
394,1.84E+0
395,1.40E+0
396,1.68E+0
397,1.16E+0
398,1.52E+0
399,1.16E+0
400,1.56E+0
401,1.12E+0
402,9.60E-1
403,1.44E+0
404,8.00E-1
405,1.44E+0
406,8.40E-1
407,1.24E+0
408,8.40E-1
409,1.68E+0
410,8.40E-1
411,1.72E+0
412,8.40E-1
413,1.36E+0
414,1.12E+0
415,8.40E-1
416,8.00E-1
417,1.00E+0
418,1.00E+0
419,8.00E-1
420,9.60E-1
421,8.00E-1
422,8.00E-1
423,1.00E+0
424,1.00E+0
425,8.00E-1
426,8.40E-1
427,1.04E+0
428,8.40E-1
429,1.08E+0
430,8.80E-1
431,1.12E+0
432,9.20E-1
433,1.32E+0
434,1.32E+0
435,9.60E-1
436,1.20E+0
437,9.20E-1
438,9.60E-1
439,1.32E+0
440,9.20E-1
441,1.28E+0
442,1.32E+0
443,1.00E+0
444,9.20E-1
445,1.32E+0
446,1.40E+0
447,1.00E+0
448,1.52E+0
449,9.60E-1
450,1.32E+0
451,9.60E-1
452,9.60E-1
453,1.44E+0
454,1.08E+0
455,1.60E+0
456,1.64E+0
457,1.16E+0
458,1.52E+0
459,1.16E+0
460,1.60E+0
461,1.12E+0
462,1.16E+0
463,1.44E+0
464,1.16E+0
465,1.56E+0
466,1.56E+0
467,1.12E+0
468,1.16E+0
469,1.60E+0
470,1.64E+0
471,1.08E+0
472,1.48E+0
473,1.04E+0
474,1.24E+0
475,1.00E+0
476,8.80E-1
477,1.36E+0
478,1.36E+0
479,1.00E+0
480,1.04E+0
481,1.32E+0
482,1.16E+0
483,9.20E-1
484,8.80E-1
485,1.16E+0
486,9.20E-1
487,1.28E+0
488,1.00E+0
489,1.48E+0
490,1.00E+0
491,1.64E+0
492,1.68E+0
493,1.12E+0
494,1.72E+0
495,1.16E+0
496,1.28E+0
497,1.96E+0
498,1.40E+0
499,1.92E+0
500,1.88E+0
501,1.44E+0
502,1.40E+0
503,1.92E+0
504,2.00E+0
505,1.60E+0
506,1.96E+0
507,1.56E+0
508,1.68E+0
509,2.00E+0
510,2.04E+0
511,1.72E+0
512,2.04E+0
513,1.80E+0
514,2.04E+0
515,1.68E+0
516,2.00E+0
517,1.72E+0
518,2.04E+0
519,1.80E+0
520,1.76E+0
521,2.04E+0
522,1.96E+0
523,2.04E+0
524,1.96E+0
525,2.08E+0
526,1.96E+0
527,2.08E+0
528,2.04E+0
529,1.96E+0
530,2.08E+0
531,1.96E+0
532,2.04E+0
533,1.80E+0
534,2.04E+0
535,1.20E+0
536,2.04E+0
537,1.32E+0
538,2.04E+0
539,1.52E+0
540,2.04E+0
541,1.60E+0
542,1.60E+0
543,2.04E+0
544,2.04E+0
545,1.76E+0
546,2.04E+0
547,1.56E+0
548,2.00E+0
549,1.40E+0
550,1.88E+0
551,1.24E+0
552,1.24E+0
553,1.72E+0
554,1.16E+0
555,1.64E+0
556,1.64E+0
557,1.16E+0
558,1.68E+0
559,1.20E+0
560,1.32E+0
561,9.20E-1
562,1.24E+0
563,8.80E-1
564,1.04E+0
565,8.40E-1
566,1.04E+0
567,8.40E-1
568,8.40E-1
569,9.60E-1
570,8.40E-1
571,1.04E+0
572,8.40E-1
573,1.00E+0
574,8.40E-1
575,1.00E+0
576,1.04E+0
577,8.80E-1
578,8.80E-1
579,1.20E+0
580,9.20E-1
581,1.24E+0
582,9.20E-1
583,1.32E+0
584,9.60E-1
585,1.36E+0
586,1.04E+0
587,1.56E+0
588,1.44E+0
589,1.00E+0
590,1.04E+0
591,1.68E+0
592,1.28E+0
593,1.72E+0
594,1.48E+0
595,1.88E+0
596,1.56E+0
597,2.04E+0
598,1.76E+0
599,2.08E+0
600,1.80E+0
601,2.12E+0
602,1.92E+0
603,2.12E+0
604,2.12E+0
605,1.96E+0
606,2.12E+0
607,1.80E+0
608,2.00E+0
609,1.76E+0
610,2.04E+0
611,1.84E+0
612,2.00E+0
613,1.60E+0
614,1.92E+0
615,1.40E+0
616,1.68E+0
617,1.12E+0
618,1.48E+0
619,1.04E+0
620,1.08E+0
621,1.48E+0
622,1.08E+0
623,1.36E+0
624,1.32E+0
625,9.60E-1
626,1.12E+0
627,8.80E-1
628,8.80E-1
629,1.08E+0
630,8.80E-1
631,1.12E+0
632,1.20E+0
633,9.20E-1
634,1.04E+0
635,1.28E+0
636,1.08E+0
637,1.44E+0
638,1.56E+0
639,1.20E+0
640,1.40E+0
641,1.84E+0
642,1.60E+0
643,1.96E+0
644,1.68E+0
645,2.08E+0
646,1.76E+0
647,2.04E+0
648,2.08E+0
649,1.88E+0
650,1.88E+0
651,2.12E+0
652,2.12E+0
653,1.92E+0
654,2.00E+0
655,2.12E+0
656,2.16E+0
657,2.00E+0
658,2.12E+0
659,2.00E+0
660,2.12E+0
661,1.96E+0
662,2.12E+0
663,1.76E+0
664,1.92E+0
665,1.44E+0
666,1.72E+0
667,1.32E+0
668,1.52E+0
669,1.20E+0
670,1.36E+0
671,1.00E+0
672,1.40E+0
673,1.00E+0
674,1.24E+0
675,1.00E+0
676,1.12E+0
677,9.20E-1
678,8.80E-1
679,1.00E+0
680,8.80E-1
681,1.00E+0
682,8.80E-1
683,1.20E+0
684,9.20E-1
685,1.16E+0
686,9.20E-1
687,1.12E+0
688,9.60E-1
689,1.36E+0
690,1.52E+0
691,1.08E+0
692,1.12E+0
693,1.60E+0
694,1.16E+0
695,1.96E+0
696,1.08E+0
697,2.08E+0
698,2.08E+0
699,1.08E+0
700,1.76E+0
701,1.12E+0
702,1.08E+0
703,1.76E+0
704,1.20E+0
705,1.92E+0
706,2.00E+0
707,1.36E+0
708,1.40E+0
709,1.84E+0
710,1.40E+0
711,2.00E+0
712,1.68E+0
713,2.00E+0
714,1.76E+0
715,2.04E+0
716,1.84E+0
717,2.04E+0
718,1.84E+0
719,2.12E+0
720,2.00E+0
721,2.12E+0
722,2.12E+0
723,1.96E+0
724,2.12E+0
725,1.96E+0
726,2.12E+0
727,1.96E+0
728,2.00E+0
729,2.12E+0
730,2.00E+0
731,2.12E+0
732,2.12E+0
733,2.00E+0
734,2.12E+0
735,2.00E+0
736,2.12E+0
737,2.00E+0
738,2.12E+0
739,1.84E+0
740,2.08E+0
741,1.80E+0
742,1.76E+0
743,2.04E+0
744,2.04E+0
745,1.84E+0
746,1.88E+0
747,2.12E+0
748,2.12E+0
749,1.96E+0
750,2.12E+0
751,2.00E+0
752,2.12E+0
753,1.96E+0
754,2.12E+0
755,1.92E+0
756,2.08E+0
757,1.88E+0
758,1.96E+0
759,1.40E+0
760,1.40E+0
761,1.80E+0
762,1.56E+0
763,1.20E+0
764,1.36E+0
765,9.60E-1
766,1.16E+0
767,8.80E-1
768,1.04E+0
769,8.80E-1
770,8.80E-1
771,9.60E-1
772,8.80E-1
773,1.20E+0
774,9.60E-1
775,1.28E+0
776,9.60E-1
777,1.28E+0
778,1.28E+0
779,9.60E-1
780,1.32E+0
781,1.00E+0
782,1.32E+0
783,1.04E+0
784,1.00E+0
785,1.56E+0
786,1.32E+0
787,1.76E+0
788,1.84E+0
789,1.24E+0
790,1.84E+0
791,1.24E+0
792,1.48E+0
793,1.92E+0
794,1.48E+0
795,1.88E+0
796,1.56E+0
797,2.00E+0
798,1.48E+0
799,2.00E+0
800,1.84E+0
801,2.08E+0
802,1.80E+0
803,2.08E+0
804,2.00E+0
805,2.12E+0
806,2.08E+0
807,1.88E+0
808,2.08E+0
809,1.68E+0
810,2.08E+0
811,1.64E+0
812,1.84E+0
813,1.36E+0
814,1.68E+0
815,1.16E+0
816,1.56E+0
817,1.04E+0
818,1.36E+0
819,1.04E+0
820,1.00E+0
821,1.40E+0
822,1.48E+0
823,1.00E+0
824,1.04E+0
825,1.56E+0
826,1.00E+0
827,1.24E+0
828,1.40E+0
829,9.20E-1
830,1.20E+0
831,8.80E-1
832,8.80E-1
833,1.12E+0
834,8.80E-1
835,1.12E+0
836,1.08E+0
837,8.80E-1
838,8.80E-1
839,1.16E+0
840,9.20E-1
841,1.16E+0
842,8.80E-1
843,1.16E+0
844,8.80E-1
845,1.04E+0
846,8.80E-1
847,1.04E+0
848,8.80E-1
849,1.08E+0
850,8.80E-1
851,1.12E+0
852,9.20E-1
853,1.36E+0
854,1.32E+0
855,9.60E-1
856,9.60E-1
857,1.40E+0
858,1.12E+0
859,1.40E+0
860,1.28E+0
861,1.80E+0
862,1.56E+0
863,2.08E+0
864,1.76E+0
865,2.16E+0
866,2.12E+0
867,1.96E+0
868,2.00E+0
869,2.16E+0
870,2.04E+0
871,2.16E+0
872,2.12E+0
873,1.96E+0
874,1.88E+0
875,2.12E+0
876,2.04E+0
877,1.60E+0
878,1.80E+0
879,2.04E+0
880,1.76E+0
881,2.00E+0
882,1.60E+0
883,1.92E+0
884,1.92E+0
885,1.44E+0
886,1.64E+0
887,1.24E+0
888,1.44E+0
889,1.04E+0
890,1.24E+0
891,9.20E-1
892,9.20E-1
893,1.00E+0
894,1.00E+0
895,8.80E-1
896,9.20E-1
897,1.08E+0
898,1.12E+0
899,8.80E-1
900,1.12E+0
901,8.80E-1
902,8.80E-1
903,1.08E+0
904,1.04E+0
905,9.20E-1
906,9.20E-1
907,1.12E+0
908,8.80E-1
909,1.08E+0
910,8.80E-1
911,1.44E+0
912,1.36E+0
913,8.80E-1
914,8.80E-1
915,1.56E+0
916,8.80E-1
917,1.76E+0
918,8.80E-1
919,1.64E+0
920,8.80E-1
921,1.60E+0
922,8.80E-1
923,1.72E+0
924,9.60E-1
925,1.64E+0
926,1.56E+0
927,9.20E-1
928,9.20E-1
929,1.52E+0
930,9.60E-1
931,1.84E+0
932,8.80E-1
933,1.60E+0
934,8.80E-1
935,1.56E+0
936,8.80E-1
937,1.36E+0
938,9.20E-1
939,1.36E+0
940,9.20E-1
941,1.40E+0
942,9.20E-1
943,1.36E+0
944,9.60E-1
945,1.24E+0
946,1.36E+0
947,9.60E-1
948,1.28E+0
949,9.20E-1
950,9.60E-1
951,1.36E+0
952,1.20E+0
953,9.60E-1
954,9.20E-1
955,1.20E+0
956,1.24E+0
957,9.60E-1
958,1.20E+0
959,9.20E-1
960,9.20E-1
961,1.24E+0
962,9.20E-1
963,1.20E+0
964,1.16E+0
965,9.20E-1
966,9.20E-1
967,1.08E+0
968,1.12E+0
969,9.20E-1
970,9.20E-1
971,1.12E+0
972,1.12E+0
973,8.80E-1
974,1.08E+0
975,8.80E-1
976,9.20E-1
977,1.08E+0
978,9.20E-1
979,1.12E+0
980,1.08E+0
981,8.80E-1
982,1.16E+0
983,8.80E-1
984,1.08E+0
985,8.80E-1
986,8.80E-1
987,1.12E+0
988,1.04E+0
989,8.80E-1
990,1.12E+0
991,8.80E-1
992,1.08E+0
993,8.80E-1
994,8.80E-1
995,1.16E+0
996,8.80E-1
997,1.08E+0
998,8.80E-1
999,1.04E+0
1000,8.80E-1
1001,1.04E+0
1002,8.80E-1
1003,1.08E+0
1004,1.00E+0
1005,8.80E-1
1006,8.80E-1
1007,1.00E+0
1008,8.80E-1
1009,1.04E+0
1010,8.80E-1
1011,1.00E+0
1012,8.80E-1
1013,1.00E+0
1014,1.00E+0
1015,8.80E-1
1016,8.80E-1
1017,1.00E+0
1018,1.00E+0
1019,8.80E-1
1020,8.80E-1
1021,1.00E+0
1022,8.80E-1
1023,1.00E+0
1024,8.80E-1
1025,1.00E+0
1026,1.00E+0
1027,8.80E-1
1028,8.80E-1
1029,1.00E+0
1030,8.80E-1
1031,1.00E+0
1032,1.00E+0
1033,8.80E-1
1034,8.80E-1
1035,1.00E+0
1036,8.80E-1
1037,1.00E+0
1038,8.80E-1
1039,1.04E+0
1040,8.80E-1
1041,1.00E+0
1042,8.80E-1
1043,1.00E+0
1044,1.04E+0
1045,8.80E-1
1046,8.80E-1
1047,1.04E+0
1048,8.80E-1
1049,1.04E+0
1050,8.80E-1
1051,1.04E+0
1052,1.08E+0
1053,8.80E-1
1054,1.08E+0
1055,8.80E-1
