metingen/test data/N10.csv

X,CH1,Start,Increment,
Sequence,Volt,2.550000e-03,5.000000e-06,
0,-3.200000e-01,
1,-5.600000e-01,
2,-3.200000e-01,
3,-5.600000e-01,
4,-4.800000e-01,
5,-7.200000e-01,
6,-6.400000e-01,
7,-8.400000e-01,
8,-7.600000e-01,
9,-1.000000e+00,
10,-9.200000e-01,
11,-1.120000e+00,
12,-1.080000e+00,
13,-1.280000e+00,
14,-1.200000e+00,
15,-1.400000e+00,
16,-1.320000e+00,
17,-1.560000e+00,
18,-1.480000e+00,
19,-1.680000e+00,
20,-1.600000e+00,
21,-1.760000e+00,
22,-1.720000e+00,
23,-1.880000e+00,
24,-1.800000e+00,
25,-2.000000e+00,
26,-1.920000e+00,
27,-2.080000e+00,
28,-2.000000e+00,
29,-2.160000e+00,
30,-2.080000e+00,
31,-2.240000e+00,
32,-2.160000e+00,
33,-2.320000e+00,
34,-2.240000e+00,
35,-2.400000e+00,
36,-2.280000e+00,
37,-2.440000e+00,
38,-2.360000e+00,
39,-2.480000e+00,
40,-2.400000e+00,
41,-2.520000e+00,
42,-2.440000e+00,
43,-2.520000e+00,
44,-2.440000e+00,
45,-2.560000e+00,
46,-2.440000e+00,
47,-2.560000e+00,
48,-2.440000e+00,
49,-2.520000e+00,
50,-2.520000e+00,
51,-2.440000e+00,
52,-2.520000e+00,
53,-2.400000e+00,
54,-2.480000e+00,
55,-2.360000e+00,
56,-2.440000e+00,
57,-2.320000e+00,
58,-2.400000e+00,
59,-2.240000e+00,
60,-2.320000e+00,
61,-2.160000e+00,
62,-2.280000e+00,
63,-2.120000e+00,
64,-2.200000e+00,
65,-2.040000e+00,
66,-2.120000e+00,
67,-1.920000e+00,
68,-2.040000e+00,
69,-1.840000e+00,
70,-1.920000e+00,
71,-1.720000e+00,
72,-1.800000e+00,
73,-1.640000e+00,
74,-1.680000e+00,
75,-1.480000e+00,
76,-1.560000e+00,
77,-1.360000e+00,
78,-1.440000e+00,
79,-1.240000e+00,
80,-1.320000e+00,
81,-1.080000e+00,
82,-1.160000e+00,
83,-9.600000e-01,
84,-1.040000e+00,
85,-8.000000e-01,
86,-8.800000e-01,
87,-6.800000e-01,
88,-7.200000e-01,
89,-5.200000e-01,
90,-5.600000e-01,
91,-3.600000e-01,
92,-4.000000e-01,
93,-2.000000e-01,
94,-2.400000e-01,
95,-4.000000e-02,
96,-1.200000e-01,
97,1.200000e-01,
98,4.000000e-02,
99,2.800000e-01,
100,2.000000e-01,
101,4.400000e-01,
102,3.600000e-01,
103,6.000000e-01,
104,5.200000e-01,
105,7.600000e-01,
106,6.800000e-01,
107,9.200000e-01,
108,8.400000e-01,
109,1.040000e+00,
110,9.600000e-01,
111,1.200000e+00,
112,1.120000e+00,
113,1.320000e+00,
114,1.240000e+00,
115,1.480000e+00,
116,1.400000e+00,
117,1.600000e+00,
118,1.520000e+00,
119,1.720000e+00,
120,1.640000e+00,
121,1.840000e+00,
122,1.760000e+00,
123,1.960000e+00,
124,1.880000e+00,
125,2.040000e+00,
126,1.960000e+00,
127,2.160000e+00,
128,2.080000e+00,
129,2.240000e+00,
130,2.160000e+00,
131,2.280000e+00,
132,2.200000e+00,
133,2.360000e+00,
134,2.280000e+00,
135,2.440000e+00,
136,2.360000e+00,
137,2.480000e+00,
138,2.400000e+00,
139,2.520000e+00,
140,2.440000e+00,
141,2.560000e+00,
142,2.480000e+00,
143,2.560000e+00,
144,2.480000e+00,
145,2.600000e+00,
146,2.600000e+00,
147,2.480000e+00,
148,2.600000e+00,
149,2.480000e+00,
150,2.560000e+00,
151,2.480000e+00,
152,2.560000e+00,
153,2.440000e+00,
154,2.520000e+00,
155,2.400000e+00,
156,2.480000e+00,
157,2.360000e+00,
158,2.440000e+00,
159,2.280000e+00,
160,2.400000e+00,
161,2.240000e+00,
162,2.320000e+00,
163,2.160000e+00,
164,2.240000e+00,
165,2.080000e+00,
166,2.160000e+00,
167,2.000000e+00,
168,2.080000e+00,
169,1.880000e+00,
170,1.960000e+00,
171,1.800000e+00,
172,1.880000e+00,
173,1.680000e+00,
174,1.760000e+00,
175,1.560000e+00,
176,1.640000e+00,
177,1.440000e+00,
178,1.480000e+00,
179,1.280000e+00,
180,1.360000e+00,
181,1.160000e+00,
182,1.240000e+00,
183,1.000000e+00,
184,1.080000e+00,
185,8.800000e-01,
186,9.200000e-01,
187,7.200000e-01,
188,8.000000e-01,
189,5.600000e-01,
190,6.400000e-01,
191,4.000000e-01,
192,4.800000e-01,
193,2.400000e-01,
194,3.200000e-01,
195,8.000000e-02,
196,1.600000e-01,
197,-8.000000e-02,
198,0.000000e+00,
199,-2.400000e-01,
200,-1.600000e-01,
201,-4.000000e-01,
202,-3.200000e-01,
203,-5.600000e-01,
204,-4.800000e-01,
205,-6.800000e-01,
206,-6.400000e-01,
207,-8.400000e-01,
208,-7.600000e-01,
209,-1.000000e+00,
210,-9.200000e-01,
211,-1.120000e+00,
212,-1.080000e+00,
213,-1.280000e+00,
214,-1.200000e+00,
215,-1.400000e+00,
216,-1.320000e+00,
217,-1.560000e+00,
218,-1.480000e+00,
219,-1.640000e+00,
220,-1.600000e+00,
221,-1.800000e+00,
222,-1.680000e+00,
223,-1.880000e+00,
224,-1.800000e+00,
225,-2.000000e+00,
226,-1.920000e+00,
227,-2.080000e+00,
228,-2.000000e+00,
229,-2.160000e+00,
230,-2.080000e+00,
231,-2.240000e+00,
232,-2.160000e+00,
233,-2.320000e+00,
234,-2.240000e+00,
235,-2.360000e+00,
236,-2.280000e+00,
237,-2.440000e+00,
238,-2.320000e+00,
239,-2.480000e+00,
240,-2.400000e+00,
241,-2.480000e+00,
242,-2.400000e+00,
243,-2.520000e+00,
244,-2.440000e+00,
245,-2.560000e+00,
246,-2.440000e+00,
247,-2.560000e+00,
248,-2.440000e+00,
249,-2.560000e+00,
250,-2.440000e+00,
251,-2.520000e+00,
252,-2.520000e+00,
253,-2.400000e+00,
254,-2.480000e+00,
255,-2.360000e+00,
256,-2.440000e+00,
257,-2.320000e+00,
258,-2.400000e+00,
259,-2.240000e+00,
260,-2.320000e+00,
261,-2.160000e+00,
262,-2.280000e+00,
263,-2.120000e+00,
264,-2.200000e+00,
265,-2.040000e+00,
266,-2.120000e+00,
267,-1.920000e+00,
268,-2.000000e+00,
269,-1.840000e+00,
270,-1.920000e+00,
271,-1.720000e+00,
272,-1.800000e+00,
273,-1.600000e+00,
274,-1.680000e+00,
275,-1.480000e+00,
276,-1.560000e+00,
277,-1.360000e+00,
278,-1.440000e+00,
279,-1.240000e+00,
280,-1.320000e+00,
281,-1.080000e+00,
282,-1.160000e+00,
283,-9.600000e-01,
284,-1.000000e+00,
285,-8.000000e-01,
286,-8.800000e-01,
287,-6.800000e-01,
288,-7.200000e-01,
289,-5.200000e-01,
290,-5.600000e-01,
291,-3.600000e-01,
292,-4.000000e-01,
293,-2.000000e-01,
294,-2.800000e-01,
295,-4.000000e-02,
296,-8.000000e-02,
297,1.200000e-01,
298,4.000000e-02,
299,2.800000e-01,
300,2.000000e-01,
301,4.400000e-01,
302,3.600000e-01,
303,6.000000e-01,
304,5.200000e-01,
305,7.600000e-01,
306,6.800000e-01,
307,9.200000e-01,
308,8.400000e-01,
309,1.040000e+00,
310,9.600000e-01,
311,1.200000e+00,
312,1.120000e+00,
313,1.360000e+00,
314,1.240000e+00,
315,1.480000e+00,
316,1.400000e+00,
317,1.600000e+00,
318,1.520000e+00,
319,1.720000e+00,
320,1.640000e+00,
321,1.840000e+00,
322,1.760000e+00,
323,1.960000e+00,
324,1.880000e+00,
325,2.040000e+00,
326,1.960000e+00,
327,2.160000e+00,
328,2.040000e+00,
329,2.200000e+00,
330,2.160000e+00,
331,2.320000e+00,
332,2.200000e+00,
333,2.360000e+00,
334,2.280000e+00,
335,2.440000e+00,
336,2.360000e+00,
337,2.480000e+00,
338,2.400000e+00,
339,2.520000e+00,
340,2.440000e+00,
341,2.560000e+00,
342,2.480000e+00,
343,2.560000e+00,
344,2.480000e+00,
345,2.600000e+00,
346,2.600000e+00,
347,2.480000e+00,
348,2.600000e+00,
349,2.480000e+00,
350,2.560000e+00,
351,2.480000e+00,
352,2.560000e+00,
353,2.440000e+00,
354,2.520000e+00,
355,2.400000e+00,
356,2.480000e+00,
357,2.360000e+00,
358,2.440000e+00,
359,2.280000e+00,
360,2.400000e+00,
361,2.240000e+00,
362,2.320000e+00,
363,2.160000e+00,
364,2.240000e+00,
365,2.080000e+00,
366,2.160000e+00,
367,2.000000e+00,
368,2.080000e+00,
369,1.880000e+00,
370,1.960000e+00,
371,1.800000e+00,
372,1.880000e+00,
373,1.680000e+00,
374,1.760000e+00,
375,1.560000e+00,
376,1.640000e+00,
377,1.400000e+00,
378,1.480000e+00,
379,1.280000e+00,
380,1.360000e+00,
381,1.160000e+00,
382,1.240000e+00,
383,1.040000e+00,
384,1.080000e+00,
385,8.800000e-01,
386,9.200000e-01,
387,7.200000e-01,
388,8.000000e-01,
389,5.600000e-01,
390,6.400000e-01,
391,4.000000e-01,
392,4.800000e-01,
393,2.400000e-01,
394,3.200000e-01,
395,8.000000e-02,
396,1.600000e-01,
397,-8.000000e-02,
398,0.000000e+00,
399,-2.400000e-01,
400,-1.600000e-01,
401,-3.600000e-01,
402,-3.200000e-01,
403,-5.600000e-01,
404,-4.800000e-01,
405,-6.800000e-01,
406,-6.400000e-01,
407,-8.400000e-01,
408,-7.600000e-01,
409,-1.000000e+00,
410,-9.200000e-01,
411,-1.160000e+00,
412,-1.080000e+00,
413,-1.280000e+00,
414,-1.200000e+00,
415,-1.400000e+00,
416,-1.320000e+00,
417,-1.560000e+00,
418,-1.480000e+00,
419,-1.640000e+00,
420,-1.600000e+00,
421,-1.800000e+00,
422,-1.680000e+00,
423,-1.880000e+00,
424,-1.800000e+00,
425,-2.000000e+00,
426,-1.920000e+00,
427,-2.080000e+00,
428,-2.000000e+00,
429,-2.160000e+00,
430,-2.080000e+00,
431,-2.240000e+00,
432,-2.160000e+00,
433,-2.320000e+00,
434,-2.240000e+00,
435,-2.360000e+00,
436,-2.280000e+00,
437,-2.440000e+00,
438,-2.360000e+00,
439,-2.480000e+00,
440,-2.360000e+00,
441,-2.520000e+00,
442,-2.400000e+00,
443,-2.520000e+00,
444,-2.520000e+00,
445,-2.440000e+00,
446,-2.440000e+00,
447,-2.560000e+00,
448,-2.520000e+00,
449,-2.440000e+00,
450,-2.440000e+00,
451,-2.520000e+00,
452,-2.520000e+00,
453,-2.400000e+00,
454,-2.480000e+00,
455,-2.360000e+00,
456,-2.440000e+00,
457,-2.320000e+00,
458,-2.400000e+00,
459,-2.240000e+00,
460,-2.320000e+00,
461,-2.160000e+00,
462,-2.240000e+00,
463,-2.120000e+00,
464,-2.200000e+00,
465,-2.040000e+00,
466,-2.080000e+00,
467,-1.920000e+00,
468,-2.000000e+00,
469,-1.840000e+00,
470,-1.920000e+00,
471,-1.720000e+00,
472,-1.800000e+00,
473,-1.600000e+00,
474,-1.680000e+00,
475,-1.480000e+00,
476,-1.560000e+00,
477,-1.360000e+00,
478,-1.440000e+00,
479,-1.240000e+00,
480,-1.320000e+00,
481,-1.080000e+00,
482,-1.160000e+00,
483,-9.600000e-01,
484,-1.040000e+00,
485,-8.000000e-01,
486,-8.800000e-01,
487,-6.400000e-01,
488,-7.200000e-01,
489,-5.200000e-01,
490,-5.600000e-01,
491,-3.600000e-01,
492,-4.000000e-01,
493,-2.000000e-01,
494,-2.800000e-01,
495,-4.000000e-02,
496,-1.200000e-01,
497,1.600000e-01,
498,8.000000e-02,
499,2.800000e-01,
500,2.000000e-01,
501,4.400000e-01,
502,3.600000e-01,
503,6.000000e-01,
504,5.200000e-01,
505,7.600000e-01,
506,6.800000e-01,
507,8.800000e-01,
508,8.400000e-01,
509,1.040000e+00,
510,9.600000e-01,
511,1.200000e+00,
512,1.120000e+00,
513,1.320000e+00,
514,1.240000e+00,
515,1.480000e+00,
516,1.400000e+00,
517,1.600000e+00,
518,1.520000e+00,
519,1.720000e+00,
520,1.640000e+00,
521,1.840000e+00,
522,1.760000e+00,
523,1.960000e+00,
524,1.880000e+00,
525,2.040000e+00,
526,1.960000e+00,
527,2.160000e+00,
528,2.080000e+00,
529,2.240000e+00,
530,2.160000e+00,
531,2.320000e+00,
532,2.200000e+00,
533,2.360000e+00,
534,2.280000e+00,
535,2.440000e+00,
536,2.360000e+00,
537,2.480000e+00,
538,2.400000e+00,
539,2.520000e+00,
540,2.440000e+00,
541,2.560000e+00,
542,2.480000e+00,
543,2.560000e+00,
544,2.480000e+00,
545,2.600000e+00,
546,2.480000e+00,
547,2.600000e+00,
548,2.600000e+00,
549,2.480000e+00,
550,2.480000e+00,
551,2.600000e+00,
552,2.560000e+00,
553,2.440000e+00,
554,2.520000e+00,
555,2.400000e+00,
556,2.480000e+00,
557,2.360000e+00,
558,2.440000e+00,
559,2.320000e+00,
560,2.400000e+00,
561,2.240000e+00,
562,2.320000e+00,
563,2.160000e+00,
564,2.240000e+00,
565,2.080000e+00,
566,2.160000e+00,
567,2.000000e+00,
568,2.080000e+00,
569,1.880000e+00,
570,1.960000e+00,
571,1.800000e+00,
572,1.840000e+00,
573,1.680000e+00,
574,1.760000e+00,
575,1.560000e+00,
576,1.640000e+00,
577,1.440000e+00,
578,1.520000e+00,
579,1.280000e+00,
580,1.360000e+00,
581,1.160000e+00,
582,1.240000e+00,
583,1.000000e+00,
584,1.080000e+00,
585,8.800000e-01,
586,9.200000e-01,
587,7.200000e-01,
588,8.000000e-01,
589,5.600000e-01,
590,6.400000e-01,
591,4.000000e-01,
592,4.800000e-01,
593,2.400000e-01,
594,3.200000e-01,
595,8.000000e-02,
596,1.600000e-01,
597,-8.000000e-02,
598,0.000000e+00,
599,-2.400000e-01,
600,-1.600000e-01,
601,-3.600000e-01,
602,-3.200000e-01,
603,-5.200000e-01,
604,-4.800000e-01,
605,-6.800000e-01,
606,-6.400000e-01,
607,-8.400000e-01,
608,-7.600000e-01,
609,-1.000000e+00,
610,-9.200000e-01,
611,-1.120000e+00,
612,-1.080000e+00,
613,-1.280000e+00,
614,-1.200000e+00,
615,-1.400000e+00,
616,-1.360000e+00,
617,-1.520000e+00,
618,-1.480000e+00,
619,-1.680000e+00,
620,-1.600000e+00,
621,-1.800000e+00,
622,-1.720000e+00,
623,-1.880000e+00,
624,-1.800000e+00,
625,-2.000000e+00,
626,-1.920000e+00,
627,-2.080000e+00,
628,-2.000000e+00,
629,-2.160000e+00,
630,-2.080000e+00,
631,-2.240000e+00,
632,-2.160000e+00,
633,-2.320000e+00,
634,-2.240000e+00,
635,-2.400000e+00,
636,-2.320000e+00,
637,-2.440000e+00,
638,-2.320000e+00,
639,-2.480000e+00,
640,-2.400000e+00,
641,-2.520000e+00,
642,-2.400000e+00,
643,-2.520000e+00,
644,-2.440000e+00,
645,-2.560000e+00,
646,-2.440000e+00,
647,-2.560000e+00,
648,-2.440000e+00,
649,-2.560000e+00,
650,-2.520000e+00,
651,-2.440000e+00,
652,-2.520000e+00,
653,-2.400000e+00,
654,-2.480000e+00,
655,-2.360000e+00,
656,-2.440000e+00,
657,-2.280000e+00,
658,-2.400000e+00,
659,-2.240000e+00,
660,-2.320000e+00,
661,-2.160000e+00,
662,-2.280000e+00,
663,-2.120000e+00,
664,-2.160000e+00,
665,-2.040000e+00,
666,-2.120000e+00,
667,-1.920000e+00,
668,-2.000000e+00,
669,-1.840000e+00,
670,-1.920000e+00,
671,-1.720000e+00,
672,-1.800000e+00,
673,-1.600000e+00,
674,-1.680000e+00,
675,-1.480000e+00,
676,-1.560000e+00,
677,-1.360000e+00,
678,-1.440000e+00,
679,-1.240000e+00,
680,-1.320000e+00,
681,-1.080000e+00,
682,-1.160000e+00,
683,-9.600000e-01,
684,-1.000000e+00,
685,-8.000000e-01,
686,-8.800000e-01,
687,-6.800000e-01,
688,-7.200000e-01,
689,-5.200000e-01,
690,-5.600000e-01,
691,-3.600000e-01,
692,-4.000000e-01,
693,-2.000000e-01,
694,-2.400000e-01,
695,-4.000000e-02,
696,-1.200000e-01,
697,1.200000e-01,
698,4.000000e-02,
699,2.800000e-01,
700,2.000000e-01,
701,4.400000e-01,
702,3.600000e-01,
703,6.000000e-01,
704,5.200000e-01,
705,7.600000e-01,
706,6.800000e-01,
707,8.800000e-01,
708,8.400000e-01,
709,1.040000e+00,
710,9.600000e-01,
711,1.200000e+00,
712,1.120000e+00,
713,1.360000e+00,
714,1.240000e+00,
715,1.480000e+00,
716,1.400000e+00,
717,1.600000e+00,
718,1.520000e+00,
719,1.720000e+00,
720,1.640000e+00,
721,1.840000e+00,
722,1.760000e+00,
723,1.960000e+00,
724,1.880000e+00,
725,2.040000e+00,
726,1.960000e+00,
727,2.160000e+00,
728,2.080000e+00,
729,2.200000e+00,
730,2.160000e+00,
731,2.280000e+00,
732,2.200000e+00,
733,2.360000e+00,
734,2.280000e+00,
735,2.440000e+00,
736,2.320000e+00,
737,2.480000e+00,
738,2.400000e+00,
739,2.520000e+00,
740,2.440000e+00,
741,2.560000e+00,
742,2.480000e+00,
743,2.560000e+00,
744,2.480000e+00,
745,2.600000e+00,
746,2.480000e+00,
747,2.600000e+00,
748,2.600000e+00,
749,2.480000e+00,
750,2.560000e+00,
751,2.480000e+00,
752,2.560000e+00,
753,2.440000e+00,
754,2.520000e+00,
755,2.400000e+00,
756,2.480000e+00,
757,2.360000e+00,
758,2.440000e+00,
759,2.280000e+00,
760,2.400000e+00,
761,2.240000e+00,
762,2.320000e+00,
763,2.160000e+00,
764,2.240000e+00,
765,2.080000e+00,
766,2.160000e+00,
767,2.000000e+00,
768,2.080000e+00,
769,1.880000e+00,
770,1.960000e+00,
771,1.800000e+00,
772,1.840000e+00,
773,1.680000e+00,
774,1.760000e+00,
775,1.560000e+00,
776,1.640000e+00,
777,1.400000e+00,
778,1.520000e+00,
779,1.280000e+00,
780,1.360000e+00,
781,1.160000e+00,
782,1.240000e+00,
783,1.000000e+00,
784,1.080000e+00,
785,8.800000e-01,
786,9.200000e-01,
787,7.200000e-01,
788,8.000000e-01,
789,5.600000e-01,
790,6.400000e-01,
791,4.000000e-01,
792,4.800000e-01,
793,2.400000e-01,
794,3.200000e-01,
795,8.000000e-02,
796,1.600000e-01,
797,-8.000000e-02,
798,0.000000e+00,
799,-2.400000e-01,
800,-1.600000e-01,
801,-4.000000e-01,
802,-3.200000e-01,
803,-5.600000e-01,
804,-4.800000e-01,
805,-7.200000e-01,
806,-6.400000e-01,
807,-8.400000e-01,
808,-7.600000e-01,
809,-1.000000e+00,
810,-9.200000e-01,
811,-1.120000e+00,
812,-1.080000e+00,
813,-1.280000e+00,
814,-1.200000e+00,
815,-1.400000e+00,
816,-1.320000e+00,
817,-1.520000e+00,
818,-1.480000e+00,
819,-1.640000e+00,
820,-1.600000e+00,
821,-1.760000e+00,
822,-1.680000e+00,
823,-1.880000e+00,
824,-1.800000e+00,
825,-2.000000e+00,
826,-1.920000e+00,
827,-2.080000e+00,
828,-2.000000e+00,
829,-2.160000e+00,
830,-2.080000e+00,
831,-2.240000e+00,
832,-2.160000e+00,
833,-2.320000e+00,
834,-2.240000e+00,
835,-2.360000e+00,
836,-2.280000e+00,
837,-2.440000e+00,
838,-2.360000e+00,
839,-2.480000e+00,
840,-2.400000e+00,
841,-2.520000e+00,
842,-2.400000e+00,
843,-2.520000e+00,
844,-2.440000e+00,
845,-2.520000e+00,
846,-2.440000e+00,
847,-2.560000e+00,
848,-2.520000e+00,
849,-2.440000e+00,
850,-2.440000e+00,
851,-2.520000e+00,
852,-2.520000e+00,
853,-2.400000e+00,
854,-2.480000e+00,
855,-2.360000e+00,
856,-2.440000e+00,
857,-2.320000e+00,
858,-2.400000e+00,
859,-2.240000e+00,
860,-2.320000e+00,
861,-2.200000e+00,
862,-2.240000e+00,
863,-2.120000e+00,
864,-2.200000e+00,
865,-2.040000e+00,
866,-2.120000e+00,
867,-1.920000e+00,
868,-2.000000e+00,
869,-1.840000e+00,
870,-1.920000e+00,
871,-1.720000e+00,
872,-1.800000e+00,
873,-1.600000e+00,
874,-1.680000e+00,
875,-1.480000e+00,
876,-1.560000e+00,
877,-1.360000e+00,
878,-1.440000e+00,
879,-1.240000e+00,
880,-1.320000e+00,
881,-1.080000e+00,
882,-1.160000e+00,
883,-9.600000e-01,
884,-1.040000e+00,
885,-8.000000e-01,
886,-8.800000e-01,
887,-6.400000e-01,
888,-7.200000e-01,
889,-5.200000e-01,
890,-5.600000e-01,
891,-3.600000e-01,
892,-4.000000e-01,
893,-2.000000e-01,
894,-2.800000e-01,
895,-4.000000e-02,
896,-1.200000e-01,
897,1.200000e-01,
898,4.000000e-02,
899,2.800000e-01,
900,2.000000e-01,
901,4.400000e-01,
902,3.600000e-01,
903,6.000000e-01,
904,5.600000e-01,
905,7.600000e-01,
906,6.800000e-01,
907,9.200000e-01,
908,8.400000e-01,
909,1.040000e+00,
910,1.000000e+00,
911,1.200000e+00,
912,1.120000e+00,
913,1.320000e+00,
914,1.280000e+00,
915,1.480000e+00,
916,1.400000e+00,
917,1.600000e+00,
918,1.520000e+00,
919,1.720000e+00,
920,1.640000e+00,
921,1.840000e+00,
922,1.760000e+00,
923,1.960000e+00,
924,1.880000e+00,
925,2.040000e+00,
926,1.960000e+00,
927,2.160000e+00,
928,2.080000e+00,
929,2.240000e+00,
930,2.160000e+00,
931,2.320000e+00,
932,2.200000e+00,
933,2.360000e+00,
934,2.280000e+00,
935,2.440000e+00,
936,2.360000e+00,
937,2.480000e+00,
938,2.400000e+00,
939,2.520000e+00,
940,2.440000e+00,
941,2.560000e+00,
942,2.480000e+00,
943,2.560000e+00,
944,2.480000e+00,
945,2.600000e+00,
946,2.600000e+00,
947,2.480000e+00,
948,2.600000e+00,
949,2.480000e+00,
950,2.480000e+00,
951,2.600000e+00,
952,2.560000e+00,
953,2.440000e+00,
954,2.520000e+00,
955,2.400000e+00,
956,2.480000e+00,
957,2.360000e+00,
958,2.440000e+00,
959,2.320000e+00,
960,2.400000e+00,
961,2.240000e+00,
962,2.320000e+00,
963,2.160000e+00,
964,2.240000e+00,
965,2.080000e+00,
966,2.160000e+00,
967,2.000000e+00,
968,2.080000e+00,
969,1.880000e+00,
970,1.960000e+00,
971,1.760000e+00,
972,1.880000e+00,
973,1.680000e+00,
974,1.760000e+00,
975,1.560000e+00,
976,1.640000e+00,
977,1.400000e+00,
978,1.480000e+00,
979,1.280000e+00,
980,1.360000e+00,
981,1.160000e+00,
982,1.240000e+00,
983,1.040000e+00,
984,1.080000e+00,
985,8.800000e-01,
986,9.200000e-01,
987,7.200000e-01,
988,8.000000e-01,
989,5.600000e-01,
990,6.400000e-01,
991,4.000000e-01,
992,4.800000e-01,
993,2.400000e-01,
994,3.200000e-01,
995,8.000000e-02,
996,1.600000e-01,
997,-8.000000e-02,
998,0.000000e+00,
999,-2.400000e-01,
1000,-1.600000e-01,
1001,-4.000000e-01,
1002,-3.200000e-01,
1003,-5.600000e-01,
1004,-4.800000e-01,
1005,-7.200000e-01,
1006,-6.400000e-01,
1007,-8.400000e-01,
1008,-7.600000e-01,
1009,-1.000000e+00,
1010,-9.200000e-01,
1011,-1.160000e+00,
1012,-1.080000e+00,
1013,-1.280000e+00,
1014,-1.200000e+00,
1015,-1.400000e+00,
1016,-1.320000e+00,
1017,-1.520000e+00,
1018,-1.480000e+00,
1019,-1.680000e+00,
1020,-1.600000e+00,
1021,-1.760000e+00,
1022,-1.680000e+00,
1023,-1.880000e+00,
1024,-1.800000e+00,
1025,-2.000000e+00,
1026,-1.920000e+00,
1027,-2.080000e+00,
1028,-2.000000e+00,
1029,-2.160000e+00,
1030,-2.080000e+00,
1031,-2.240000e+00,
1032,-2.160000e+00,
1033,-2.320000e+00,
1034,-2.200000e+00,
1035,-2.360000e+00,
1036,-2.280000e+00,
1037,-2.440000e+00,
1038,-2.360000e+00,
1039,-2.480000e+00,
1040,-2.400000e+00,
1041,-2.480000e+00,
1042,-2.440000e+00,
1043,-2.520000e+00,
1044,-2.520000e+00,
1045,-2.440000e+00,
1046,-2.440000e+00,
1047,-2.560000e+00,
1048,-2.520000e+00,
1049,-2.440000e+00,
1050,-2.440000e+00,
1051,-2.520000e+00,
1052,-2.400000e+00,
1053,-2.520000e+00,
1054,-2.480000e+00,
1055,-2.360000e+00,
1056,-2.440000e+00,
1057,-2.320000e+00,
1058,-2.400000e+00,
1059,-2.240000e+00,
1060,-2.320000e+00,
1061,-2.200000e+00,
1062,-2.280000e+00,
1063,-2.080000e+00,
1064,-2.200000e+00,
1065,-2.000000e+00,
1066,-2.120000e+00,
1067,-1.920000e+00,
1068,-2.000000e+00,
1069,-1.840000e+00,
1070,-1.920000e+00,
1071,-1.720000e+00,
1072,-1.800000e+00,
1073,-1.600000e+00,
1074,-1.680000e+00,
1075,-1.480000e+00,
1076,-1.560000e+00,
