metingen/metingen suiker/0.25ml_6g8g.csv

X,CH1,Start,Increment
Sequence,VOLT,0.00E+0,2.00E-2
0,1.00E+0
1,1.80E+0
2,1.20E+0
3,1.68E+0
4,1.04E+0
5,1.60E+0
6,1.68E+0
7,1.12E+0
8,1.72E+0
9,1.20E+0
10,2.08E+0
11,9.60E-1
12,9.60E-1
13,1.96E+0
14,1.96E+0
15,1.24E+0
16,1.20E+0
17,1.80E+0
18,1.80E+0
19,1.40E+0
20,1.84E+0
21,1.40E+0
22,1.36E+0
23,1.88E+0
24,1.40E+0
25,1.92E+0
26,1.48E+0
27,1.80E+0
28,1.84E+0
29,1.40E+0
30,1.84E+0
31,1.40E+0
32,1.92E+0
33,1.24E+0
34,1.96E+0
35,1.12E+0
36,1.92E+0
37,1.40E+0
38,1.80E+0
39,1.28E+0
40,1.72E+0
41,1.32E+0
42,1.72E+0
43,1.24E+0
44,1.76E+0
45,1.20E+0
46,1.76E+0
47,1.04E+0
48,1.60E+0
49,1.08E+0
50,1.68E+0
51,9.60E-1
52,1.60E+0
53,1.08E+0
54,1.00E+0
55,1.68E+0
56,1.00E+0
57,1.48E+0
58,8.40E-1
59,1.64E+0
60,9.20E-1
61,1.56E+0
62,1.48E+0
63,8.80E-1
64,9.60E-1
65,1.48E+0
66,1.00E+0
67,1.32E+0
68,1.04E+0
69,1.40E+0
70,1.40E+0
71,1.12E+0
72,1.00E+0
73,1.56E+0
74,1.12E+0
75,1.68E+0
76,1.72E+0
77,1.08E+0
78,1.12E+0
79,1.64E+0
80,1.68E+0
81,1.24E+0
82,1.24E+0
83,1.64E+0
84,1.76E+0
85,1.16E+0
86,1.72E+0
87,1.28E+0
88,1.68E+0
89,1.20E+0
90,1.84E+0
91,1.32E+0
92,1.28E+0
93,1.80E+0
94,1.76E+0
95,1.24E+0
96,1.40E+0
97,1.72E+0
98,1.68E+0
99,1.28E+0
100,1.28E+0
101,1.84E+0
102,1.32E+0
103,1.80E+0
104,1.24E+0
105,1.84E+0
106,1.76E+0
107,1.24E+0
108,1.88E+0
109,1.20E+0
110,1.88E+0
111,1.36E+0
112,1.32E+0
113,1.84E+0
114,1.84E+0
115,1.44E+0
116,1.36E+0
117,1.84E+0
118,1.32E+0
119,1.92E+0
120,1.32E+0
121,1.92E+0
122,1.88E+0
123,1.28E+0
124,1.84E+0
125,1.48E+0
126,1.36E+0
127,1.84E+0
128,1.84E+0
129,1.32E+0
130,1.36E+0
131,1.88E+0
132,1.28E+0
133,1.80E+0
134,1.72E+0
135,1.16E+0
136,8.00E-1
137,1.88E+0
138,1.00E+0
139,1.76E+0
140,1.68E+0
141,8.40E-1
142,8.00E-1
143,1.36E+0
144,8.40E-1
145,1.44E+0
146,9.60E-1
147,1.52E+0
148,1.00E+0
149,1.60E+0
150,1.44E+0
151,9.60E-1
152,9.60E-1
153,1.40E+0
154,1.04E+0
155,1.52E+0
156,1.16E+0
157,1.72E+0
158,1.80E+0
159,1.44E+0
160,1.44E+0
161,2.08E+0
162,1.96E+0
163,1.52E+0
164,1.96E+0
165,1.40E+0
166,1.80E+0
167,1.36E+0
168,1.44E+0
169,2.00E+0
170,2.00E+0
171,1.52E+0
172,1.96E+0
173,1.56E+0
174,1.84E+0
175,2.16E+0
176,1.76E+0
177,2.16E+0
178,2.16E+0
179,1.68E+0
180,2.08E+0
181,1.56E+0
182,1.48E+0
183,2.00E+0
184,1.44E+0
185,1.92E+0
186,2.00E+0
187,1.44E+0
188,1.36E+0
189,1.88E+0
190,1.40E+0
191,2.04E+0
192,2.04E+0
193,1.28E+0
194,1.40E+0
195,2.04E+0
196,1.40E+0
197,2.16E+0
198,1.68E+0
199,2.16E+0
200,1.84E+0
201,2.24E+0
202,2.24E+0
203,2.08E+0
204,2.24E+0
205,1.84E+0
206,2.20E+0
207,1.52E+0
208,1.96E+0
209,1.08E+0
210,1.28E+0
211,7.60E-1
212,7.20E-1
213,1.20E+0
214,9.60E-1
215,1.84E+0
216,1.72E+0
217,2.24E+0
218,2.24E+0
219,1.64E+0
220,1.76E+0
221,9.20E-1
222,1.08E+0
223,7.20E-1
224,7.60E-1
225,1.48E+0
226,1.12E+0
227,2.20E+0
228,2.24E+0
229,1.60E+0
230,1.80E+0
231,7.20E-1
232,7.20E-1
233,1.48E+0
234,1.20E+0
235,2.24E+0
236,2.04E+0
237,8.40E-1
238,7.20E-1
239,1.44E+0
240,1.32E+0
241,2.24E+0
242,2.20E+0
243,1.04E+0
244,1.12E+0
245,7.20E-1
246,8.40E-1
247,2.24E+0
248,2.24E+0
249,1.68E+0
250,1.76E+0
251,7.20E-1
252,7.20E-1
253,1.32E+0
254,1.28E+0
255,2.24E+0
256,2.24E+0
257,1.68E+0
258,1.92E+0
259,1.08E+0
260,1.56E+0
261,1.00E+0
262,8.00E-1
263,1.28E+0
264,1.00E+0
265,7.60E-1
266,8.80E-1
267,7.20E-1
268,7.20E-1
269,1.20E+0
270,1.00E+0
271,1.56E+0
272,1.00E+0
273,1.48E+0
274,1.44E+0
275,1.12E+0
276,1.04E+0
277,1.72E+0
278,1.28E+0
279,2.00E+0
280,1.64E+0
281,2.24E+0
282,2.24E+0
283,2.08E+0
284,2.24E+0
285,1.88E+0
286,1.84E+0
287,2.20E+0
288,2.12E+0
289,1.68E+0
290,2.00E+0
291,1.32E+0
292,1.80E+0
293,1.04E+0
294,1.40E+0
295,8.80E-1
296,1.04E+0
297,7.20E-1
298,7.20E-1
299,9.60E-1
300,8.80E-1
301,7.20E-1
302,7.20E-1
303,8.40E-1
304,7.20E-1
305,9.60E-1
306,7.20E-1
307,1.12E+0
308,1.28E+0
309,7.60E-1
310,1.24E+0
311,7.20E-1
312,7.20E-1
313,1.20E+0
314,7.60E-1
315,1.08E+0
316,8.00E-1
317,1.20E+0
318,8.40E-1
319,1.20E+0
320,1.16E+0
321,8.00E-1
322,8.00E-1
323,1.24E+0
324,9.20E-1
325,1.44E+0
326,1.36E+0
327,1.84E+0
328,1.48E+0
329,2.00E+0
330,1.76E+0
331,2.16E+0
332,2.16E+0
333,1.76E+0
334,2.20E+0
335,1.84E+0
336,1.68E+0
337,2.24E+0
338,2.08E+0
339,2.24E+0
340,2.20E+0
341,1.52E+0
342,1.76E+0
343,1.00E+0
344,1.32E+0
345,7.60E-1
346,7.20E-1
347,9.20E-1
348,7.20E-1
349,1.16E+0
350,1.00E+0
351,1.76E+0
352,1.72E+0
353,2.24E+0
354,2.24E+0
355,1.76E+0
356,2.00E+0
357,7.20E-1
358,7.20E-1
359,1.44E+0
360,1.32E+0
361,2.24E+0
362,2.08E+0
363,9.20E-1
364,7.20E-1
365,1.48E+0
366,1.12E+0
367,2.24E+0
368,2.24E+0
369,1.12E+0
370,1.52E+0
371,6.80E-1
372,7.60E-1
373,2.20E+0
374,2.24E+0
375,1.24E+0
376,1.28E+0
377,7.20E-1
378,7.60E-1
379,1.92E+0
380,1.88E+0
381,2.24E+0
382,2.16E+0
383,1.04E+0
384,7.20E-1
385,1.16E+0
386,9.20E-1
387,2.20E+0
388,2.20E+0
389,1.28E+0
390,1.36E+0
391,7.20E-1
392,1.04E+0
393,2.08E+0
394,2.24E+0
395,1.76E+0
396,1.80E+0
397,7.20E-1
398,7.20E-1
399,1.84E+0
400,1.68E+0
401,2.20E+0
402,2.20E+0
403,1.60E+0
404,1.80E+0
405,1.08E+0
406,1.16E+0
407,7.60E-1
408,7.20E-1
409,9.20E-1
410,6.80E-1
411,8.80E-1
412,7.20E-1
413,9.20E-1
414,7.20E-1
415,8.80E-1
416,7.20E-1
417,1.00E+0
418,9.60E-1
419,7.20E-1
420,7.20E-1
421,8.80E-1
422,7.20E-1
423,1.24E+0
424,9.60E-1
425,2.00E+0
426,1.68E+0
427,2.24E+0
428,2.24E+0
429,1.76E+0
430,2.08E+0
431,1.08E+0
432,1.24E+0
433,7.20E-1
434,7.60E-1
435,1.36E+0
436,1.24E+0
437,2.00E+0
438,1.84E+0
439,2.20E+0
440,2.20E+0
441,1.36E+0
442,1.72E+0
443,8.80E-1
444,1.24E+0
445,6.80E-1
446,6.80E-1
447,8.80E-1
448,7.20E-1
449,1.08E+0
450,8.00E-1
451,1.16E+0
452,1.04E+0
453,1.56E+0
454,1.28E+0
455,1.84E+0
456,1.52E+0
457,2.12E+0
458,2.00E+0
459,2.20E+0
460,2.20E+0
461,2.04E+0
462,2.20E+0
463,1.92E+0
464,1.88E+0
465,2.20E+0
466,2.16E+0
467,1.92E+0
468,1.84E+0
469,2.20E+0
470,2.20E+0
471,1.76E+0
472,1.76E+0
473,2.16E+0
474,2.12E+0
475,1.44E+0
476,1.92E+0
477,1.40E+0
478,1.80E+0
479,1.36E+0
480,1.08E+0
481,1.88E+0
482,1.24E+0
483,1.64E+0
484,1.56E+0
485,1.16E+0
486,1.56E+0
487,1.04E+0
488,1.04E+0
489,1.52E+0
490,1.44E+0
491,1.00E+0
492,1.56E+0
493,9.60E-1
494,9.20E-1
495,1.56E+0
496,1.56E+0
497,9.60E-1
498,1.36E+0
499,1.00E+0
500,1.32E+0
501,8.80E-1
502,1.08E+0
503,7.60E-1
504,1.08E+0
505,7.20E-1
506,1.00E+0
507,6.80E-1
508,8.40E-1
509,6.80E-1
510,6.80E-1
511,9.60E-1
512,7.60E-1
513,1.40E+0
514,1.04E+0
515,1.56E+0
516,1.16E+0
517,1.60E+0
518,1.32E+0
519,1.84E+0
520,1.56E+0
521,2.00E+0
522,2.08E+0
523,1.68E+0
524,1.92E+0
525,2.20E+0
526,2.00E+0
527,2.24E+0
528,2.20E+0
529,1.52E+0
530,1.92E+0
531,1.20E+0
532,1.36E+0
533,7.20E-1
534,1.04E+0
535,7.20E-1
536,7.20E-1
537,9.60E-1
538,7.60E-1
539,1.20E+0
540,1.56E+0
541,1.08E+0
542,9.60E-1
543,1.52E+0
544,1.08E+0
545,1.72E+0
546,1.40E+0
547,2.04E+0
548,2.00E+0
549,1.56E+0
550,1.56E+0
551,2.20E+0
552,1.92E+0
553,2.24E+0
554,2.24E+0
555,2.08E+0
556,2.20E+0
557,1.96E+0
558,2.20E+0
559,1.68E+0
560,2.12E+0
561,1.52E+0
562,1.96E+0
563,1.08E+0
564,1.40E+0
565,8.80E-1
566,1.08E+0
567,7.20E-1
568,7.20E-1
569,1.16E+0
570,9.20E-1
571,2.08E+0
572,1.44E+0
573,2.24E+0
574,2.24E+0
575,1.92E+0
576,2.20E+0
577,1.68E+0
578,1.80E+0
579,1.00E+0
580,1.20E+0
581,7.20E-1
582,7.20E-1
583,1.12E+0
584,9.60E-1
585,1.88E+0
586,1.60E+0
587,2.12E+0
588,1.92E+0
589,2.24E+0
590,2.20E+0
591,1.84E+0
592,2.04E+0
593,1.44E+0
594,1.80E+0
595,1.04E+0
596,1.24E+0
597,6.80E-1
598,9.20E-1
599,6.80E-1
600,7.20E-1
601,1.76E+0
602,1.68E+0
603,2.24E+0
604,2.08E+0
605,7.20E-1
606,7.20E-1
607,1.88E+0
608,2.20E+0
609,1.76E+0
610,1.96E+0
611,8.00E-1
612,6.80E-1
613,1.72E+0
614,1.36E+0
615,2.20E+0
616,2.16E+0
617,1.08E+0
618,1.32E+0
619,6.80E-1
620,9.20E-1
621,2.20E+0
622,2.20E+0
623,8.40E-1
624,7.20E-1
625,1.12E+0
626,8.40E-1
627,2.04E+0
628,2.20E+0
629,1.56E+0
630,1.64E+0
631,6.80E-1
632,7.20E-1
633,1.60E+0
634,1.24E+0
635,2.16E+0
636,2.16E+0
637,1.76E+0
638,1.96E+0
639,7.60E-1
640,7.20E-1
641,1.08E+0
642,8.80E-1
643,2.04E+0
644,1.84E+0
645,2.16E+0
646,2.04E+0
647,1.04E+0
648,1.28E+0
649,7.20E-1
650,7.20E-1
651,1.32E+0
652,1.12E+0
653,2.08E+0
654,2.16E+0
655,1.68E+0
656,2.00E+0
657,9.60E-1
658,1.12E+0
659,7.20E-1
660,7.20E-1
661,1.32E+0
662,1.28E+0
663,1.96E+0
664,2.16E+0
665,1.60E+0
666,1.96E+0
667,1.00E+0
668,1.12E+0
669,6.80E-1
670,8.80E-1
671,1.68E+0
672,1.36E+0
673,2.12E+0
674,2.08E+0
675,1.08E+0
676,1.16E+0
677,7.20E-1
678,1.08E+0
679,2.12E+0
680,2.12E+0
681,1.28E+0
682,1.48E+0
683,7.20E-1
684,6.80E-1
685,1.24E+0
686,1.00E+0
687,1.80E+0
688,1.72E+0
689,2.12E+0
690,2.12E+0
691,1.72E+0
692,1.76E+0
693,8.40E-1
694,1.00E+0
695,7.20E-1
696,8.40E-1
697,1.84E+0
698,1.40E+0
699,2.08E+0
700,2.12E+0
701,1.40E+0
702,1.72E+0
703,7.20E-1
704,7.60E-1
705,1.88E+0
706,2.12E+0
707,1.36E+0
708,1.48E+0
709,7.20E-1
710,7.20E-1
711,1.88E+0
712,2.12E+0
713,1.72E+0
714,1.76E+0
715,7.20E-1
716,7.20E-1
717,1.24E+0
718,1.12E+0
719,2.04E+0
720,1.88E+0
721,2.12E+0
722,2.08E+0
723,1.24E+0
724,1.32E+0
725,7.20E-1
726,7.20E-1
727,9.20E-1
728,8.40E-1
729,1.56E+0
730,1.44E+0
731,2.08E+0
732,1.96E+0
733,2.08E+0
734,2.08E+0
735,1.84E+0
736,2.04E+0
737,1.60E+0
738,1.76E+0
739,1.28E+0
740,1.44E+0
741,1.08E+0
742,1.36E+0
743,8.00E-1
744,8.80E-1
745,7.20E-1
746,7.60E-1
747,1.36E+0
748,8.40E-1
749,1.76E+0
750,1.64E+0
751,2.08E+0
752,2.12E+0
753,1.84E+0
754,2.04E+0
755,1.28E+0
756,1.60E+0
757,7.20E-1
758,7.20E-1
759,9.60E-1
760,7.20E-1
761,1.36E+0
762,1.16E+0
763,1.96E+0
764,1.84E+0
765,2.08E+0
766,2.08E+0
767,1.40E+0
768,1.60E+0
769,9.60E-1
770,1.44E+0
771,1.00E+0
772,1.28E+0
773,8.00E-1
774,1.08E+0
775,7.20E-1
776,7.20E-1
777,9.20E-1
778,7.60E-1
779,1.28E+0
780,1.08E+0
781,1.72E+0
782,1.40E+0
783,2.04E+0
784,2.12E+0
785,1.84E+0
786,2.04E+0
787,1.44E+0
788,1.60E+0
789,8.80E-1
790,1.24E+0
791,6.80E-1
792,7.20E-1
793,1.20E+0
794,8.80E-1
795,2.00E+0
796,1.72E+0
797,2.12E+0
798,2.08E+0
799,1.08E+0
800,1.24E+0
801,7.20E-1
802,7.20E-1
803,1.44E+0
804,1.00E+0
805,2.00E+0
806,2.08E+0
807,1.64E+0
808,1.92E+0
809,7.20E-1
810,7.20E-1
811,1.84E+0
812,2.08E+0
813,1.52E+0
814,1.68E+0
815,6.80E-1
816,6.80E-1
817,2.00E+0
818,2.08E+0
819,1.52E+0
820,1.76E+0
821,7.20E-1
822,6.80E-1
823,1.68E+0
824,1.60E+0
825,2.08E+0
826,1.84E+0
827,6.80E-1
828,6.80E-1
829,2.00E+0
830,1.72E+0
831,2.08E+0
832,2.08E+0
833,1.76E+0
834,1.72E+0
835,2.04E+0
836,2.00E+0
837,1.56E+0
838,1.80E+0
839,1.20E+0
840,1.32E+0
841,6.80E-1
842,9.20E-1
843,6.80E-1
844,7.20E-1
845,1.80E+0
846,1.52E+0
847,2.08E+0
848,2.04E+0
849,1.28E+0
850,1.56E+0
851,6.80E-1
852,7.20E-1
853,1.44E+0
854,1.24E+0
855,2.04E+0
856,2.00E+0
857,1.00E+0
858,1.28E+0
859,6.80E-1
860,6.80E-1
861,1.40E+0
862,1.28E+0
863,2.04E+0
864,2.00E+0
865,1.00E+0
866,1.32E+0
867,6.80E-1
868,8.80E-1
869,1.68E+0
870,1.36E+0
871,2.04E+0
872,2.04E+0
873,1.68E+0
874,1.84E+0
875,8.80E-1
876,1.08E+0
877,6.80E-1
878,7.20E-1
879,1.72E+0
880,1.40E+0
881,2.04E+0
882,2.04E+0
883,1.12E+0
884,1.24E+0
885,6.80E-1
886,6.80E-1
887,1.64E+0
888,1.44E+0
889,2.04E+0
890,1.88E+0
891,6.80E-1
892,6.80E-1
893,1.56E+0
894,1.52E+0
895,2.04E+0
896,1.96E+0
897,8.40E-1
898,6.80E-1
899,1.12E+0
900,1.04E+0
901,2.04E+0
902,2.04E+0
903,1.52E+0
904,1.80E+0
905,7.60E-1
906,6.80E-1
907,1.04E+0
908,9.20E-1
909,1.96E+0
910,2.04E+0
911,1.64E+0
912,1.68E+0
913,6.80E-1
914,6.80E-1
915,1.80E+0
916,2.04E+0
917,1.44E+0
918,1.48E+0
919,8.00E-1
920,9.20E-1
921,6.80E-1
922,6.80E-1
923,8.40E-1
924,6.80E-1
925,8.40E-1
926,7.20E-1
927,1.04E+0
928,7.20E-1
929,9.20E-1
930,1.04E+0
931,7.20E-1
932,7.60E-1
933,1.16E+0
934,7.20E-1
935,1.28E+0
936,7.60E-1
937,1.36E+0
938,1.04E+0
939,1.44E+0
940,9.20E-1
941,1.44E+0
942,1.44E+0
943,1.00E+0
944,1.00E+0
945,1.44E+0
946,1.04E+0
947,1.52E+0
948,1.16E+0
949,1.60E+0
950,1.32E+0
951,1.72E+0
952,1.28E+0
953,1.76E+0
954,1.56E+0
955,1.92E+0
956,1.60E+0
957,1.92E+0
958,1.60E+0
959,2.04E+0
960,1.52E+0
961,2.08E+0
962,1.72E+0
963,2.04E+0
964,1.76E+0
965,2.04E+0
966,1.72E+0
967,2.04E+0
968,2.04E+0
969,1.68E+0
970,1.76E+0
971,2.04E+0
972,2.04E+0
973,1.76E+0
974,1.80E+0
975,2.04E+0
976,2.08E+0
977,1.88E+0
978,2.04E+0
979,1.92E+0
980,2.04E+0
981,1.84E+0
982,2.04E+0
983,1.88E+0
984,2.04E+0
985,1.84E+0
986,2.04E+0
987,1.84E+0
988,2.04E+0
989,1.80E+0
990,2.04E+0
991,1.76E+0
992,2.04E+0
993,1.68E+0
994,2.00E+0
995,1.68E+0
996,1.96E+0
997,1.56E+0
998,1.96E+0
999,1.60E+0
1000,1.48E+0
1001,1.92E+0
1002,1.96E+0
1003,1.52E+0
1004,1.96E+0
1005,1.44E+0
1006,1.92E+0
1007,1.48E+0
1008,2.00E+0
1009,1.28E+0
1010,1.40E+0
1011,1.96E+0
1012,1.24E+0
1013,1.96E+0
1014,1.40E+0
1015,1.92E+0
1016,1.44E+0
1017,1.88E+0
1018,1.88E+0
1019,1.36E+0
1020,1.32E+0
1021,1.92E+0
1022,1.48E+0
1023,1.88E+0
1024,1.40E+0
1025,1.88E+0
1026,1.92E+0
1027,1.36E+0
1028,1.88E+0
1029,1.44E+0
1030,1.32E+0
1031,2.00E+0
1032,1.36E+0
1033,2.08E+0
1034,2.08E+0
1035,1.04E+0
1036,2.08E+0
1037,1.36E+0
1038,1.24E+0
1039,2.08E+0
1040,2.08E+0
1041,1.40E+0
1042,1.52E+0
1043,2.04E+0
1044,1.60E+0
1045,2.00E+0
1046,1.72E+0
1047,2.00E+0
1048,2.00E+0
1049,1.76E+0
1050,1.68E+0
1051,2.00E+0
1052,2.04E+0
1053,1.72E+0
1054,1.64E+0
1055,2.04E+0
1056,1.60E+0
1057,2.04E+0
1058,2.04E+0
1059,1.68E+0
1060,2.00E+0
1061,1.76E+0
1062,1.68E+0
1063,1.96E+0
1064,2.00E+0
1065,1.64E+0
1066,1.60E+0
1067,2.00E+0
1068,2.00E+0
1069,1.68E+0
1070,1.68E+0
1071,2.04E+0
1072,1.72E+0
1073,2.04E+0
1074,1.72E+0
1075,2.04E+0
1076,2.04E+0
1077,1.72E+0
1078,1.84E+0
1079,2.04E+0
1080,1.84E+0
1081,2.04E+0
1082,2.04E+0
1083,1.80E+0
1084,2.04E+0
1085,1.36E+0
