metingen/metingen suiker/0.5ml_0g2g.csv

X,CH1,Start,Increment
Sequence,VOLT,-2.00E+0,1.00E-2
0,1.64E+0
1,1.04E+0
2,1.60E+0
3,8.80E-1
4,8.40E-1
5,1.68E+0
6,1.56E+0
7,9.60E-1
8,1.56E+0
9,9.60E-1
10,1.48E+0
11,9.20E-1
12,8.80E-1
13,1.60E+0
14,9.20E-1
15,1.56E+0
16,1.20E+0
17,1.56E+0
18,1.80E+0
19,1.04E+0
20,1.44E+0
21,1.76E+0
22,1.32E+0
23,1.84E+0
24,1.44E+0
25,1.84E+0
26,1.84E+0
27,1.68E+0
28,1.72E+0
29,1.84E+0
30,1.84E+0
31,1.68E+0
32,1.84E+0
33,1.60E+0
34,1.64E+0
35,1.84E+0
36,1.80E+0
37,1.68E+0
38,1.80E+0
39,1.64E+0
40,1.80E+0
41,1.72E+0
42,1.84E+0
43,1.64E+0
44,1.64E+0
45,1.84E+0
46,1.84E+0
47,1.64E+0
48,1.88E+0
49,1.64E+0
50,1.60E+0
51,1.88E+0
52,1.44E+0
53,1.84E+0
54,1.72E+0
55,1.36E+0
56,1.80E+0
57,1.20E+0
58,1.44E+0
59,1.72E+0
60,1.28E+0
61,1.80E+0
62,1.72E+0
63,1.28E+0
64,1.68E+0
65,1.24E+0
66,1.32E+0
67,1.72E+0
68,1.40E+0
69,1.76E+0
70,1.76E+0
71,1.40E+0
72,1.52E+0
73,1.80E+0
74,1.60E+0
75,1.76E+0
76,1.84E+0
77,1.52E+0
78,1.60E+0
79,1.84E+0
80,1.84E+0
81,1.60E+0
82,1.84E+0
83,1.68E+0
84,1.72E+0
85,1.84E+0
86,1.68E+0
87,1.84E+0
88,1.76E+0
89,1.84E+0
90,1.84E+0
91,1.72E+0
92,1.84E+0
93,1.68E+0
94,1.72E+0
95,1.84E+0
96,1.84E+0
97,1.68E+0
98,1.84E+0
99,1.60E+0
100,1.84E+0
101,1.60E+0
102,1.84E+0
103,1.56E+0
104,1.84E+0
105,1.60E+0
106,1.64E+0
107,1.80E+0
108,1.80E+0
109,1.52E+0
110,1.80E+0
111,1.64E+0
112,1.80E+0
113,1.60E+0
114,1.60E+0
115,1.80E+0
116,1.60E+0
117,1.76E+0
118,1.80E+0
119,1.56E+0
120,1.80E+0
121,1.56E+0
122,1.48E+0
123,1.80E+0
124,1.36E+0
125,1.76E+0
126,1.72E+0
127,1.36E+0
128,1.76E+0
129,1.36E+0
130,1.68E+0
131,1.40E+0
132,1.32E+0
133,1.60E+0
134,1.16E+0
135,1.44E+0
136,1.44E+0
137,1.00E+0
138,1.08E+0
139,1.64E+0
140,1.28E+0
141,1.72E+0
142,1.12E+0
143,1.72E+0
144,1.60E+0
145,1.28E+0
146,1.28E+0
147,1.72E+0
148,1.36E+0
149,1.68E+0
150,1.32E+0
151,1.80E+0
152,1.72E+0
153,1.32E+0
154,1.72E+0
155,1.36E+0
156,1.28E+0
157,1.76E+0
158,1.36E+0
159,1.72E+0
160,1.72E+0
161,1.44E+0
162,1.76E+0
163,1.48E+0
164,1.52E+0
165,1.80E+0
166,1.44E+0
167,1.76E+0
168,1.76E+0
169,1.48E+0
170,1.80E+0
171,1.44E+0
172,1.76E+0
173,1.56E+0
174,1.60E+0
175,1.80E+0
176,1.56E+0
177,1.80E+0
178,1.48E+0
179,1.80E+0
180,1.48E+0
181,1.84E+0
182,1.56E+0
183,1.76E+0
184,1.52E+0
185,1.80E+0
186,1.52E+0
187,1.80E+0
188,1.76E+0
189,1.44E+0
190,1.44E+0
191,1.80E+0
192,1.48E+0
193,1.72E+0
194,1.76E+0
195,1.32E+0
196,1.76E+0
197,1.44E+0
198,1.16E+0
199,1.80E+0
200,1.56E+0
201,1.28E+0
202,1.72E+0
203,1.24E+0
204,1.68E+0
205,1.28E+0
206,1.20E+0
207,1.72E+0
208,9.20E-1
209,1.72E+0
210,1.68E+0
211,1.08E+0
212,1.64E+0
213,1.12E+0
214,1.08E+0
215,1.48E+0
216,1.60E+0
217,9.60E-1
218,1.24E+0
219,1.64E+0
220,1.24E+0
221,1.64E+0
222,1.64E+0
223,1.12E+0
224,1.16E+0
225,1.68E+0
226,1.20E+0
227,1.72E+0
228,1.72E+0
229,1.28E+0
230,1.72E+0
231,1.48E+0
232,1.44E+0
233,1.76E+0
234,1.44E+0
235,1.72E+0
236,1.76E+0
237,1.48E+0
238,1.76E+0
239,1.48E+0
240,1.76E+0
241,1.52E+0
242,1.44E+0
243,1.76E+0
244,1.40E+0
245,1.68E+0
246,1.72E+0
247,1.36E+0
248,1.36E+0
249,1.68E+0
250,1.28E+0
251,1.80E+0
252,1.76E+0
253,1.24E+0
254,1.60E+0
255,1.12E+0
256,1.64E+0
257,1.04E+0
258,1.08E+0
259,1.48E+0
260,1.36E+0
261,8.80E-1
262,1.32E+0
263,7.60E-1
264,1.24E+0
265,7.60E-1
266,6.40E-1
267,1.04E+0
268,1.12E+0
269,7.60E-1
270,1.12E+0
271,6.40E-1
272,1.12E+0
273,8.00E-1
274,6.40E-1
275,1.20E+0
276,6.00E-1
277,1.00E+0
278,5.20E-1
279,1.16E+0
280,1.20E+0
281,4.80E-1
282,1.04E+0
283,5.60E-1
284,5.20E-1
285,1.24E+0
286,5.20E-1
287,1.20E+0
288,4.40E-1
289,1.20E+0
290,1.16E+0
291,5.20E-1
292,6.40E-1
293,9.60E-1
294,5.60E-1
295,9.60E-1
296,8.40E-1
297,5.60E-1
298,1.00E+0
299,5.20E-1
300,5.20E-1
301,9.60E-1
302,9.20E-1
303,6.00E-1
304,1.08E+0
305,5.60E-1
306,9.60E-1
307,6.80E-1
308,6.00E-1
309,1.16E+0
310,6.40E-1
311,9.60E-1
312,8.00E-1
313,1.08E+0
314,1.08E+0
315,7.20E-1
316,8.00E-1
317,1.20E+0
318,1.04E+0
319,6.40E-1
320,1.00E+0
321,7.20E-1
322,9.60E-1
323,5.60E-1
324,6.00E-1
325,9.60E-1
326,4.80E-1
327,1.00E+0
328,4.80E-1
329,9.60E-1
330,6.40E-1
331,1.00E+0
332,6.00E-1
333,1.04E+0
334,7.20E-1
335,1.12E+0
336,7.60E-1
337,1.32E+0
338,1.32E+0
339,8.00E-1
340,1.32E+0
341,8.80E-1
342,8.00E-1
343,1.28E+0
344,1.48E+0
345,9.20E-1
346,1.44E+0
347,1.00E+0
348,1.20E+0
349,1.56E+0
350,1.32E+0
351,1.76E+0
352,1.36E+0
353,1.72E+0
354,1.72E+0
355,1.40E+0
356,1.40E+0
357,1.76E+0
358,1.48E+0
359,1.76E+0
360,1.44E+0
361,1.76E+0
362,1.52E+0
363,1.76E+0
364,1.76E+0
365,1.52E+0
366,1.76E+0
367,1.48E+0
368,1.52E+0
369,1.72E+0
370,1.76E+0
371,1.40E+0
372,1.72E+0
373,1.44E+0
374,1.64E+0
375,1.32E+0
376,1.24E+0
377,1.64E+0
378,1.68E+0
379,1.28E+0
380,1.72E+0
381,1.32E+0
382,1.68E+0
383,1.36E+0
384,1.44E+0
385,1.68E+0
386,1.44E+0
387,1.68E+0
388,1.72E+0
389,1.32E+0
390,1.76E+0
391,1.44E+0
392,1.56E+0
393,1.76E+0
394,1.52E+0
395,1.76E+0
396,1.72E+0
397,1.52E+0
398,1.76E+0
399,1.48E+0
400,1.72E+0
401,1.44E+0
402,1.44E+0
403,1.72E+0
404,1.40E+0
405,1.72E+0
406,1.36E+0
407,1.72E+0
408,1.32E+0
409,1.72E+0
410,1.32E+0
411,1.68E+0
412,1.68E+0
413,1.32E+0
414,1.68E+0
415,1.32E+0
416,1.24E+0
417,1.72E+0
418,1.04E+0
419,1.68E+0
420,1.52E+0
421,1.12E+0
422,1.68E+0
423,1.16E+0
424,1.60E+0
425,1.32E+0
426,1.20E+0
427,1.72E+0
428,1.20E+0
429,1.60E+0
430,1.60E+0
431,1.20E+0
432,1.72E+0
433,1.00E+0
434,1.08E+0
435,1.56E+0
436,9.20E-1
437,1.64E+0
438,1.60E+0
439,9.20E-1
440,1.40E+0
441,8.80E-1
442,8.40E-1
443,1.40E+0
444,8.40E-1
445,1.32E+0
446,1.36E+0
447,7.20E-1
448,1.32E+0
449,8.40E-1
450,1.40E+0
451,8.80E-1
452,8.80E-1
453,1.40E+0
454,1.48E+0
455,7.60E-1
456,1.52E+0
457,8.40E-1
458,1.44E+0
459,9.20E-1
460,8.40E-1
461,1.52E+0
462,9.60E-1
463,1.40E+0
464,1.44E+0
465,9.60E-1
466,1.52E+0
467,1.00E+0
468,1.04E+0
469,1.52E+0
470,1.04E+0
471,1.48E+0
472,1.40E+0
473,1.04E+0
474,1.52E+0
475,1.00E+0
476,9.60E-1
477,1.48E+0
478,1.52E+0
479,9.20E-1
480,1.00E+0
481,1.52E+0
482,9.60E-1
483,1.36E+0
484,9.60E-1
485,1.44E+0
486,9.20E-1
487,1.36E+0
488,1.36E+0
489,9.20E-1
490,1.48E+0
491,8.80E-1
492,1.40E+0
493,1.08E+0
494,1.08E+0
495,1.44E+0
496,1.20E+0
497,1.40E+0
498,1.52E+0
499,1.00E+0
500,1.52E+0
501,1.12E+0
502,1.00E+0
503,1.40E+0
504,9.20E-1
505,1.40E+0
506,1.40E+0
507,9.20E-1
508,9.60E-1
509,1.52E+0
510,1.16E+0
511,1.44E+0
512,1.16E+0
513,1.60E+0
514,1.56E+0
515,1.24E+0
516,1.56E+0
517,1.04E+0
518,1.04E+0
519,1.56E+0
520,1.48E+0
521,1.12E+0
522,1.44E+0
523,1.00E+0
524,1.32E+0
525,1.04E+0
526,1.40E+0
527,8.00E-1
528,7.20E-1
529,1.24E+0
530,1.12E+0
531,6.80E-1
532,1.24E+0
533,7.20E-1
534,8.80E-1
535,1.32E+0
536,6.00E-1
537,1.24E+0
538,6.80E-1
539,1.16E+0
540,1.16E+0
541,5.60E-1
542,1.32E+0
543,7.20E-1
544,7.20E-1
545,1.28E+0
546,1.08E+0
547,6.80E-1
548,1.08E+0
549,7.20E-1
550,1.08E+0
551,5.60E-1
552,5.60E-1
553,1.16E+0
554,5.60E-1
555,1.08E+0
556,1.08E+0
557,5.60E-1
558,8.80E-1
559,6.00E-1
560,5.60E-1
561,9.60E-1
562,5.60E-1
563,8.40E-1
564,9.60E-1
565,5.60E-1
566,1.04E+0
567,6.00E-1
568,9.20E-1
569,6.80E-1
570,6.00E-1
571,1.04E+0
572,5.60E-1
573,9.60E-1
574,8.40E-1
575,6.00E-1
576,1.00E+0
577,5.60E-1
578,6.40E-1
579,9.60E-1
580,8.80E-1
581,5.60E-1
582,8.80E-1
583,5.20E-1
584,5.20E-1
585,8.40E-1
586,5.60E-1
587,8.00E-1
588,4.80E-1
589,8.40E-1
590,7.60E-1
591,4.80E-1
592,4.80E-1
593,6.80E-1
594,4.40E-1
595,6.40E-1
596,5.60E-1
597,4.40E-1
598,5.60E-1
599,4.40E-1
600,4.80E-1
601,6.00E-1
602,4.80E-1
603,6.00E-1
604,6.40E-1
605,4.80E-1
606,4.80E-1
607,6.40E-1
608,4.80E-1
609,7.60E-1
610,4.80E-1
611,6.80E-1
612,4.80E-1
613,6.80E-1
614,7.60E-1
615,4.80E-1
616,6.80E-1
617,4.80E-1
618,6.40E-1
619,4.40E-1
620,6.00E-1
621,4.80E-1
622,4.40E-1
623,6.40E-1
624,4.80E-1
625,5.60E-1
626,4.80E-1
627,6.00E-1
628,4.80E-1
629,6.00E-1
630,4.40E-1
631,6.00E-1
632,4.80E-1
633,6.00E-1
634,4.80E-1
635,6.00E-1
636,4.80E-1
637,6.40E-1
638,6.00E-1
639,4.40E-1
640,4.80E-1
641,5.60E-1
642,4.80E-1
643,6.00E-1
644,5.60E-1
645,4.80E-1
646,4.80E-1
647,5.60E-1
648,4.80E-1
649,5.60E-1
650,4.40E-1
651,6.40E-1
652,6.00E-1
653,4.80E-1
654,4.80E-1
655,7.20E-1
656,4.80E-1
657,7.60E-1
658,5.60E-1
659,8.00E-1
660,5.20E-1
661,8.40E-1
662,8.40E-1
663,5.20E-1
664,4.80E-1
665,8.80E-1
666,4.80E-1
667,7.60E-1
668,5.60E-1
669,9.20E-1
670,5.60E-1
671,1.00E+0
672,1.04E+0
673,6.80E-1
674,7.60E-1
675,1.24E+0
676,7.20E-1
677,1.20E+0
678,8.80E-1
679,1.24E+0
680,9.60E-1
681,1.36E+0
682,1.20E+0
683,1.44E+0
684,1.16E+0
685,1.48E+0
686,1.24E+0
687,1.60E+0
688,1.44E+0
689,1.64E+0
690,1.60E+0
691,1.44E+0
692,1.60E+0
693,1.32E+0
694,1.60E+0
695,1.28E+0
696,1.48E+0
697,1.24E+0
698,1.04E+0
699,1.44E+0
700,1.40E+0
701,9.60E-1
702,1.28E+0
703,9.20E-1
704,1.24E+0
705,8.40E-1
706,1.12E+0
707,8.40E-1
708,1.08E+0
709,6.80E-1
710,1.04E+0
711,6.00E-1
712,1.28E+0
713,5.60E-1
714,4.80E-1
715,1.32E+0
716,5.20E-1
717,9.20E-1
718,1.08E+0
719,5.20E-1
720,8.40E-1
721,4.80E-1
722,6.80E-1
723,4.80E-1
724,4.80E-1
725,7.20E-1
726,7.20E-1
727,4.80E-1
728,6.80E-1
729,4.80E-1
730,4.80E-1
731,7.60E-1
732,4.80E-1
733,8.00E-1
734,4.80E-1
735,8.40E-1
736,8.40E-1
737,5.20E-1
738,9.20E-1
739,5.60E-1
740,6.40E-1
741,9.60E-1
742,9.20E-1
743,6.80E-1
744,1.16E+0
745,6.80E-1
746,1.28E+0
747,7.20E-1
748,1.24E+0
749,7.20E-1
750,6.80E-1
751,1.40E+0
752,6.80E-1
753,1.36E+0
754,8.40E-1
755,1.24E+0
756,1.52E+0
757,7.60E-1
758,1.48E+0
759,1.04E+0
760,1.08E+0
761,1.48E+0
762,1.00E+0
763,1.48E+0
764,1.44E+0
765,1.00E+0
766,1.08E+0
767,1.44E+0
768,1.16E+0
769,1.52E+0
770,1.20E+0
771,1.56E+0
772,1.52E+0
773,1.32E+0
774,1.28E+0
775,1.56E+0
776,1.40E+0
777,1.56E+0
778,1.56E+0
779,1.44E+0
780,1.40E+0
781,1.56E+0
782,1.56E+0
783,1.40E+0
784,1.56E+0
785,1.32E+0
786,1.52E+0
787,1.28E+0
788,1.16E+0
789,1.48E+0
790,1.08E+0
791,1.44E+0
792,1.32E+0
793,9.20E-1
794,1.32E+0
795,7.20E-1
796,1.04E+0
797,7.60E-1
798,5.60E-1
799,9.20E-1
800,9.20E-1
801,5.60E-1
802,6.80E-1
803,4.80E-1
804,4.80E-1
805,6.40E-1
806,5.60E-1
807,4.80E-1
808,4.80E-1
809,6.80E-1
810,4.80E-1
811,7.60E-1
812,6.00E-1
813,8.80E-1
814,7.60E-1
815,1.16E+0
816,8.00E-1
817,1.32E+0
818,9.20E-1
819,1.40E+0
820,9.60E-1
821,1.48E+0
822,1.52E+0
823,1.16E+0
824,1.36E+0
825,1.56E+0
826,1.44E+0
827,1.56E+0
828,1.56E+0
829,1.44E+0
830,1.56E+0
831,1.40E+0
832,1.56E+0
833,1.16E+0
834,1.56E+0
835,1.28E+0
836,1.56E+0
837,1.24E+0
838,1.28E+0
839,1.56E+0
840,1.28E+0
841,1.56E+0
842,1.56E+0
843,1.16E+0
844,1.48E+0
845,1.20E+0
846,1.16E+0
847,1.52E+0
848,1.20E+0
849,1.44E+0
850,1.52E+0
851,1.12E+0
852,1.52E+0
853,1.24E+0
854,1.48E+0
855,1.16E+0
856,1.08E+0
857,1.44E+0
858,1.36E+0
859,1.04E+0
860,1.32E+0
861,8.80E-1
862,1.28E+0
863,8.40E-1
864,8.80E-1
865,1.24E+0
866,8.00E-1
867,1.28E+0
868,1.12E+0
869,8.80E-1
870,1.20E+0
871,8.00E-1
872,9.60E-1
873,1.20E+0
874,1.16E+0
875,8.00E-1
876,6.80E-1
877,1.04E+0
878,9.20E-1
879,6.00E-1
880,8.80E-1
881,6.00E-1
882,8.80E-1
883,5.20E-1
884,8.80E-1
885,5.20E-1
886,5.60E-1
887,8.40E-1
888,7.60E-1
889,4.80E-1
890,4.80E-1
891,7.60E-1
892,4.80E-1
893,6.00E-1
894,4.80E-1
895,6.80E-1
896,4.80E-1
897,6.40E-1
898,4.80E-1
899,6.40E-1
900,6.80E-1
901,4.80E-1
902,4.80E-1
903,7.20E-1
904,4.80E-1
905,8.80E-1
906,6.40E-1
907,1.08E+0
908,8.40E-1
909,1.36E+0
910,9.20E-1
911,1.32E+0
912,1.00E+0
913,1.48E+0
914,1.16E+0
915,1.60E+0
916,1.36E+0
917,1.60E+0
918,1.36E+0
919,1.64E+0
920,1.60E+0
921,1.08E+0
922,1.36E+0
923,5.60E-1
924,5.60E-1
925,1.00E+0
926,9.20E-1
927,4.80E-1
928,1.00E+0
929,4.80E-1
930,7.60E-1
931,5.20E-1
932,4.80E-1
933,8.00E-1
934,4.80E-1
935,6.40E-1
936,4.80E-1
937,6.40E-1
938,6.40E-1
939,4.40E-1
940,4.80E-1
941,5.60E-1
942,4.80E-1
943,6.00E-1
944,4.80E-1
945,6.80E-1
946,4.80E-1
947,6.80E-1
948,6.40E-1
949,4.40E-1
950,4.80E-1
951,6.00E-1
952,4.80E-1
953,7.20E-1
954,4.80E-1
955,7.60E-1
956,6.00E-1
957,8.80E-1
958,6.40E-1
959,1.04E+0
960,6.40E-1
961,1.12E+0
962,7.20E-1
963,1.24E+0
964,9.60E-1
965,1.40E+0
966,1.52E+0
967,1.00E+0
968,1.44E+0
969,1.28E+0
970,1.20E+0
971,1.52E+0
972,1.24E+0
973,1.56E+0
974,1.40E+0
975,1.60E+0
976,1.60E+0
977,1.48E+0
978,1.60E+0
979,1.40E+0
980,1.56E+0
981,1.32E+0
982,1.48E+0
983,1.16E+0
984,1.32E+0
985,9.20E-1
986,1.16E+0
987,7.60E-1
988,8.80E-1
989,4.80E-1
990,6.80E-1
991,4.40E-1
992,4.40E-1
993,6.40E-1
994,4.40E-1
995,8.40E-1
996,6.40E-1
997,1.04E+0
998,9.20E-1
999,1.32E+0
1000,1.16E+0
1001,1.48E+0
1002,1.36E+0
1003,1.60E+0
1004,1.44E+0
1005,1.60E+0
1006,1.56E+0
1007,1.20E+0
1008,1.28E+0
1009,7.60E-1
1010,8.40E-1
1011,4.40E-1
1012,4.40E-1
1013,7.20E-1
1014,4.80E-1
1015,9.60E-1
1016,8.80E-1
1017,1.24E+0
1018,1.00E+0
1019,1.56E+0
1020,1.32E+0
1021,1.64E+0
1022,1.64E+0
1023,1.44E+0
1024,1.60E+0
1025,1.40E+0
1026,1.24E+0
1027,1.56E+0
1028,1.56E+0
1029,1.08E+0
1030,1.44E+0
1031,1.08E+0
1032,1.36E+0
1033,8.40E-1
1034,8.40E-1
1035,1.24E+0
1036,1.16E+0
1037,6.80E-1
1038,1.12E+0
1039,6.80E-1
1040,6.80E-1
1041,1.16E+0
1042,7.20E-1
1043,1.24E+0
1044,8.00E-1
1045,1.16E+0
1046,1.20E+0
1047,8.00E-1
1048,1.40E+0
1049,9.60E-1
1050,1.04E+0
1051,1.52E+0
1052,1.20E+0
1053,1.56E+0
1054,1.36E+0
1055,1.60E+0
1056,1.64E+0
1057,1.40E+0
1058,1.52E+0
1059,1.68E+0
1060,1.68E+0
1061,1.40E+0
1062,1.60E+0
1063,1.12E+0
1064,1.64E+0
1065,1.24E+0
1066,1.44E+0
1067,1.00E+0
1068,1.36E+0
1069,8.80E-1
1070,7.60E-1
1071,1.28E+0
1072,6.80E-1
1073,1.20E+0
1074,1.24E+0
1075,7.20E-1
1076,1.08E+0
1077,7.20E-1
1078,8.40E-1
1079,1.12E+0
1080,6.40E-1
1081,1.16E+0
1082,1.00E+0
1083,6.80E-1
1084,1.12E+0
1085,6.80E-1
1086,1.16E+0
1087,7.20E-1
1088,7.60E-1
1089,1.12E+0
1090,6.00E-1
1091,1.08E+0
1092,1.04E+0
1093,6.00E-1
1094,6.40E-1
1095,1.24E+0
1096,6.40E-1
1097,1.00E+0
1098,6.40E-1
1099,1.08E+0
1100,1.04E+0
1101,7.20E-1
1102,1.00E+0
1103,6.40E-1
1104,6.40E-1
1105,1.08E+0
1106,6.80E-1
1107,9.60E-1
1108,1.04E+0
1109,6.00E-1
1110,1.00E+0
1111,6.80E-1
1112,6.40E-1
1113,9.60E-1
1114,6.00E-1
1115,1.08E+0
1116,6.00E-1
1117,8.40E-1
1118,1.12E+0
1119,5.20E-1
1120,6.80E-1
1121,9.20E-1
1122,5.20E-1
1123,1.12E+0
1124,5.20E-1
1125,1.00E+0
1126,8.00E-1
1127,6.00E-1
1128,1.08E+0
1129,4.80E-1
1130,5.60E-1
1131,9.20E-1
1132,5.20E-1
1133,9.20E-1
1134,8.00E-1
1135,5.20E-1
1136,7.60E-1
1137,4.80E-1
1138,8.40E-1
1139,4.80E-1
1140,5.20E-1
1141,7.60E-1
1142,7.60E-1
1143,4.80E-1
1144,8.00E-1
1145,5.20E-1
1146,4.80E-1
1147,8.40E-1
1148,5.20E-1
1149,7.20E-1
1150,9.20E-1
1151,4.80E-1
1152,8.80E-1
1153,5.20E-1
1154,8.40E-1
1155,6.00E-1
1156,5.60E-1
1157,1.00E+0
1158,5.20E-1
1159,8.80E-1
1160,9.60E-1
1161,6.00E-1
1162,6.40E-1
1163,9.20E-1
1164,5.60E-1
1165,1.00E+0
1166,9.60E-1
1167,5.60E-1
1168,8.80E-1
1169,6.00E-1
1170,5.60E-1
1171,9.20E-1
1172,8.40E-1
1173,4.80E-1
1174,8.80E-1
1175,4.80E-1
1176,8.80E-1
1177,5.20E-1
1178,7.20E-1
1179,4.80E-1
1180,4.80E-1
1181,8.40E-1
1182,4.80E-1
1183,6.80E-1
1184,7.20E-1
1185,4.80E-1
1186,8.00E-1
1187,4.80E-1
1188,7.20E-1
1189,4.80E-1
1190,4.80E-1
1191,7.20E-1
1192,4.80E-1
1193,6.40E-1
1194,7.20E-1
1195,4.40E-1
1196,4.80E-1
1197,7.20E-1
1198,4.80E-1
1199,6.80E-1
1200,6.00E-1
1201,4.40E-1
1202,5.60E-1
1203,4.40E-1
1204,4.40E-1
1205,6.00E-1
1206,5.60E-1
1207,4.40E-1
1208,4.40E-1
1209,6.40E-1
1210,5.60E-1
1211,4.40E-1
1212,4.40E-1
1213,6.00E-1
1214,6.40E-1
1215,4.40E-1
1216,6.00E-1
1217,4.40E-1
1218,4.80E-1
1219,6.00E-1
1220,5.60E-1
1221,4.40E-1
1222,4.40E-1
1223,6.00E-1
1224,4.40E-1
1225,6.40E-1
1226,4.40E-1
1227,6.00E-1
1228,4.40E-1
1229,6.00E-1
1230,4.40E-1
1231,5.60E-1
1232,4.80E-1
1233,6.00E-1
1234,4.40E-1
1235,5.60E-1
1236,5.60E-1
1237,4.40E-1
1238,5.60E-1
1239,4.40E-1
