metingen/metingen suiker/blanco_2g_meting2.csv

X,CH1,Start,Increment
Sequence,VOLT,-2.00E+0,1.00E-2
0,6.80E-1
1,8.80E-1
2,6.80E-1
3,8.40E-1
4,8.00E-1
5,6.40E-1
6,8.00E-1
7,6.40E-1
8,7.60E-1
9,6.40E-1
10,6.80E-1
11,8.00E-1
12,6.80E-1
13,8.80E-1
14,6.80E-1
15,9.60E-1
16,9.60E-1
17,7.20E-1
18,7.60E-1
19,1.16E+0
20,8.40E-1
21,1.08E+0
22,9.20E-1
23,1.24E+0
24,9.60E-1
25,1.28E+0
26,1.16E+0
27,1.36E+0
28,1.24E+0
29,1.40E+0
30,1.40E+0
31,1.24E+0
32,1.16E+0
33,1.36E+0
34,1.28E+0
35,1.04E+0
36,1.24E+0
37,8.40E-1
38,1.08E+0
39,7.60E-1
40,6.80E-1
41,8.80E-1
42,6.80E-1
43,8.00E-1
44,6.80E-1
45,8.00E-1
46,6.80E-1
47,9.20E-1
48,7.20E-1
49,1.04E+0
50,8.80E-1
51,1.12E+0
52,1.00E+0
53,1.28E+0
54,1.08E+0
55,1.32E+0
56,1.08E+0
57,1.36E+0
58,1.36E+0
59,1.20E+0
60,1.36E+0
61,1.24E+0
62,1.36E+0
63,1.24E+0
64,1.36E+0
65,1.24E+0
66,1.16E+0
67,1.36E+0
68,1.12E+0
69,1.36E+0
70,1.36E+0
71,8.80E-1
72,1.36E+0
73,8.80E-1
74,1.32E+0
75,9.20E-1
76,9.60E-1
77,1.32E+0
78,9.60E-1
79,1.36E+0
80,1.28E+0
81,1.04E+0
82,1.24E+0
83,1.04E+0
84,1.20E+0
85,1.04E+0
86,9.60E-1
87,1.28E+0
88,1.20E+0
89,9.60E-1
90,9.60E-1
91,1.28E+0
92,9.60E-1
93,1.20E+0
94,1.20E+0
95,8.40E-1
96,1.20E+0
97,9.60E-1
98,1.24E+0
99,8.80E-1
100,8.40E-1
101,1.16E+0
102,1.12E+0
103,8.40E-1
104,9.60E-1
105,8.00E-1
106,9.20E-1
107,7.20E-1
108,6.80E-1
109,8.80E-1
110,6.80E-1
111,8.80E-1
112,7.60E-1
113,6.80E-1
114,6.80E-1
115,8.00E-1
116,6.80E-1
117,8.00E-1
118,7.20E-1
119,8.80E-1
120,7.20E-1
121,9.20E-1
122,7.20E-1
123,1.00E+0
124,1.00E+0
125,7.60E-1
126,8.00E-1
127,1.16E+0
128,9.20E-1
129,1.24E+0
130,1.04E+0
131,1.32E+0
132,1.36E+0
133,1.08E+0
134,1.36E+0
135,1.24E+0
136,1.36E+0
137,1.24E+0
138,1.36E+0
139,1.16E+0
140,1.32E+0
141,1.08E+0
142,1.20E+0
143,8.80E-1
144,8.40E-1
145,1.08E+0
146,9.60E-1
147,7.20E-1
148,1.04E+0
149,7.20E-1
150,7.20E-1
151,9.20E-1
152,8.80E-1
153,6.80E-1
154,6.80E-1
155,8.80E-1
156,8.40E-1
157,6.80E-1
158,6.80E-1
159,8.80E-1
160,6.80E-1
161,8.00E-1
162,8.00E-1
163,6.80E-1
164,6.80E-1
165,8.00E-1
166,6.80E-1
167,8.40E-1
168,8.40E-1
169,6.80E-1
170,8.40E-1
171,6.80E-1
172,6.80E-1
173,8.80E-1
174,9.20E-1
175,7.20E-1
176,1.00E+0
177,8.00E-1
178,8.40E-1
179,1.04E+0
180,8.40E-1
181,1.20E+0
182,8.80E-1
183,1.16E+0
184,1.24E+0
185,9.60E-1
186,1.08E+0
187,1.28E+0
188,1.12E+0
189,1.32E+0
190,1.08E+0
191,1.36E+0
192,1.36E+0
193,1.20E+0
194,1.24E+0
195,1.40E+0
196,1.28E+0
197,1.40E+0
198,1.28E+0
199,1.40E+0
200,1.28E+0
201,1.40E+0
202,1.28E+0
203,1.40E+0
204,1.36E+0
205,1.20E+0
206,1.40E+0
207,1.24E+0
208,1.20E+0
209,1.36E+0
210,1.08E+0
211,1.36E+0
212,1.36E+0
213,1.16E+0
214,1.16E+0
215,1.32E+0
216,1.28E+0
217,1.00E+0
218,1.20E+0
219,1.00E+0
220,9.20E-1
221,1.16E+0
222,1.16E+0
223,9.20E-1
224,1.28E+0
225,8.40E-1
226,9.60E-1
227,1.20E+0
228,8.40E-1
229,1.20E+0
230,1.08E+0
231,7.60E-1
232,9.20E-1
233,6.80E-1
234,6.80E-1
235,8.00E-1
236,6.80E-1
237,8.00E-1
238,6.80E-1
239,8.00E-1
240,6.80E-1
241,7.60E-1
242,6.80E-1
243,8.00E-1
244,8.80E-1
245,6.80E-1
246,7.20E-1
247,9.20E-1
248,6.80E-1
249,1.08E+0
250,8.00E-1
251,1.00E+0
252,1.12E+0
253,7.60E-1
254,1.16E+0
255,8.80E-1
256,9.20E-1
257,1.24E+0
258,8.80E-1
259,1.24E+0
260,1.16E+0
261,8.80E-1
262,9.20E-1
263,1.28E+0
264,1.04E+0
265,1.28E+0
266,1.00E+0
267,1.32E+0
268,1.32E+0
269,1.08E+0
270,1.12E+0
271,1.36E+0
272,1.16E+0
273,1.36E+0
274,1.24E+0
275,1.40E+0
276,1.40E+0
277,1.24E+0
278,1.40E+0
279,1.32E+0
280,1.40E+0
281,1.28E+0
282,1.40E+0
283,1.28E+0
284,1.40E+0
285,1.20E+0
286,1.08E+0
287,1.32E+0
288,1.20E+0
289,1.00E+0
290,1.16E+0
291,8.40E-1
292,1.04E+0
293,8.00E-1
294,8.80E-1
295,7.20E-1
296,8.40E-1
297,6.80E-1
298,7.60E-1
299,6.80E-1
300,6.80E-1
301,8.40E-1
302,6.80E-1
303,8.40E-1
304,7.20E-1
305,9.60E-1
306,7.60E-1
307,1.08E+0
308,9.20E-1
309,1.24E+0
310,1.08E+0
311,1.32E+0
312,1.12E+0
313,1.40E+0
314,1.28E+0
315,1.44E+0
316,1.32E+0
317,1.44E+0
318,1.44E+0
319,1.28E+0
320,1.24E+0
321,1.40E+0
322,1.32E+0
323,1.04E+0
324,1.28E+0
325,1.04E+0
326,1.24E+0
327,8.80E-1
328,1.12E+0
329,8.00E-1
330,9.60E-1
331,7.20E-1
332,8.40E-1
333,6.80E-1
334,6.80E-1
335,8.40E-1
336,7.60E-1
337,1.00E+0
338,8.40E-1
339,1.28E+0
340,1.12E+0
341,1.44E+0
342,1.44E+0
343,1.32E+0
344,1.44E+0
345,1.24E+0
346,1.36E+0
347,1.12E+0
348,1.32E+0
349,8.80E-1
350,1.12E+0
351,7.60E-1
352,9.20E-1
353,6.80E-1
354,8.00E-1
355,6.40E-1
356,6.40E-1
357,8.80E-1
358,7.20E-1
359,1.12E+0
360,1.00E+0
361,1.28E+0
362,1.20E+0
363,1.44E+0
364,1.36E+0
365,1.48E+0
366,1.48E+0
367,1.28E+0
368,1.44E+0
369,1.16E+0
370,1.28E+0
371,1.00E+0
372,1.16E+0
373,8.40E-1
374,1.00E+0
375,7.60E-1
376,9.60E-1
377,6.40E-1
378,6.80E-1
379,8.40E-1
380,7.60E-1
381,6.40E-1
382,6.80E-1
383,8.80E-1
384,7.20E-1
385,1.00E+0
386,9.20E-1
387,1.24E+0
388,1.08E+0
389,1.36E+0
390,1.16E+0
391,1.48E+0
392,1.28E+0
393,1.52E+0
394,1.52E+0
395,1.40E+0
396,1.48E+0
397,1.28E+0
398,1.40E+0
399,1.08E+0
400,1.36E+0
401,8.40E-1
402,1.04E+0
403,8.40E-1
404,9.20E-1
405,6.80E-1
406,8.00E-1
407,6.80E-1
408,6.80E-1
409,8.40E-1
410,7.20E-1
411,9.60E-1
412,8.00E-1
413,1.04E+0
414,8.40E-1
415,1.20E+0
416,9.60E-1
417,1.28E+0
418,1.20E+0
419,1.40E+0
420,1.36E+0
421,1.52E+0
422,1.52E+0
423,1.40E+0
424,1.52E+0
425,1.28E+0
426,1.40E+0
427,1.00E+0
428,1.08E+0
429,8.00E-1
430,8.40E-1
431,6.80E-1
432,6.80E-1
433,8.00E-1
434,6.80E-1
435,8.00E-1
436,6.80E-1
437,8.00E-1
438,6.80E-1
439,8.80E-1
440,7.60E-1
441,1.08E+0
442,9.20E-1
443,1.36E+0
444,1.12E+0
445,1.52E+0
446,1.36E+0
447,1.52E+0
448,1.48E+0
449,1.20E+0
450,1.36E+0
451,1.00E+0
452,1.08E+0
453,8.00E-1
454,9.20E-1
455,6.80E-1
456,7.60E-1
457,6.80E-1
458,6.80E-1
459,8.00E-1
460,8.40E-1
461,6.80E-1
462,6.80E-1
463,9.20E-1
464,7.20E-1
465,9.20E-1
466,7.60E-1
467,1.08E+0
468,1.16E+0
469,8.40E-1
470,8.00E-1
471,1.28E+0
472,7.60E-1
473,1.28E+0
474,1.16E+0
475,7.20E-1
476,1.20E+0
477,7.20E-1
478,1.16E+0
479,7.20E-1
480,1.24E+0
481,7.20E-1
482,1.12E+0
483,6.80E-1
484,6.80E-1
485,1.08E+0
486,6.80E-1
487,1.28E+0
488,6.80E-1
489,1.00E+0
490,9.60E-1
491,6.80E-1
492,6.80E-1
493,9.60E-1
494,8.80E-1
495,7.20E-1
496,6.80E-1
497,1.00E+0
498,6.80E-1
499,8.80E-1
500,1.00E+0
501,6.80E-1
502,7.20E-1
503,9.20E-1
504,8.80E-1
505,7.20E-1
506,7.20E-1
507,9.20E-1
508,7.20E-1
509,9.60E-1
510,9.60E-1
511,7.20E-1
512,7.60E-1
513,1.04E+0
