metingen/metingen suiker/1/1ml_4g6g.csv

X,CH1,Start,Increment
Sequence,VOLT,0.00E+0,2.00E-2
0,6.80E-1
1,8.80E-1
2,6.80E-1
3,8.00E-1
4,6.80E-1
5,8.00E-1
6,6.80E-1
7,8.40E-1
8,9.60E-1
9,7.20E-1
10,7.20E-1
11,1.04E+0
12,9.20E-1
13,6.80E-1
14,9.20E-1
15,6.80E-1
16,8.80E-1
17,6.80E-1
18,6.80E-1
19,8.80E-1
20,8.80E-1
21,6.80E-1
22,6.80E-1
23,8.00E-1
24,6.80E-1
25,9.60E-1
26,7.60E-1
27,1.12E+0
28,1.08E+0
29,8.40E-1
30,1.08E+0
31,6.80E-1
32,6.80E-1
33,8.80E-1
34,6.80E-1
35,8.40E-1
36,6.80E-1
37,8.40E-1
38,6.80E-1
39,8.80E-1
40,6.80E-1
41,8.00E-1
42,8.00E-1
43,6.80E-1
44,6.80E-1
45,8.80E-1
46,6.80E-1
47,9.20E-1
48,7.20E-1
49,9.60E-1
50,7.20E-1
51,1.00E+0
52,7.20E-1
53,9.60E-1
54,7.20E-1
55,1.04E+0
56,1.12E+0
57,7.60E-1
58,7.60E-1
59,1.16E+0
60,1.24E+0
61,8.40E-1
62,1.28E+0
63,8.40E-1
64,1.20E+0
65,8.00E-1
66,8.80E-1
67,1.24E+0
68,1.12E+0
69,7.60E-1
70,9.60E-1
71,6.80E-1
72,6.80E-1
73,8.00E-1
74,6.80E-1
75,8.40E-1
76,6.80E-1
77,9.20E-1
78,6.80E-1
79,9.20E-1
80,8.80E-1
81,6.80E-1
82,8.00E-1
83,6.80E-1
84,6.80E-1
85,8.40E-1
86,6.80E-1
87,8.40E-1
88,6.80E-1
89,8.00E-1
90,6.80E-1
91,8.00E-1
92,6.80E-1
93,8.40E-1
94,8.00E-1
95,6.80E-1
96,6.80E-1
97,8.40E-1
98,6.80E-1
99,8.80E-1
100,6.80E-1
101,8.80E-1
102,6.80E-1
103,1.76E+0
104,7.20E-1
105,1.80E+0
106,7.20E-1
107,1.84E+0
108,1.80E+0
109,6.80E-1
110,1.84E+0
111,7.20E-1
112,1.00E+0
113,1.84E+0
114,1.72E+0
115,7.20E-1
116,1.12E+0
117,6.80E-1
118,1.20E+0
119,7.20E-1
120,1.00E+0
121,6.80E-1
122,6.80E-1
123,1.84E+0
124,6.80E-1
125,1.84E+0
126,1.84E+0
127,6.80E-1
128,6.80E-1
129,1.84E+0
130,6.80E-1
131,1.84E+0
132,6.80E-1
133,1.84E+0
134,6.80E-1
135,1.84E+0
136,6.80E-1
137,1.84E+0
138,1.84E+0
139,6.80E-1
140,6.80E-1
141,1.80E+0
142,6.80E-1
143,1.84E+0
144,6.80E-1
145,1.84E+0
146,1.84E+0
147,6.80E-1
148,1.84E+0
149,8.40E-1
150,8.40E-1
151,1.76E+0
152,9.20E-1
153,1.68E+0
154,1.52E+0
155,9.60E-1
156,1.52E+0
157,8.80E-1
158,1.32E+0
159,8.00E-1
160,1.12E+0
161,7.60E-1
162,7.60E-1
163,1.12E+0
164,9.20E-1
165,1.36E+0
166,9.20E-1
167,1.40E+0
168,1.04E+0
169,1.68E+0
170,1.32E+0
171,1.72E+0
172,1.44E+0
173,1.80E+0
174,1.72E+0
175,1.88E+0
176,1.84E+0
177,1.72E+0
178,1.84E+0
179,1.52E+0
180,1.72E+0
181,1.12E+0
182,1.40E+0
183,8.40E-1
184,1.04E+0
185,6.80E-1
186,8.40E-1
187,6.80E-1
188,6.80E-1
189,8.40E-1
190,6.80E-1
191,1.08E+0
192,8.40E-1
193,1.16E+0
194,1.56E+0
195,9.60E-1
196,1.24E+0
197,1.72E+0
198,1.60E+0
199,1.84E+0
200,1.64E+0
201,1.84E+0
202,1.84E+0
203,1.48E+0
204,1.76E+0
205,1.24E+0
206,1.36E+0
207,8.00E-1
208,9.20E-1
209,6.80E-1
210,6.80E-1
211,8.80E-1
212,7.20E-1
213,1.24E+0
214,9.20E-1
215,1.48E+0
216,1.16E+0
217,1.76E+0
218,1.56E+0
219,1.84E+0
220,1.84E+0
221,1.68E+0
222,1.84E+0
223,1.48E+0
224,1.80E+0
225,1.36E+0
226,1.76E+0
227,1.32E+0
228,1.68E+0
229,1.20E+0
230,1.36E+0
231,1.64E+0
232,1.36E+0
233,1.80E+0
234,1.84E+0
235,1.52E+0
236,1.76E+0
237,1.24E+0
238,1.68E+0
239,1.00E+0
240,1.20E+0
241,7.20E-1
242,9.20E-1
243,6.80E-1
244,6.80E-1
245,9.20E-1
246,6.80E-1
247,1.28E+0
248,1.00E+0
249,1.60E+0
250,1.24E+0
251,1.88E+0
252,1.88E+0
253,1.72E+0
254,1.88E+0
255,1.44E+0
256,1.56E+0
257,1.00E+0
258,1.24E+0
259,7.60E-1
260,8.80E-1
261,6.80E-1
262,6.80E-1
263,1.00E+0
264,7.20E-1
265,1.08E+0
266,8.40E-1
267,1.36E+0
268,1.00E+0
269,1.64E+0
270,1.52E+0
271,1.88E+0
272,1.88E+0
273,1.56E+0
274,1.68E+0
275,1.12E+0
276,1.52E+0
277,1.04E+0
278,1.28E+0
279,8.00E-1
280,1.00E+0
281,6.80E-1
282,8.40E-1
283,6.80E-1
284,6.80E-1
285,8.00E-1
286,7.20E-1
287,1.00E+0
288,7.60E-1
289,1.12E+0
290,8.40E-1
291,1.28E+0
292,8.80E-1
293,1.44E+0
294,1.08E+0
295,1.68E+0
296,1.36E+0
297,1.80E+0
298,1.76E+0
299,1.44E+0
300,1.84E+0
301,1.48E+0
302,1.60E+0
303,1.84E+0
304,1.72E+0
305,1.84E+0
306,1.84E+0
307,1.64E+0
308,1.84E+0
309,1.36E+0
310,1.80E+0
311,1.24E+0
312,1.28E+0
313,1.76E+0
314,1.76E+0
315,1.32E+0
316,1.04E+0
317,1.68E+0
318,1.48E+0
319,1.04E+0
320,1.72E+0
321,9.20E-1
322,1.76E+0
323,1.08E+0
324,1.52E+0
325,9.20E-1
326,1.52E+0
327,9.20E-1
328,1.36E+0
329,8.40E-1
330,1.20E+0
331,7.60E-1
332,1.04E+0
333,6.80E-1
334,9.60E-1
335,6.80E-1
336,6.80E-1
337,9.20E-1
338,9.20E-1
339,6.80E-1
340,6.80E-1
341,8.40E-1
342,6.80E-1
343,1.00E+0
344,7.20E-1
345,1.04E+0
346,7.60E-1
347,1.28E+0
348,1.28E+0
349,8.80E-1
350,1.32E+0
351,9.20E-1
352,1.32E+0
353,8.40E-1
354,1.32E+0
355,8.40E-1
356,8.40E-1
357,1.28E+0
358,1.32E+0
359,9.60E-1
360,1.00E+0
361,1.32E+0
362,1.48E+0
363,1.08E+0
364,1.08E+0
365,1.44E+0
366,1.08E+0
367,1.44E+0
368,1.48E+0
369,9.60E-1
370,9.60E-1
371,1.56E+0
372,1.04E+0
373,1.52E+0
374,1.56E+0
375,1.12E+0
376,1.12E+0
377,1.56E+0
378,1.04E+0
379,1.64E+0
380,1.24E+0
381,1.68E+0
382,1.76E+0
383,1.20E+0
384,1.84E+0
385,1.40E+0
386,1.84E+0
387,1.52E+0
388,1.92E+0
389,1.52E+0
390,1.72E+0
391,1.92E+0
392,1.92E+0
393,1.76E+0
394,1.92E+0
395,1.76E+0
396,1.88E+0
397,1.68E+0
398,1.88E+0
399,1.72E+0
400,1.88E+0
401,1.52E+0
402,1.84E+0
403,1.44E+0
404,1.76E+0
405,1.28E+0
406,1.68E+0
407,1.28E+0
408,1.04E+0
409,1.56E+0
410,1.60E+0
411,1.00E+0
412,9.60E-1
413,1.24E+0
414,8.40E-1
415,1.40E+0
416,1.16E+0
417,8.80E-1
418,1.16E+0
419,7.60E-1
420,1.20E+0
421,7.60E-1
422,9.20E-1
423,6.80E-1
424,8.80E-1
425,6.80E-1
426,8.80E-1
427,6.80E-1
428,6.80E-1
429,8.00E-1
430,6.80E-1
431,9.20E-1
432,6.80E-1
433,1.08E+0
434,8.80E-1
435,1.32E+0
436,1.00E+0
437,1.44E+0
438,1.24E+0
439,1.68E+0
440,1.40E+0
441,1.80E+0
442,1.40E+0
443,1.76E+0
444,1.48E+0
445,1.80E+0
446,1.52E+0
447,1.88E+0
448,1.44E+0
449,1.88E+0
450,1.88E+0
451,1.72E+0
452,1.88E+0
453,1.64E+0
454,1.84E+0
455,1.60E+0
456,1.80E+0
457,1.12E+0
458,1.56E+0
459,1.00E+0
460,1.48E+0
461,9.60E-1
462,1.24E+0
463,8.80E-1
464,1.20E+0
465,8.40E-1
466,1.08E+0
467,7.20E-1
468,6.80E-1
469,8.40E-1
470,6.80E-1
471,9.60E-1
472,8.80E-1
473,1.52E+0
474,1.20E+0
475,1.76E+0
476,1.56E+0
477,1.92E+0
478,1.88E+0
479,1.60E+0
480,1.76E+0
481,1.40E+0
482,1.68E+0
483,1.08E+0
484,1.36E+0
485,8.40E-1
486,1.08E+0
487,6.80E-1
488,6.80E-1
489,8.80E-1
490,6.80E-1
491,1.08E+0
492,8.00E-1
493,1.40E+0
494,9.60E-1
495,1.36E+0
496,1.04E+0
497,1.52E+0
498,1.20E+0
499,1.68E+0
500,1.72E+0
501,1.28E+0
502,1.40E+0
503,1.84E+0
504,1.56E+0
505,1.88E+0
506,1.88E+0
507,1.64E+0
508,1.88E+0
509,1.76E+0
510,1.92E+0
511,1.72E+0
512,1.88E+0
513,1.56E+0
514,1.88E+0
515,1.48E+0
516,1.84E+0
517,1.16E+0
518,1.76E+0
519,9.60E-1
520,1.64E+0
521,8.80E-1
522,1.44E+0
523,7.60E-1
524,1.44E+0
525,6.80E-1
526,6.80E-1
527,1.00E+0
528,6.80E-1
529,9.60E-1
530,6.80E-1
531,1.12E+0
532,7.20E-1
533,1.44E+0
534,1.00E+0
535,1.72E+0
536,1.20E+0
537,1.76E+0
538,1.40E+0
539,1.88E+0
540,1.92E+0
541,1.72E+0
542,1.92E+0
543,1.76E+0
544,1.88E+0
545,1.32E+0
546,1.68E+0
547,1.04E+0
548,1.36E+0
549,7.20E-1
550,9.60E-1
551,6.80E-1
552,6.80E-1
553,1.00E+0
554,7.60E-1
555,1.08E+0
556,8.00E-1
557,1.28E+0
558,8.00E-1
559,1.36E+0
560,1.00E+0
561,1.52E+0
562,1.24E+0
563,1.76E+0
564,1.48E+0
565,1.92E+0
566,1.68E+0
567,1.92E+0
568,1.92E+0
569,1.72E+0
570,1.88E+0
571,7.20E-1
572,1.88E+0
573,9.20E-1
574,1.00E+0
575,1.92E+0
576,1.24E+0
577,1.92E+0
578,1.92E+0
579,1.56E+0
580,1.36E+0
581,1.92E+0
582,1.92E+0
583,1.64E+0
584,1.92E+0
585,1.64E+0
586,1.92E+0
587,1.56E+0
588,1.92E+0
589,1.44E+0
590,1.88E+0
591,1.36E+0
592,1.80E+0
593,1.44E+0
594,1.72E+0
595,1.12E+0
596,1.60E+0
597,8.00E-1
598,1.20E+0
599,7.20E-1
600,1.08E+0
601,6.80E-1
602,6.80E-1
603,9.20E-1
604,6.80E-1
605,8.40E-1
606,6.80E-1
607,9.60E-1
608,6.80E-1
609,1.12E+0
610,1.08E+0
611,7.20E-1
612,7.20E-1
613,1.24E+0
614,7.60E-1
615,1.40E+0
616,8.40E-1
617,1.36E+0
618,8.40E-1
619,1.36E+0
620,8.80E-1
621,1.44E+0
622,1.40E+0
623,9.20E-1
624,1.64E+0
625,9.20E-1
626,1.56E+0
627,9.20E-1
628,9.60E-1
629,1.60E+0
630,1.16E+0
631,1.64E+0
632,1.28E+0
633,1.76E+0
634,1.40E+0
635,1.84E+0
636,1.64E+0
637,1.92E+0
638,1.92E+0
639,1.72E+0
640,1.92E+0
641,1.80E+0
642,1.92E+0
643,1.80E+0
644,1.92E+0
645,1.76E+0
646,1.92E+0
647,1.64E+0
648,1.80E+0
649,1.52E+0
650,1.28E+0
651,1.76E+0
652,1.68E+0
653,1.24E+0
654,1.56E+0
655,1.04E+0
656,1.08E+0
657,1.48E+0
658,9.60E-1
659,1.56E+0
660,1.04E+0
661,1.44E+0
662,1.44E+0
663,9.60E-1
664,1.28E+0
665,8.00E-1
666,9.60E-1
667,6.80E-1
668,6.80E-1
669,8.80E-1
670,6.80E-1
671,8.80E-1
672,6.80E-1
673,9.60E-1
674,7.60E-1
675,1.08E+0
676,8.00E-1
677,1.28E+0
678,9.20E-1
679,1.40E+0
680,1.24E+0
681,1.76E+0
682,1.40E+0
683,1.92E+0
684,1.48E+0
685,1.92E+0
686,1.80E+0
687,1.92E+0
688,1.92E+0
689,1.28E+0
690,1.72E+0
691,8.80E-1
692,1.48E+0
693,7.20E-1
694,1.44E+0
695,6.80E-1
696,6.80E-1
697,1.08E+0
698,6.80E-1
699,1.08E+0
700,8.00E-1
701,1.64E+0
702,9.60E-1
703,1.68E+0
704,1.12E+0
705,1.88E+0
706,1.32E+0
707,1.88E+0
708,1.96E+0
709,1.56E+0
710,1.96E+0
711,1.68E+0
712,1.92E+0
713,1.48E+0
714,1.80E+0
715,1.16E+0
716,1.40E+0
717,8.00E-1
718,1.24E+0
719,7.60E-1
720,9.60E-1
721,6.80E-1
722,6.80E-1
723,9.20E-1
724,7.20E-1
725,1.04E+0
726,8.00E-1
727,1.28E+0
728,9.20E-1
729,1.56E+0
730,1.08E+0
731,1.88E+0
732,1.96E+0
733,1.72E+0
734,1.96E+0
735,1.56E+0
736,1.72E+0
737,1.16E+0
738,1.20E+0
739,7.20E-1
740,6.80E-1
741,8.40E-1
742,7.20E-1
743,1.56E+0
744,1.40E+0
745,1.96E+0
746,1.96E+0
747,1.52E+0
748,1.80E+0
749,1.08E+0
750,1.28E+0
751,7.20E-1
752,1.08E+0
753,6.80E-1
754,6.80E-1
755,9.20E-1
756,7.20E-1
757,1.24E+0
758,8.40E-1
759,1.52E+0
760,1.08E+0
761,1.68E+0
762,1.52E+0
763,1.92E+0
764,1.72E+0
765,1.96E+0
766,1.88E+0
767,1.40E+0
768,1.72E+0
769,1.08E+0
770,1.40E+0
771,9.20E-1
772,1.20E+0
773,6.80E-1
774,6.80E-1
775,8.80E-1
776,7.20E-1
777,1.44E+0
778,1.08E+0
779,1.72E+0
780,1.88E+0
781,1.32E+0
782,1.88E+0
783,1.36E+0
784,1.32E+0
785,1.88E+0
786,1.68E+0
787,1.04E+0
788,1.44E+0
789,7.60E-1
790,6.80E-1
791,1.28E+0
792,6.80E-1
793,9.60E-1
794,6.80E-1
795,1.00E+0
796,8.40E-1
797,1.64E+0
798,1.32E+0
799,1.92E+0
800,1.76E+0
801,1.96E+0
802,1.96E+0
803,1.76E+0
804,1.68E+0
805,1.96E+0
806,1.92E+0
807,1.28E+0
808,1.44E+0
809,7.20E-1
810,6.80E-1
811,1.92E+0
812,1.92E+0
813,7.20E-1
814,1.92E+0
815,6.80E-1
816,6.80E-1
817,1.96E+0
818,6.80E-1
819,1.96E+0
820,7.20E-1
821,2.00E+0
822,1.52E+0
823,2.00E+0
824,2.00E+0
825,1.44E+0
826,2.00E+0
827,6.80E-1
828,1.92E+0
829,6.80E-1
830,1.48E+0
831,7.60E-1
832,8.00E-1
833,1.32E+0
834,1.12E+0
835,7.20E-1
836,6.80E-1
837,9.60E-1
838,6.80E-1
839,8.80E-1
840,6.80E-1
841,1.24E+0
842,1.04E+0
843,1.76E+0
844,1.28E+0
845,1.96E+0
846,1.68E+0
847,2.00E+0
848,2.00E+0
849,1.64E+0
850,1.88E+0
851,1.40E+0
852,1.76E+0
853,1.16E+0
854,1.40E+0
855,9.20E-1
856,1.16E+0
857,7.20E-1
858,6.80E-1
859,8.80E-1
860,6.80E-1
861,1.24E+0
862,1.08E+0
863,1.68E+0
864,1.60E+0
865,2.04E+0
866,2.04E+0
867,1.72E+0
868,1.96E+0
869,1.40E+0
870,1.60E+0
871,8.80E-1
872,1.16E+0
873,6.80E-1
874,8.40E-1
875,6.80E-1
876,6.80E-1
877,1.36E+0
878,9.60E-1
879,1.68E+0
880,1.60E+0
881,2.00E+0
882,2.00E+0
883,1.76E+0
884,1.92E+0
885,1.24E+0
886,1.56E+0
887,7.60E-1
888,1.04E+0
889,6.80E-1
890,6.80E-1
891,1.52E+0
892,1.32E+0
893,1.96E+0
894,1.80E+0
895,2.04E+0
896,1.88E+0
897,1.04E+0
898,1.08E+0
899,6.80E-1
900,6.80E-1
901,1.16E+0
902,9.20E-1
903,1.92E+0
904,2.00E+0
905,1.80E+0
906,1.96E+0
907,1.20E+0
908,1.44E+0
909,7.20E-1
910,6.80E-1
911,1.12E+0
912,8.80E-1
913,1.76E+0
914,1.72E+0
915,2.04E+0
916,2.04E+0
917,1.44E+0
918,1.56E+0
919,8.80E-1
920,1.00E+0
921,6.80E-1
922,6.80E-1
923,8.80E-1
924,6.80E-1
925,1.28E+0
926,7.60E-1
927,1.60E+0
928,1.08E+0
929,1.80E+0
930,1.40E+0
931,2.00E+0
932,2.00E+0
933,1.84E+0
934,2.00E+0
935,1.84E+0
936,1.96E+0
937,1.64E+0
938,1.96E+0
939,1.48E+0
940,1.96E+0
941,1.36E+0
942,1.60E+0
943,1.04E+0
944,1.32E+0
945,7.20E-1
946,1.00E+0
947,6.80E-1
948,6.80E-1
949,1.04E+0
950,7.60E-1
951,1.20E+0
952,1.12E+0
953,1.72E+0
954,1.36E+0
955,2.00E+0
956,2.00E+0
957,1.68E+0
958,1.76E+0
959,6.80E-1
960,6.80E-1
961,1.24E+0
962,1.04E+0
963,2.00E+0
964,2.00E+0
965,1.36E+0
966,1.68E+0
967,7.20E-1
968,6.80E-1
969,1.12E+0
970,1.08E+0
971,2.04E+0
972,2.04E+0
973,1.56E+0
974,1.60E+0
975,7.20E-1
976,6.80E-1
977,1.24E+0
978,1.12E+0
979,2.04E+0
980,2.04E+0
981,1.80E+0
982,1.96E+0
983,1.28E+0
984,1.64E+0
985,9.20E-1
986,9.60E-1
987,7.20E-1
988,7.20E-1
989,1.12E+0
990,8.80E-1
991,1.68E+0
992,1.48E+0
993,2.04E+0
994,2.08E+0
995,1.88E+0
996,2.04E+0
997,7.20E-1
998,7.20E-1
999,2.04E+0
1000,7.20E-1
1001,2.04E+0
1002,7.20E-1
1003,1.96E+0
1004,7.20E-1
1005,1.92E+0
1006,8.00E-1
1007,2.08E+0
1008,1.60E+0
1009,2.08E+0
1010,2.08E+0
1011,1.16E+0
1012,1.88E+0
1013,8.00E-1
1014,1.04E+0
1015,7.20E-1
1016,8.80E-1
1017,6.80E-1
1018,7.20E-1
1019,9.60E-1
1020,7.20E-1
1021,1.04E+0
1022,7.20E-1
1023,1.04E+0
1024,7.60E-1
1025,1.36E+0
1026,1.04E+0
1027,1.72E+0
1028,1.48E+0
1029,2.04E+0
1030,2.04E+0
1031,1.60E+0
1032,1.84E+0
1033,1.08E+0
1034,1.56E+0
1035,8.00E-1
1036,9.60E-1
1037,6.80E-1
1038,7.20E-1
1039,1.00E+0
1040,9.60E-1
1041,1.76E+0
1042,1.64E+0
1043,2.04E+0
1044,2.04E+0
1045,1.16E+0
1046,1.52E+0
1047,6.80E-1
1048,6.80E-1
1049,1.00E+0
1050,7.60E-1
1051,1.80E+0
1052,2.08E+0
1053,1.68E+0
1054,1.92E+0
1055,8.00E-1
1056,6.80E-1
1057,1.20E+0
1058,1.16E+0
1059,2.08E+0
1060,2.00E+0
1061,7.20E-1
1062,6.80E-1
1063,2.00E+0
1064,2.08E+0
1065,1.32E+0
1066,1.40E+0
1067,7.20E-1
1068,1.00E+0
1069,2.04E+0
1070,2.00E+0
1071,8.00E-1
1072,6.80E-1
1073,1.12E+0
1074,8.40E-1
1075,1.84E+0
1076,1.56E+0
1077,2.04E+0
1078,2.08E+0
1079,1.88E+0
1080,2.08E+0
1081,1.72E+0
1082,1.76E+0
1083,2.08E+0
1084,2.08E+0
1085,1.88E+0
1086,1.80E+0
1087,2.12E+0
1088,1.88E+0
1089,2.12E+0
1090,1.60E+0
1091,2.12E+0
1092,1.80E+0
1093,2.08E+0
1094,2.12E+0
1095,1.64E+0
1096,1.72E+0
1097,2.08E+0
1098,2.08E+0
1099,1.24E+0
1100,2.08E+0
1101,1.04E+0
1102,1.68E+0
1103,7.60E-1
1104,7.20E-1
1105,1.60E+0
1106,1.52E+0
1107,7.20E-1
1108,1.56E+0
1109,7.20E-1
1110,7.60E-1
1111,1.24E+0
1112,1.12E+0
1113,7.20E-1
1114,6.80E-1
1115,1.08E+0
1116,7.20E-1
1117,9.20E-1
1118,6.80E-1
1119,8.40E-1
1120,6.80E-1
1121,9.60E-1
1122,7.20E-1
1123,1.04E+0
1124,6.80E-1
1125,2.04E+0
1126,7.60E-1
1127,2.08E+0
1128,7.20E-1
1129,2.12E+0
