metingen/metingen suiker/1/1ml_0g2g.csv

X,CH1,Start,Increment
Sequence,VOLT,0.00E+0,2.00E-2
0,2.08E+0
1,1.48E+0
2,2.12E+0
3,1.60E+0
4,2.24E+0
5,1.64E+0
6,1.64E+0
7,2.20E+0
8,2.08E+0
9,1.28E+0
10,1.32E+0
11,2.00E+0
12,2.20E+0
13,1.28E+0
14,1.32E+0
15,2.04E+0
16,1.96E+0
17,1.04E+0
18,1.00E+0
19,1.80E+0
20,1.24E+0
21,2.04E+0
22,1.92E+0
23,1.12E+0
24,1.64E+0
25,1.00E+0
26,1.04E+0
27,1.88E+0
28,1.68E+0
29,8.40E-1
30,8.40E-1
31,1.64E+0
32,8.40E-1
33,1.36E+0
34,1.24E+0
35,8.40E-1
36,1.12E+0
37,7.60E-1
38,1.12E+0
39,6.80E-1
40,6.00E-1
41,1.04E+0
42,9.20E-1
43,6.00E-1
44,6.00E-1
45,8.40E-1
46,6.00E-1
47,8.80E-1
48,6.40E-1
49,1.00E+0
50,6.40E-1
51,1.12E+0
52,6.00E-1
53,1.08E+0
54,1.16E+0
55,6.80E-1
56,7.20E-1
57,1.44E+0
58,7.60E-1
59,1.32E+0
60,1.32E+0
61,8.00E-1
62,1.04E+0
63,6.40E-1
64,1.12E+0
65,6.40E-1
66,9.60E-1
67,6.40E-1
68,1.08E+0
69,6.00E-1
70,6.00E-1
71,1.12E+0
72,6.00E-1
73,1.16E+0
74,1.04E+0
75,6.00E-1
76,1.28E+0
77,6.00E-1
78,6.00E-1
79,1.08E+0
80,8.80E-1
81,6.00E-1
82,7.60E-1
83,6.00E-1
84,6.00E-1
85,7.20E-1
86,6.00E-1
87,8.40E-1
88,6.00E-1
89,9.20E-1
90,8.40E-1
91,6.00E-1
92,6.00E-1
93,8.00E-1
94,7.20E-1
95,6.00E-1
96,7.20E-1
97,6.00E-1
98,6.00E-1
99,6.80E-1
100,6.00E-1
101,1.00E+0
102,6.40E-1
103,1.04E+0
104,1.08E+0
105,6.00E-1
106,9.60E-1
107,6.40E-1
108,8.80E-1
109,6.00E-1
110,6.00E-1
111,8.00E-1
112,8.00E-1
113,6.00E-1
114,6.00E-1
115,8.80E-1
116,6.00E-1
117,9.60E-1
118,6.00E-1
119,8.80E-1
120,6.00E-1
121,8.00E-1
122,6.00E-1
123,9.60E-1
124,6.00E-1
125,1.64E+0
126,1.24E+0
127,1.80E+0
128,1.32E+0
129,2.04E+0
130,1.88E+0
131,1.12E+0
132,1.16E+0
133,1.88E+0
134,1.28E+0
135,1.96E+0
136,1.32E+0
137,2.04E+0
138,2.04E+0
139,1.36E+0
140,1.40E+0
141,1.96E+0
142,1.36E+0
143,2.20E+0
144,2.12E+0
145,1.28E+0
146,1.92E+0
147,1.08E+0
148,9.20E-1
149,1.84E+0
150,1.52E+0
151,9.20E-1
152,1.60E+0
153,1.00E+0
154,9.60E-1
155,1.92E+0
156,1.20E+0
157,2.12E+0
158,2.04E+0
159,1.24E+0
160,1.88E+0
161,1.08E+0
162,1.64E+0
163,9.20E-1
164,8.80E-1
165,1.56E+0
166,9.20E-1
167,1.72E+0
168,1.00E+0
169,1.84E+0
170,1.64E+0
171,9.60E-1
172,1.48E+0
173,7.60E-1
174,1.12E+0
175,7.20E-1
176,1.04E+0
177,6.40E-1
178,6.80E-1
179,1.08E+0
180,6.40E-1
181,1.20E+0
182,6.00E-1
183,1.12E+0
184,6.00E-1
185,9.20E-1
186,8.80E-1
187,6.00E-1
188,6.00E-1
189,9.20E-1
190,8.80E-1
191,6.00E-1
192,6.00E-1
193,9.60E-1
194,6.00E-1
195,8.80E-1
196,6.00E-1
197,9.20E-1
198,9.60E-1
199,6.40E-1
200,6.80E-1
201,1.12E+0
202,8.80E-1
203,1.44E+0
204,1.68E+0
205,1.04E+0
206,1.84E+0
207,1.12E+0
208,1.20E+0
209,1.96E+0
210,2.16E+0
211,1.28E+0
212,1.24E+0
213,2.28E+0
214,2.28E+0
215,1.52E+0
216,2.20E+0
217,1.56E+0
218,2.12E+0
219,1.44E+0
220,1.12E+0
221,2.00E+0
222,1.12E+0
223,1.76E+0
224,1.04E+0
225,1.60E+0
226,1.68E+0
227,1.00E+0
228,1.48E+0
229,8.80E-1
230,9.60E-1
231,1.60E+0
232,1.00E+0
233,1.60E+0
234,1.48E+0
235,8.40E-1
236,8.00E-1
237,1.56E+0
238,8.80E-1
239,1.56E+0
240,1.52E+0
241,9.20E-1
242,2.16E+0
243,8.00E-1
244,9.60E-1
245,1.84E+0
246,1.00E+0
247,1.84E+0
248,2.28E+0
249,1.16E+0
250,1.24E+0
251,2.12E+0
252,1.44E+0
253,2.00E+0
254,2.00E+0
255,1.12E+0
256,1.24E+0
257,2.00E+0
258,1.52E+0
259,2.08E+0
260,2.20E+0
261,1.52E+0
262,1.68E+0
263,2.24E+0
264,1.84E+0
265,2.28E+0
266,2.00E+0
267,2.40E+0
268,2.20E+0
269,2.44E+0
270,2.28E+0
271,2.44E+0
272,2.44E+0
273,2.08E+0
274,1.24E+0
275,2.44E+0
276,2.40E+0
277,1.84E+0
278,2.40E+0
279,8.80E-1
280,2.40E+0
281,1.04E+0
282,2.40E+0
283,1.40E+0
284,2.40E+0
285,1.00E+0
286,1.40E+0
287,2.36E+0
288,2.36E+0
289,1.76E+0
290,2.40E+0
291,1.68E+0
292,1.92E+0
293,2.40E+0
294,2.40E+0
295,1.96E+0
296,1.96E+0
297,2.40E+0
298,2.12E+0
299,2.40E+0
300,2.40E+0
301,2.20E+0
302,2.16E+0
303,2.40E+0
304,2.40E+0
305,2.08E+0
306,2.40E+0
307,2.20E+0
308,2.40E+0
309,2.28E+0
310,2.24E+0
311,2.40E+0
312,2.40E+0
313,2.24E+0
314,2.40E+0
315,2.24E+0
316,2.40E+0
317,2.20E+0
318,2.40E+0
319,1.92E+0
320,1.92E+0
321,2.36E+0
322,2.36E+0
323,1.76E+0
324,1.76E+0
325,2.36E+0
326,1.52E+0
327,2.24E+0
328,2.32E+0
329,1.40E+0
330,2.20E+0
331,1.04E+0
332,2.00E+0
333,1.12E+0
334,1.32E+0
335,2.04E+0
336,1.44E+0
337,2.04E+0
338,1.32E+0
339,2.16E+0
340,1.36E+0
341,2.08E+0
342,1.92E+0
343,1.16E+0
344,1.76E+0
345,1.00E+0
346,1.24E+0
347,1.80E+0
348,1.24E+0
349,1.88E+0
350,1.92E+0
351,1.24E+0
352,1.84E+0
353,1.20E+0
354,1.72E+0
355,1.08E+0
356,1.68E+0
357,1.04E+0
358,1.20E+0
359,1.88E+0
360,1.72E+0
361,1.08E+0
362,2.08E+0
363,1.04E+0
364,8.40E-1
365,2.04E+0
366,1.92E+0
367,1.08E+0
368,8.40E-1
369,1.84E+0
370,1.80E+0
371,1.12E+0
372,1.20E+0
373,1.84E+0
374,1.92E+0
375,1.12E+0
376,1.84E+0
377,1.32E+0
378,1.36E+0
379,1.96E+0
380,1.52E+0
381,2.12E+0
382,2.08E+0
383,1.60E+0
384,2.12E+0
385,1.64E+0
386,1.64E+0
387,2.08E+0
388,2.04E+0
389,1.52E+0
390,1.48E+0
391,2.20E+0
392,1.72E+0
393,2.20E+0
394,2.12E+0
395,1.48E+0
396,2.12E+0
397,1.56E+0
398,2.16E+0
399,1.16E+0
400,1.36E+0
401,2.28E+0
402,2.16E+0
403,1.52E+0
404,2.24E+0
405,1.68E+0
406,2.28E+0
407,1.56E+0
408,2.24E+0
409,1.88E+0
410,1.88E+0
411,2.24E+0
412,1.88E+0
413,2.28E+0
414,2.08E+0
415,2.28E+0
416,2.28E+0
417,2.08E+0
418,2.28E+0
419,2.00E+0
420,2.28E+0
421,2.04E+0
422,1.88E+0
423,2.24E+0
424,1.92E+0
425,2.24E+0
426,1.96E+0
427,2.28E+0
428,1.96E+0
429,2.28E+0
430,2.20E+0
431,1.52E+0
432,1.76E+0
433,8.80E-1
434,9.60E-1
435,6.40E-1
436,6.40E-1
437,9.20E-1
438,6.40E-1
439,1.00E+0
440,9.20E-1
441,6.00E-1
442,6.00E-1
443,9.20E-1
444,8.80E-1
445,6.00E-1
446,7.60E-1
447,5.60E-1
448,7.20E-1
449,5.60E-1
450,5.60E-1
451,7.60E-1
452,8.80E-1
453,5.60E-1
454,6.00E-1
455,1.16E+0
456,6.80E-1
457,1.12E+0
458,8.00E-1
459,1.28E+0
460,1.32E+0
461,8.00E-1
462,1.32E+0
463,8.40E-1
464,1.44E+0
465,8.40E-1
466,1.32E+0
467,8.00E-1
468,1.24E+0
469,6.00E-1
470,1.36E+0
471,6.40E-1
472,5.60E-1
473,1.16E+0
474,1.04E+0
475,5.60E-1
476,6.40E-1
477,1.20E+0
478,7.20E-1
479,1.12E+0
480,6.40E-1
481,1.12E+0
482,1.16E+0
483,6.40E-1
484,6.40E-1
485,1.04E+0
486,1.12E+0
487,7.20E-1
488,7.20E-1
489,1.16E+0
490,1.12E+0
491,6.80E-1
492,9.60E-1
493,6.00E-1
494,6.00E-1
495,1.08E+0
496,6.40E-1
497,1.56E+0
498,1.08E+0
499,1.72E+0
500,1.40E+0
501,2.04E+0
502,2.08E+0
503,1.48E+0
504,1.56E+0
505,2.04E+0
506,1.92E+0
507,1.44E+0
508,1.48E+0
509,2.00E+0
510,1.56E+0
511,2.16E+0
512,2.16E+0
513,1.56E+0
514,1.92E+0
515,1.20E+0
516,1.20E+0
517,1.96E+0
518,1.36E+0
519,1.96E+0
520,2.04E+0
521,1.68E+0
522,1.60E+0
523,2.08E+0
524,1.84E+0
525,2.12E+0
526,1.92E+0
527,2.12E+0
528,2.16E+0
529,1.92E+0
530,2.12E+0
531,1.92E+0
532,1.96E+0
533,2.12E+0
534,2.12E+0
535,2.00E+0
536,2.12E+0
537,2.00E+0
538,2.12E+0
539,2.00E+0
540,2.12E+0
541,1.96E+0
542,2.12E+0
543,1.96E+0
544,2.12E+0
545,2.00E+0
546,2.16E+0
547,1.96E+0
548,2.16E+0
549,1.88E+0
550,2.16E+0
551,1.80E+0
552,2.00E+0
553,1.48E+0
554,1.76E+0
555,1.12E+0
556,1.24E+0
557,7.60E-1
558,1.32E+0
559,6.80E-1
560,6.40E-1
561,1.24E+0
562,6.80E-1
563,1.36E+0
564,6.80E-1
565,1.12E+0
566,1.12E+0
567,6.80E-1
568,6.80E-1
569,1.16E+0
570,1.16E+0
571,6.80E-1
572,1.16E+0
573,6.40E-1
574,6.80E-1
575,1.12E+0
576,8.40E-1
577,1.32E+0
578,1.44E+0
579,8.40E-1
580,9.20E-1
581,1.52E+0
582,1.04E+0
583,1.64E+0
584,1.80E+0
585,1.28E+0
586,1.16E+0
587,1.80E+0
588,1.40E+0
589,1.88E+0
590,1.76E+0
591,1.20E+0
592,1.84E+0
593,1.44E+0
594,1.44E+0
595,1.84E+0
596,1.96E+0
597,1.56E+0
598,2.00E+0
599,1.64E+0
600,2.00E+0
601,1.52E+0
602,1.96E+0
603,1.48E+0
604,1.96E+0
605,1.68E+0
606,1.68E+0
607,1.92E+0
608,1.72E+0
609,1.92E+0
610,1.92E+0
611,1.60E+0
612,1.88E+0
613,1.28E+0
614,1.88E+0
615,1.12E+0
616,1.24E+0
617,1.84E+0
618,1.80E+0
619,7.60E-1
620,1.40E+0
621,6.00E-1
622,5.60E-1
623,8.00E-1
624,5.60E-1
625,8.40E-1
626,6.40E-1
627,1.08E+0
628,7.20E-1
629,1.36E+0
630,8.00E-1
631,1.44E+0
632,1.00E+0
633,1.56E+0
634,1.68E+0
635,1.04E+0
636,1.48E+0
637,9.20E-1
638,8.00E-1
639,1.48E+0
640,1.28E+0
641,7.60E-1
642,1.32E+0
643,6.40E-1
644,6.80E-1
645,1.36E+0
646,1.08E+0
647,6.00E-1
648,1.16E+0
649,5.60E-1
650,6.00E-1
651,1.00E+0
652,6.00E-1
653,8.40E-1
654,8.00E-1
655,5.60E-1
656,6.00E-1
657,8.00E-1
658,5.60E-1
659,8.00E-1
660,7.20E-1
661,5.60E-1
662,5.60E-1
663,8.40E-1
664,6.80E-1
665,1.00E+0
666,6.80E-1
667,1.12E+0
668,7.20E-1
669,1.20E+0
670,7.60E-1
671,1.20E+0
672,8.40E-1
673,1.36E+0
674,1.12E+0
675,1.76E+0
676,1.60E+0
677,2.04E+0
678,1.80E+0
679,2.04E+0
680,2.04E+0
681,1.92E+0
682,2.04E+0
683,1.88E+0
684,2.04E+0
685,1.88E+0
686,2.08E+0
687,1.84E+0
688,2.04E+0
689,1.76E+0
690,1.76E+0
691,2.04E+0
692,2.04E+0
693,1.84E+0
694,2.04E+0
695,1.60E+0
696,1.92E+0
697,1.52E+0
698,1.76E+0
699,1.20E+0
700,1.24E+0
701,1.80E+0
702,1.24E+0
703,1.72E+0
704,1.68E+0
705,1.20E+0
706,1.48E+0
707,8.40E-1
708,1.16E+0
709,7.20E-1
710,8.80E-1
711,6.00E-1
712,8.40E-1
713,6.00E-1
714,5.60E-1
715,7.60E-1
716,5.60E-1
717,7.20E-1
718,5.60E-1
719,7.20E-1
720,5.60E-1
721,7.20E-1
722,5.60E-1
723,7.60E-1
724,5.60E-1
725,7.20E-1
726,5.60E-1
727,7.60E-1
728,5.60E-1
729,8.40E-1
730,5.60E-1
731,8.80E-1
732,6.00E-1
733,1.08E+0
734,7.20E-1
735,1.40E+0
736,8.40E-1
737,1.36E+0
738,1.40E+0
739,7.20E-1
740,1.64E+0
741,8.00E-1
742,8.00E-1
743,1.72E+0
744,1.76E+0
745,9.20E-1
746,1.76E+0
747,9.60E-1
748,1.00E+0
749,1.60E+0
750,1.12E+0
751,1.60E+0
752,1.64E+0
753,1.16E+0
754,1.08E+0
755,1.64E+0
756,1.08E+0
757,1.56E+0
758,1.08E+0
759,1.60E+0
760,1.20E+0
761,1.64E+0
762,1.36E+0
763,1.84E+0
764,1.80E+0
765,1.36E+0
766,1.28E+0
767,1.76E+0
768,1.72E+0
769,1.08E+0
770,1.52E+0
771,9.20E-1
772,1.44E+0
773,6.40E-1
774,1.16E+0
775,6.00E-1
776,6.80E-1
777,1.16E+0
778,6.40E-1
779,1.08E+0
780,1.00E+0
781,5.60E-1
782,5.60E-1
783,1.72E+0
784,1.40E+0
785,5.60E-1
786,5.60E-1
787,1.76E+0
788,6.00E-1
789,1.52E+0
790,1.40E+0
791,6.00E-1
792,1.40E+0
793,6.00E-1
794,6.00E-1
795,1.64E+0
796,1.40E+0
797,6.80E-1
798,1.28E+0
799,6.40E-1
800,6.40E-1
801,1.16E+0
802,6.80E-1
803,1.16E+0
804,6.40E-1
805,1.16E+0
806,6.00E-1
807,1.04E+0
808,6.00E-1
809,1.00E+0
810,6.00E-1
811,9.20E-1
812,6.00E-1
813,8.40E-1
814,8.40E-1
815,6.00E-1
816,9.20E-1
817,5.60E-1
818,6.00E-1
819,9.20E-1
820,9.60E-1
821,6.00E-1
822,8.80E-1
823,6.00E-1
824,9.20E-1
825,6.00E-1
826,7.60E-1
827,5.60E-1
828,5.60E-1
829,7.60E-1
830,5.60E-1
831,7.60E-1
832,6.00E-1
833,8.00E-1
834,7.60E-1
835,5.60E-1
836,5.60E-1
837,8.00E-1
838,5.60E-1
839,7.20E-1
840,5.60E-1
841,7.60E-1
842,5.60E-1
843,7.20E-1
844,8.00E-1
845,5.60E-1
846,5.60E-1
847,7.20E-1
848,5.60E-1
849,7.20E-1
850,7.20E-1
851,5.60E-1
852,6.80E-1
853,5.60E-1
854,5.60E-1
855,7.60E-1
856,6.00E-1
857,1.00E+0
858,5.60E-1
859,1.08E+0
860,6.00E-1
861,9.20E-1
862,6.00E-1
863,1.04E+0
864,6.00E-1
865,9.60E-1
866,9.60E-1
867,6.00E-1
868,6.00E-1
869,9.20E-1
870,6.00E-1
871,9.20E-1
872,6.00E-1
873,9.20E-1
874,1.00E+0
875,6.00E-1
876,6.00E-1
877,9.20E-1
878,9.60E-1
879,6.00E-1
880,1.00E+0
881,6.00E-1
882,6.00E-1
883,9.60E-1
884,6.00E-1
885,9.20E-1
886,1.00E+0
887,6.40E-1
888,6.00E-1
889,9.20E-1
890,6.00E-1
891,1.00E+0
892,1.08E+0
893,6.00E-1
894,6.40E-1
895,1.04E+0
896,6.00E-1
897,1.24E+0
898,1.04E+0
899,6.40E-1
900,6.40E-1
901,1.04E+0
902,6.00E-1
903,1.24E+0
904,1.12E+0
905,6.40E-1
906,1.12E+0
907,6.80E-1
908,1.20E+0
909,8.00E-1
910,7.60E-1
911,1.20E+0
912,1.32E+0
913,7.60E-1
914,8.40E-1
915,1.24E+0
916,8.80E-1
917,1.32E+0
