metingen/metingen cuvet/3/3_4g6g.csv

X,CH1,Start,Increment
Sequence,VOLT,-1.00E+0,2.00E-2
0,1.08E+0
1,8.80E-1
2,8.80E-1
3,1.16E+0
4,8.80E-1
5,1.08E+0
6,1.12E+0
7,8.80E-1
8,8.80E-1
9,1.16E+0
10,1.16E+0
11,8.80E-1
12,8.80E-1
13,1.08E+0
14,8.80E-1
15,1.08E+0
16,1.08E+0
17,8.40E-1
18,1.08E+0
19,8.80E-1
20,8.80E-1
21,1.04E+0
22,8.80E-1
23,1.08E+0
24,1.08E+0
25,8.40E-1
26,1.08E+0
27,8.40E-1
28,1.12E+0
29,8.80E-1
30,1.08E+0
31,8.40E-1
32,8.40E-1
33,1.12E+0
34,1.12E+0
35,8.40E-1
36,8.40E-1
37,1.12E+0
38,1.08E+0
39,8.40E-1
40,1.08E+0
41,8.80E-1
42,8.40E-1
43,1.12E+0
44,1.08E+0
45,8.80E-1
46,8.40E-1
47,1.04E+0
48,1.04E+0
49,8.40E-1
50,1.08E+0
51,8.40E-1
52,8.80E-1
53,1.04E+0
54,8.40E-1
55,1.04E+0
56,1.08E+0
57,8.40E-1
58,8.40E-1
59,1.04E+0
60,1.04E+0
61,8.40E-1
62,8.40E-1
63,1.04E+0
64,8.40E-1
65,1.12E+0
66,8.40E-1
67,1.04E+0
68,8.80E-1
69,1.04E+0
70,8.40E-1
71,1.12E+0
72,1.12E+0
73,8.80E-1
74,8.80E-1
75,1.04E+0
76,1.12E+0
77,8.40E-1
78,1.12E+0
79,8.80E-1
80,8.80E-1
81,1.08E+0
82,8.80E-1
83,1.12E+0
84,8.80E-1
85,1.12E+0
86,1.08E+0
87,8.80E-1
88,9.20E-1
89,1.12E+0
90,1.12E+0
91,8.80E-1
92,1.20E+0
93,8.40E-1
94,8.80E-1
95,1.32E+0
96,8.80E-1
97,1.20E+0
98,8.40E-1
99,1.36E+0
100,1.32E+0
101,8.00E-1
102,1.36E+0
103,8.00E-1
104,8.40E-1
105,1.36E+0
106,1.36E+0
107,8.40E-1
108,1.40E+0
109,8.40E-1
110,1.40E+0
111,8.00E-1
112,8.40E-1
113,1.28E+0
114,8.80E-1
115,1.24E+0
116,1.24E+0
117,8.80E-1
118,1.20E+0
119,8.40E-1
120,1.32E+0
121,9.20E-1
122,8.80E-1
123,1.20E+0
124,8.80E-1
125,1.16E+0
126,1.20E+0
127,8.80E-1
128,1.20E+0
129,9.20E-1
130,8.80E-1
131,1.20E+0
132,9.20E-1
133,1.16E+0
134,8.40E-1
135,1.20E+0
136,1.20E+0
137,9.20E-1
138,9.20E-1
139,1.16E+0
140,8.40E-1
141,1.16E+0
142,1.24E+0
143,8.80E-1
144,1.20E+0
145,8.80E-1
146,8.80E-1
147,1.24E+0
148,8.40E-1
149,1.28E+0
150,8.40E-1
151,1.20E+0
152,8.80E-1
153,1.16E+0
154,8.80E-1
155,1.20E+0
156,8.40E-1
157,1.12E+0
158,9.20E-1
159,1.20E+0
160,8.40E-1
161,1.24E+0
162,1.20E+0
163,8.80E-1
164,1.20E+0
165,8.80E-1
166,1.16E+0
167,8.40E-1
168,8.40E-1
169,1.24E+0
170,8.80E-1
171,1.24E+0
172,1.20E+0
173,8.40E-1
174,1.24E+0
175,8.80E-1
176,9.20E-1
177,1.20E+0
178,8.80E-1
179,1.28E+0
180,8.80E-1
181,1.24E+0
182,9.20E-1
183,1.36E+0
184,1.32E+0
185,8.40E-1
186,1.28E+0
187,9.60E-1
188,9.60E-1
189,1.24E+0
190,9.60E-1
191,1.24E+0
192,9.60E-1
193,1.20E+0
194,9.60E-1
195,1.24E+0
196,9.20E-1
197,1.24E+0
198,9.60E-1
199,1.24E+0
200,9.20E-1
201,1.32E+0
202,8.80E-1
203,1.24E+0
204,9.60E-1
205,1.28E+0
206,9.20E-1
207,1.32E+0
208,9.60E-1
209,1.28E+0
210,1.24E+0
211,9.60E-1
212,1.24E+0
213,1.00E+0
214,9.60E-1
215,1.36E+0
216,1.32E+0
217,9.20E-1
218,9.60E-1
219,1.28E+0
220,1.00E+0
221,1.36E+0
222,1.04E+0
223,1.36E+0
224,9.60E-1
225,1.36E+0
226,1.00E+0
227,1.36E+0
228,1.36E+0
229,1.00E+0
230,1.36E+0
231,1.00E+0
232,1.08E+0
233,1.32E+0
234,1.32E+0
235,1.04E+0
236,1.04E+0
237,1.36E+0
238,9.20E-1
239,1.56E+0
240,9.60E-1
241,1.40E+0
242,1.36E+0
243,9.60E-1
244,1.48E+0
245,1.00E+0
246,1.12E+0
247,1.36E+0
248,1.00E+0
249,1.36E+0
250,1.00E+0
251,1.40E+0
252,1.40E+0
253,1.00E+0
254,1.36E+0
255,1.08E+0
256,1.04E+0
257,1.36E+0
258,1.00E+0
259,1.40E+0
260,1.08E+0
261,1.28E+0
262,1.08E+0
263,1.32E+0
264,1.28E+0
265,1.08E+0
266,1.32E+0
267,1.04E+0
268,1.04E+0
269,1.36E+0
270,1.36E+0
271,1.04E+0
272,1.08E+0
273,1.32E+0
274,1.32E+0
275,1.00E+0
276,1.36E+0
277,1.08E+0
278,1.04E+0
279,1.40E+0
280,1.08E+0
281,1.36E+0
282,1.08E+0
283,1.36E+0
284,1.32E+0
285,1.08E+0
286,1.12E+0
287,1.32E+0
288,1.32E+0
289,1.04E+0
290,1.12E+0
291,1.32E+0
292,1.32E+0
293,1.04E+0
294,1.04E+0
295,1.36E+0
296,1.08E+0
297,1.40E+0
298,1.04E+0
299,1.40E+0
300,1.04E+0
301,1.40E+0
302,1.44E+0
303,1.04E+0
304,1.36E+0
305,1.04E+0
306,1.48E+0
307,1.00E+0
308,1.36E+0
309,1.04E+0
310,1.40E+0
311,1.04E+0
312,1.48E+0
313,9.60E-1
314,1.44E+0
315,1.08E+0
316,1.04E+0
317,1.44E+0
318,1.00E+0
319,1.40E+0
320,1.44E+0
321,1.00E+0
322,1.44E+0
323,1.04E+0
324,1.04E+0
325,1.44E+0
326,1.08E+0
327,1.44E+0
328,1.04E+0
329,1.40E+0
330,1.44E+0
331,1.04E+0
332,1.00E+0
333,1.48E+0
334,9.60E-1
335,1.52E+0
336,1.04E+0
337,1.48E+0
338,1.40E+0
339,1.00E+0
340,1.44E+0
341,1.04E+0
342,1.44E+0
343,1.04E+0
344,1.12E+0
345,1.36E+0
346,1.40E+0
347,1.04E+0
348,1.40E+0
349,1.08E+0
350,1.16E+0
351,1.36E+0
352,1.40E+0
353,1.12E+0
354,1.36E+0
355,1.12E+0
356,1.40E+0
357,1.08E+0
358,1.40E+0
359,1.12E+0
360,1.12E+0
361,1.40E+0
362,1.08E+0
363,1.44E+0
364,1.44E+0
365,1.12E+0
366,1.48E+0
367,1.08E+0
368,1.40E+0
369,1.16E+0
370,1.12E+0
371,1.40E+0
372,1.12E+0
373,1.44E+0
374,1.44E+0
375,1.04E+0
376,1.36E+0
377,1.16E+0
378,1.44E+0
379,1.12E+0
380,1.12E+0
381,1.44E+0
382,1.08E+0
383,1.40E+0
384,1.16E+0
385,1.40E+0
386,1.04E+0
387,1.52E+0
388,1.52E+0
389,1.16E+0
390,1.12E+0
391,1.44E+0
392,1.04E+0
393,1.56E+0
394,1.48E+0
395,1.08E+0
396,1.40E+0
397,1.12E+0
398,1.12E+0
399,1.52E+0
400,1.04E+0
401,1.44E+0
402,1.16E+0
403,1.36E+0
404,1.12E+0
405,1.44E+0
406,1.40E+0
407,1.20E+0
408,1.16E+0
409,1.40E+0
410,1.48E+0
411,1.16E+0
412,1.44E+0
413,1.12E+0
414,1.44E+0
415,1.20E+0
416,1.20E+0
417,1.48E+0
418,1.52E+0
419,1.16E+0
420,1.52E+0
421,1.08E+0
422,1.56E+0
423,1.00E+0
424,1.08E+0
425,1.56E+0
426,1.44E+0
427,1.20E+0
428,1.48E+0
429,1.20E+0
430,1.44E+0
431,1.20E+0
432,1.48E+0
433,1.04E+0
434,1.60E+0
435,1.04E+0
436,1.16E+0
437,1.52E+0
438,1.12E+0
439,1.44E+0
440,1.52E+0
441,1.12E+0
442,1.16E+0
443,1.52E+0
444,1.48E+0
445,1.16E+0
446,1.24E+0
447,1.52E+0
448,1.20E+0
449,1.52E+0
450,1.24E+0
451,1.48E+0
452,1.44E+0
453,1.24E+0
454,1.16E+0
455,1.52E+0
456,1.24E+0
457,1.48E+0
458,1.28E+0
459,1.48E+0
460,1.24E+0
461,1.52E+0
462,1.24E+0
463,1.56E+0
464,1.56E+0
465,1.24E+0
466,1.28E+0
467,1.56E+0
468,1.20E+0
469,1.56E+0
470,1.52E+0
471,1.24E+0
472,1.48E+0
473,1.24E+0
474,1.28E+0
475,1.52E+0
476,1.24E+0
477,1.48E+0
478,1.48E+0
479,1.24E+0
480,1.48E+0
481,1.20E+0
482,1.48E+0
483,1.20E+0
484,1.20E+0
485,1.56E+0
486,1.56E+0
487,1.16E+0
488,1.20E+0
489,1.52E+0
490,1.52E+0
491,1.20E+0
492,1.12E+0
493,1.48E+0
494,1.16E+0
495,1.52E+0
496,1.40E+0
497,1.08E+0
498,1.32E+0
499,9.20E-1
500,9.60E-1
501,1.48E+0
502,9.60E-1
503,1.44E+0
504,9.60E-1
505,1.40E+0
506,1.36E+0
507,9.60E-1
508,1.36E+0
509,1.08E+0
510,9.60E-1
511,1.40E+0
512,1.32E+0
513,9.60E-1
514,1.32E+0
515,8.40E-1
516,8.40E-1
517,1.08E+0
518,8.40E-1
519,1.08E+0
520,9.60E-1
521,8.00E-1
522,8.00E-1
523,9.60E-1
524,9.20E-1
525,8.00E-1
526,8.00E-1
527,9.20E-1
528,9.20E-1
529,8.00E-1
530,8.00E-1
531,9.20E-1
532,9.20E-1
533,8.00E-1
534,8.00E-1
535,9.20E-1
536,9.20E-1
537,8.00E-1
538,8.00E-1
539,9.20E-1
540,9.60E-1
541,8.00E-1
542,8.00E-1
543,9.20E-1
544,8.00E-1
545,9.20E-1
546,8.00E-1
547,9.20E-1
548,9.20E-1
549,8.00E-1
550,8.40E-1
551,1.04E+0
552,8.80E-1
553,1.16E+0
554,1.08E+0
555,8.40E-1
556,8.80E-1
557,1.08E+0
558,1.08E+0
559,8.40E-1
560,8.40E-1
561,9.60E-1
562,8.40E-1
563,1.00E+0
564,8.40E-1
565,9.60E-1
566,9.20E-1
567,8.00E-1
568,8.40E-1
569,9.60E-1
570,8.40E-1
571,9.60E-1
572,8.40E-1
573,1.00E+0
574,8.80E-1
575,1.08E+0
576,8.80E-1
577,1.08E+0
578,1.08E+0
579,8.40E-1
580,8.80E-1
581,1.08E+0
582,8.40E-1
583,1.04E+0
584,1.04E+0
585,8.40E-1
586,1.04E+0
587,8.80E-1
588,8.00E-1
589,1.00E+0
590,8.00E-1
591,1.16E+0
592,1.12E+0
593,1.64E+0
594,1.64E+0
595,1.36E+0
596,1.64E+0
597,1.28E+0
598,1.36E+0
599,1.12E+0
600,1.20E+0
601,8.80E-1
602,9.60E-1
603,8.00E-1
604,8.00E-1
605,1.00E+0
606,8.80E-1
607,1.16E+0
608,9.60E-1
609,1.32E+0
610,1.12E+0
611,1.48E+0
612,1.16E+0
613,1.56E+0
614,1.20E+0
615,1.60E+0
616,1.28E+0
617,1.64E+0
618,1.64E+0
619,1.28E+0
620,1.36E+0
621,1.60E+0
622,1.28E+0
623,1.60E+0
624,1.32E+0
625,1.64E+0
626,1.36E+0
627,1.64E+0
628,1.36E+0
629,1.64E+0
630,1.60E+0
631,1.28E+0
632,1.64E+0
633,1.28E+0
634,1.60E+0
635,1.28E+0
636,1.28E+0
637,1.52E+0
638,1.56E+0
639,1.16E+0
640,1.56E+0
641,1.16E+0
642,1.16E+0
643,1.60E+0
644,1.64E+0
645,1.28E+0
646,1.36E+0
647,1.64E+0
648,1.52E+0
649,1.68E+0
650,1.68E+0
651,1.52E+0
652,1.64E+0
653,1.44E+0
654,1.16E+0
655,1.60E+0
656,1.04E+0
657,1.48E+0
658,1.04E+0
659,1.44E+0
660,1.00E+0
661,1.40E+0
662,1.20E+0
663,8.80E-1
664,9.60E-1
665,1.28E+0
666,1.32E+0
667,1.00E+0
668,1.28E+0
669,1.00E+0
670,1.28E+0
671,9.20E-1
672,9.60E-1
673,1.28E+0
674,1.08E+0
675,8.40E-1
676,1.04E+0
677,7.60E-1
678,9.20E-1
679,7.60E-1
680,7.60E-1
681,8.80E-1
682,7.60E-1
683,8.80E-1
684,7.60E-1
685,8.80E-1
686,1.00E+0
687,8.00E-1
688,8.00E-1
689,1.12E+0
690,9.20E-1
691,1.44E+0
692,1.08E+0
693,1.44E+0
694,1.52E+0
695,1.20E+0
696,1.20E+0
697,1.68E+0
698,1.72E+0
699,1.52E+0
700,1.56E+0
701,1.76E+0
702,1.76E+0
703,1.64E+0
704,1.76E+0
705,1.64E+0
706,1.68E+0
707,1.80E+0
708,1.80E+0
709,1.56E+0
710,1.80E+0
711,1.52E+0
712,1.72E+0
713,1.48E+0
714,1.80E+0
715,1.16E+0
716,9.20E-1
717,1.76E+0
718,1.72E+0
719,8.80E-1
720,1.76E+0
721,1.08E+0
722,1.76E+0
723,1.20E+0
724,1.60E+0
725,1.12E+0
726,1.08E+0
727,1.60E+0
728,1.56E+0
729,1.04E+0
730,1.40E+0
731,8.80E-1
732,1.28E+0
733,8.40E-1
734,1.12E+0
735,8.00E-1
736,7.60E-1
737,1.04E+0
738,1.04E+0
739,7.60E-1
740,7.60E-1
741,9.20E-1
742,7.60E-1
743,9.20E-1
744,7.60E-1
745,9.60E-1
746,9.20E-1
747,7.60E-1
748,7.60E-1
749,9.60E-1
750,7.60E-1
751,9.20E-1
752,7.60E-1
753,9.60E-1
754,7.60E-1
755,9.60E-1
756,7.60E-1
757,9.60E-1
758,1.04E+0
759,8.40E-1
760,8.00E-1
761,1.16E+0
762,8.40E-1
763,1.12E+0
764,1.16E+0
765,8.00E-1
766,1.20E+0
767,9.20E-1
768,9.60E-1
769,1.40E+0
770,1.40E+0
771,9.20E-1
772,1.12E+0
773,1.56E+0
774,1.68E+0
775,1.36E+0
776,1.56E+0
777,1.84E+0
778,1.84E+0
779,1.68E+0
780,1.84E+0
781,1.68E+0
782,1.84E+0
783,1.72E+0
784,1.84E+0
785,1.68E+0
786,1.84E+0
787,1.68E+0
788,1.84E+0
789,1.56E+0
790,1.48E+0
791,1.80E+0
792,1.36E+0
793,1.72E+0
794,1.64E+0
795,1.32E+0
796,1.20E+0
797,1.60E+0
798,1.16E+0
799,1.64E+0
800,1.20E+0
801,1.60E+0
802,1.28E+0
803,1.60E+0
804,1.52E+0
805,1.08E+0
806,1.52E+0
807,1.00E+0
808,1.00E+0
809,1.56E+0
810,1.40E+0
811,8.40E-1
812,8.00E-1
813,1.16E+0
814,1.00E+0
815,7.60E-1
816,7.60E-1
817,1.04E+0
818,8.00E-1
819,1.20E+0
820,8.80E-1
821,1.16E+0
822,9.60E-1
823,1.40E+0
824,1.20E+0
825,1.72E+0
826,1.44E+0
827,1.76E+0
828,1.48E+0
829,1.84E+0
830,1.56E+0
831,1.84E+0
832,1.60E+0
833,1.84E+0
834,1.84E+0
835,1.64E+0
836,1.68E+0
837,1.84E+0
838,1.84E+0
839,1.56E+0
840,1.84E+0
841,1.48E+0
842,1.76E+0
843,1.48E+0
844,1.68E+0
845,1.32E+0
846,1.48E+0
847,1.12E+0
848,9.20E-1
849,1.32E+0
850,1.24E+0
851,8.40E-1
852,7.60E-1
853,1.00E+0
854,1.00E+0
855,7.60E-1
856,7.60E-1
857,1.24E+0
858,1.00E+0
859,1.32E+0
860,1.12E+0
861,1.68E+0
862,1.52E+0
863,1.88E+0
864,1.88E+0
865,1.72E+0
866,1.84E+0
867,1.56E+0
868,1.64E+0
869,1.00E+0
870,1.40E+0
871,8.80E-1
872,1.20E+0
873,8.80E-1
874,8.00E-1
875,1.08E+0
876,7.60E-1
877,9.20E-1
878,8.80E-1
879,7.60E-1
880,8.00E-1
881,1.04E+0
882,8.00E-1
883,9.60E-1
884,8.40E-1
885,1.16E+0
886,9.60E-1
887,1.48E+0
888,1.40E+0
889,1.00E+0
890,1.08E+0
891,1.60E+0
892,1.64E+0
893,1.16E+0
894,1.16E+0
895,1.60E+0
896,1.36E+0
897,1.80E+0
898,1.44E+0
899,1.96E+0
900,1.76E+0
901,1.96E+0
902,1.96E+0
903,1.84E+0
904,1.96E+0
905,1.68E+0
906,1.92E+0
907,1.64E+0
908,1.64E+0
909,1.92E+0
910,1.84E+0
911,1.44E+0
912,1.24E+0
913,1.68E+0
914,1.12E+0
915,1.56E+0
916,1.48E+0
917,9.60E-1
918,1.20E+0
919,8.00E-1
920,8.00E-1
921,9.20E-1
922,9.20E-1
923,8.00E-1
924,8.00E-1
925,9.20E-1
926,8.00E-1
927,1.00E+0
928,8.00E-1
929,1.16E+0
930,8.00E-1
931,1.20E+0
932,1.28E+0
933,8.80E-1
934,1.04E+0
935,1.36E+0
936,8.40E-1
937,2.00E+0
938,8.40E-1
939,2.00E+0
940,8.00E-1
941,2.00E+0
942,8.40E-1
943,1.96E+0
944,2.00E+0
945,8.00E-1
946,2.00E+0
947,8.00E-1
948,1.96E+0
949,8.40E-1
950,8.00E-1
951,1.96E+0
952,1.96E+0
953,8.40E-1
954,8.00E-1
955,1.96E+0
956,8.00E-1
957,2.00E+0
958,8.00E-1
959,2.00E+0
960,2.00E+0
961,8.00E-1
962,2.00E+0
963,9.20E-1
964,1.24E+0
965,2.00E+0
966,2.00E+0
967,1.20E+0
968,1.24E+0
969,2.00E+0
970,1.56E+0
971,2.00E+0
972,2.00E+0
973,1.44E+0
974,2.00E+0
975,1.64E+0
976,2.00E+0
977,1.76E+0
978,2.00E+0
979,1.84E+0
980,1.84E+0
981,2.00E+0
982,2.00E+0
983,1.84E+0
984,1.84E+0
985,2.00E+0
986,2.00E+0
987,1.84E+0
988,2.00E+0
989,1.88E+0
990,2.00E+0
991,1.84E+0
992,2.00E+0
993,1.76E+0
994,2.00E+0
995,1.84E+0
996,1.88E+0
997,2.00E+0
998,2.00E+0
999,1.80E+0
1000,2.00E+0
1001,1.80E+0
1002,1.76E+0
1003,2.00E+0
1004,1.72E+0
1005,2.00E+0
1006,1.72E+0
1007,2.00E+0
1008,2.00E+0
1009,1.72E+0
1010,1.64E+0
1011,2.00E+0
1012,1.68E+0
1013,1.96E+0
1014,2.00E+0
1015,1.60E+0
1016,2.00E+0
1017,1.68E+0
1018,1.96E+0
1019,1.76E+0
