metingen/metingen suiker/blanco/blanco_2g4g_meting2.csv

X,CH1,Start,Increment
Sequence,VOLT,-2.00E+0,1.00E-2
0,1.04E+0
1,1.28E+0
2,1.36E+0
3,1.04E+0
4,1.12E+0
5,1.36E+0
6,1.00E+0
7,1.36E+0
8,1.28E+0
9,9.60E-1
10,1.24E+0
11,8.80E-1
12,1.24E+0
13,7.60E-1
14,7.60E-1
15,1.00E+0
16,1.04E+0
17,7.60E-1
18,1.00E+0
19,7.20E-1
20,8.80E-1
21,7.20E-1
22,6.80E-1
23,8.40E-1
24,8.00E-1
25,6.80E-1
26,8.00E-1
27,6.80E-1
28,8.40E-1
29,6.80E-1
30,6.80E-1
31,8.80E-1
32,8.00E-1
33,6.80E-1
34,8.00E-1
35,6.80E-1
36,8.80E-1
37,6.80E-1
38,6.80E-1
39,8.40E-1
40,8.40E-1
41,6.80E-1
42,8.00E-1
43,6.80E-1
44,6.80E-1
45,8.00E-1
46,8.00E-1
47,6.80E-1
48,6.80E-1
49,8.00E-1
50,6.80E-1
51,9.20E-1
52,9.20E-1
53,6.80E-1
54,7.20E-1
55,9.20E-1
56,8.80E-1
57,7.20E-1
58,7.20E-1
59,8.80E-1
60,6.80E-1
61,9.20E-1
62,8.00E-1
63,6.80E-1
64,8.80E-1
65,6.80E-1
66,9.20E-1
67,7.20E-1
68,6.80E-1
69,9.60E-1
70,7.20E-1
71,9.60E-1
72,7.20E-1
73,9.60E-1
74,1.08E+0
75,8.00E-1
76,9.20E-1
77,1.16E+0
78,8.80E-1
79,1.32E+0
80,1.24E+0
81,9.20E-1
82,1.24E+0
83,1.00E+0
84,9.60E-1
85,1.28E+0
86,1.04E+0
87,1.32E+0
88,1.16E+0
89,1.44E+0
90,1.44E+0
91,1.24E+0
92,1.36E+0
93,1.48E+0
94,1.36E+0
95,1.48E+0
96,1.40E+0
97,1.52E+0
98,1.36E+0
99,1.48E+0
100,1.48E+0
101,1.28E+0
102,1.48E+0
103,1.24E+0
104,1.48E+0
105,1.24E+0
106,1.12E+0
107,1.40E+0
108,9.20E-1
109,1.32E+0
110,1.16E+0
111,8.80E-1
112,1.00E+0
113,7.60E-1
114,7.60E-1
115,9.60E-1
116,8.40E-1
117,7.20E-1
118,7.20E-1
119,8.80E-1
120,7.60E-1
121,1.00E+0
122,7.60E-1
123,1.04E+0
124,8.40E-1
125,1.12E+0
126,9.60E-1
127,1.24E+0
128,1.12E+0
129,1.44E+0
130,1.28E+0
131,1.48E+0
132,1.40E+0
133,1.52E+0
134,1.48E+0
135,1.32E+0
136,1.44E+0
137,1.16E+0
138,1.36E+0
139,1.04E+0
140,1.16E+0
141,9.20E-1
142,1.00E+0
143,7.60E-1
144,8.40E-1
145,7.20E-1
146,7.20E-1
147,9.20E-1
148,7.20E-1
149,8.40E-1
150,7.60E-1
151,9.60E-1
152,8.40E-1
153,1.08E+0
154,1.04E+0
155,1.40E+0
156,1.24E+0
157,1.44E+0
158,1.48E+0
159,1.36E+0
160,1.48E+0
161,1.20E+0
162,1.36E+0
163,1.04E+0
164,1.12E+0
165,8.40E-1
166,9.60E-1
167,7.60E-1
168,8.80E-1
169,7.20E-1
170,7.20E-1
171,8.00E-1
172,7.20E-1
173,8.40E-1
174,7.20E-1
175,9.60E-1
176,8.40E-1
177,1.12E+0
178,9.20E-1
179,1.24E+0
180,1.04E+0
181,1.36E+0
182,1.20E+0
183,1.40E+0
184,1.32E+0
185,1.48E+0
186,1.44E+0
187,1.32E+0
188,1.44E+0
189,1.12E+0
190,1.36E+0
191,1.08E+0
192,1.24E+0
193,1.00E+0
194,1.20E+0
195,8.40E-1
196,1.08E+0
197,8.00E-1
198,9.60E-1
199,7.20E-1
200,7.20E-1
201,8.40E-1
202,7.20E-1
203,8.40E-1
204,7.20E-1
205,9.20E-1
206,7.60E-1
207,9.20E-1
208,1.00E+0
209,8.00E-1
210,8.40E-1
211,1.04E+0
212,8.80E-1
213,1.12E+0
214,9.20E-1
215,1.16E+0
216,9.60E-1
217,1.24E+0
218,1.12E+0
219,1.36E+0
220,1.28E+0
221,1.44E+0
222,1.32E+0
223,1.48E+0
224,1.48E+0
225,1.32E+0
226,1.44E+0
227,1.24E+0
228,1.40E+0
229,1.12E+0
230,1.24E+0
231,8.80E-1
232,1.00E+0
233,7.60E-1
234,8.40E-1
235,7.20E-1
236,7.20E-1
237,8.40E-1
238,8.40E-1
239,7.20E-1
240,7.60E-1
241,1.00E+0
242,1.16E+0
243,8.80E-1
244,1.00E+0
245,1.32E+0
246,1.04E+0
247,1.40E+0
248,1.20E+0
249,1.44E+0
250,1.28E+0
251,1.44E+0
252,1.36E+0
253,1.48E+0
254,1.48E+0
255,1.28E+0
256,1.44E+0
257,1.16E+0
258,1.40E+0
259,1.20E+0
260,1.36E+0
261,1.04E+0
262,1.40E+0
263,1.00E+0
264,1.28E+0
265,9.60E-1
266,9.60E-1
267,1.28E+0
268,9.60E-1
269,1.20E+0
270,1.20E+0
271,8.40E-1
272,1.20E+0
273,8.80E-1
274,1.08E+0
275,8.40E-1
276,8.00E-1
277,1.04E+0
278,9.60E-1
279,7.60E-1
280,7.60E-1
281,9.20E-1
282,8.40E-1
283,7.20E-1
284,8.40E-1
285,7.20E-1
286,8.40E-1
287,7.20E-1
288,7.60E-1
289,8.80E-1
290,7.20E-1
291,8.80E-1
292,7.60E-1
293,8.80E-1
294,7.20E-1
295,9.20E-1
296,7.60E-1
297,8.80E-1
298,9.20E-1
299,7.20E-1
300,9.20E-1
301,7.60E-1
302,9.20E-1
303,7.60E-1
304,7.60E-1
305,1.00E+0
306,7.60E-1
307,9.60E-1
308,9.60E-1
309,7.60E-1
310,1.00E+0
311,7.60E-1
312,7.60E-1
313,9.60E-1
314,7.60E-1
315,1.04E+0
316,9.60E-1
317,7.60E-1
318,1.04E+0
319,8.00E-1
320,1.08E+0
321,8.40E-1
322,8.80E-1
323,1.08E+0
324,8.80E-1
325,1.08E+0
326,1.08E+0
327,8.40E-1
328,1.24E+0
329,8.80E-1
330,9.60E-1
331,1.28E+0
332,9.60E-1
333,1.32E+0
334,1.36E+0
335,1.04E+0
336,1.40E+0
337,1.08E+0
338,1.04E+0
339,1.36E+0
340,1.36E+0
341,1.12E+0
342,1.36E+0
343,1.04E+0
344,1.32E+0
345,1.16E+0
346,1.08E+0
347,1.36E+0
348,1.08E+0
349,1.36E+0
350,1.40E+0
351,1.16E+0
352,1.40E+0
353,1.16E+0
354,1.24E+0
355,1.40E+0
356,1.20E+0
357,1.44E+0
358,1.24E+0
359,1.44E+0
360,1.32E+0
361,1.44E+0
362,1.32E+0
363,1.44E+0
364,1.44E+0
365,1.32E+0
366,1.32E+0
367,1.44E+0
368,1.32E+0
369,1.44E+0
370,1.44E+0
371,1.32E+0
372,1.44E+0
373,1.28E+0
374,1.44E+0
375,1.24E+0
376,1.40E+0
377,1.12E+0
378,1.32E+0
379,1.08E+0
380,1.24E+0
381,9.60E-1
382,1.24E+0
383,1.00E+0
384,9.60E-1
385,1.20E+0
386,9.20E-1
387,1.20E+0
388,1.12E+0
389,8.40E-1
390,1.08E+0
391,8.00E-1
392,9.60E-1
393,8.00E-1
394,9.60E-1
395,7.60E-1
396,8.40E-1
397,7.60E-1
398,7.60E-1
399,8.40E-1
400,8.40E-1
401,7.60E-1
402,7.60E-1
403,8.80E-1
404,7.60E-1
405,9.60E-1
406,8.00E-1
407,9.60E-1
408,8.80E-1
409,1.12E+0
410,8.40E-1
411,1.16E+0
412,1.00E+0
413,1.24E+0
414,1.00E+0
415,1.32E+0
416,1.16E+0
417,1.36E+0
418,1.24E+0
419,1.44E+0
420,1.44E+0
421,1.32E+0
422,1.44E+0
423,1.32E+0
424,1.44E+0
425,1.32E+0
426,1.44E+0
427,1.32E+0
428,1.44E+0
429,1.24E+0
430,1.36E+0
431,1.12E+0
432,1.24E+0
433,9.20E-1
434,1.24E+0
435,9.20E-1
436,9.20E-1
437,1.16E+0
438,1.12E+0
439,8.40E-1
440,1.00E+0
441,8.00E-1
442,9.20E-1
443,7.60E-1
444,8.40E-1
445,7.20E-1
446,7.60E-1
447,9.20E-1
448,7.60E-1
449,1.04E+0
450,8.80E-1
451,1.12E+0
452,1.04E+0
453,1.24E+0
454,1.04E+0
455,1.32E+0
456,1.08E+0
457,1.32E+0
458,1.20E+0
459,1.36E+0
460,1.44E+0
461,1.20E+0
462,1.28E+0
463,1.44E+0
464,1.44E+0
465,1.36E+0
466,1.44E+0
467,1.28E+0
468,1.32E+0
469,1.44E+0
470,1.40E+0
471,1.20E+0
472,1.36E+0
473,1.12E+0
474,1.28E+0
475,9.60E-1
476,1.28E+0
477,9.60E-1
478,9.60E-1
479,1.16E+0
480,1.20E+0
481,8.80E-1
482,1.12E+0
483,8.40E-1
484,9.60E-1
485,7.60E-1
486,7.60E-1
487,8.80E-1
488,7.60E-1
489,8.80E-1
490,7.60E-1
491,9.60E-1
492,8.00E-1
493,1.08E+0
494,9.20E-1
495,1.20E+0
496,1.36E+0
497,1.08E+0
498,1.20E+0
499,1.36E+0
500,1.20E+0
501,1.40E+0
502,1.40E+0
503,1.28E+0
504,1.32E+0
505,1.44E+0
506,1.40E+0
507,1.28E+0
508,1.40E+0
509,1.16E+0
510,1.12E+0
511,1.36E+0
512,1.24E+0
513,1.04E+0
514,1.20E+0
515,8.80E-1
516,1.08E+0
517,8.00E-1
518,8.80E-1
519,7.60E-1
520,7.60E-1
521,8.80E-1
522,1.04E+0
523,7.60E-1
524,7.60E-1
525,1.28E+0
526,8.00E-1
527,1.16E+0
528,8.80E-1
529,1.24E+0
530,1.28E+0
531,9.60E-1
532,1.04E+0
533,1.32E+0
534,1.12E+0
535,1.36E+0
536,1.24E+0
537,1.40E+0
538,1.40E+0
539,1.28E+0
540,1.40E+0
541,1.16E+0
542,1.32E+0
543,1.08E+0
544,1.20E+0
545,9.20E-1
546,1.12E+0
547,8.40E-1
548,9.60E-1
549,7.60E-1
550,7.60E-1
551,9.60E-1
552,8.00E-1
553,1.04E+0
554,9.20E-1
555,1.08E+0
556,9.60E-1
557,1.24E+0
558,1.04E+0
559,1.32E+0
560,1.20E+0
561,1.40E+0
562,1.44E+0
563,1.24E+0
564,1.36E+0
565,1.44E+0
566,1.44E+0
567,1.32E+0
568,1.44E+0
569,1.28E+0
570,1.40E+0
571,1.20E+0
572,1.32E+0
573,1.08E+0
574,1.24E+0
575,1.00E+0
576,1.24E+0
577,9.20E-1
578,1.08E+0
579,8.80E-1
580,1.04E+0
581,8.00E-1
582,9.60E-1
583,8.00E-1
584,8.80E-1
585,7.60E-1
586,7.60E-1
587,9.60E-1
588,8.00E-1
589,9.60E-1
590,8.40E-1
591,1.08E+0
592,9.20E-1
593,1.20E+0
594,1.08E+0
595,1.28E+0
596,1.12E+0
597,1.36E+0
598,1.20E+0
599,1.40E+0
600,1.24E+0
601,1.44E+0
602,1.36E+0
603,1.44E+0
604,1.44E+0
605,1.32E+0
606,1.40E+0
607,1.24E+0
608,1.36E+0
609,1.16E+0
610,1.28E+0
611,1.04E+0
612,1.24E+0
613,9.60E-1
614,1.12E+0
615,8.40E-1
616,1.00E+0
617,8.00E-1
618,8.00E-1
619,9.20E-1
620,8.00E-1
621,8.80E-1
622,8.00E-1
623,8.80E-1
624,9.20E-1
625,8.00E-1
626,8.00E-1
627,8.80E-1
628,8.00E-1
629,9.60E-1
630,8.40E-1
631,1.04E+0
632,8.40E-1
633,1.08E+0
634,8.80E-1
635,1.16E+0
636,1.00E+0
637,1.24E+0
638,1.08E+0
639,1.32E+0
640,1.36E+0
641,1.20E+0
642,1.24E+0
643,1.44E+0
644,1.44E+0
645,1.32E+0
646,1.44E+0
647,1.32E+0
648,1.44E+0
649,1.20E+0
650,1.12E+0
651,1.36E+0
652,1.24E+0
653,1.00E+0
654,1.28E+0
655,9.60E-1
656,1.16E+0
657,8.40E-1
658,9.60E-1
659,8.00E-1
660,8.00E-1
661,1.08E+0
662,9.60E-1
663,1.36E+0
664,1.24E+0
665,1.48E+0
666,1.48E+0
667,1.20E+0
668,1.40E+0
669,1.00E+0
670,1.12E+0
671,8.00E-1
672,8.00E-1
673,9.60E-1
674,8.80E-1
675,1.20E+0
676,9.20E-1
677,1.40E+0
678,1.16E+0
679,1.48E+0
680,1.32E+0
681,1.52E+0
682,1.52E+0
683,1.28E+0
684,1.36E+0
685,8.80E-1
686,1.16E+0
687,8.00E-1
688,8.00E-1
689,9.60E-1
690,8.40E-1
691,1.24E+0
692,1.08E+0
693,1.48E+0
694,1.52E+0
695,1.32E+0
696,1.40E+0
697,1.00E+0
698,1.12E+0
699,8.40E-1
700,1.00E+0
701,8.00E-1
702,8.00E-1
703,9.60E-1
704,1.08E+0
705,8.40E-1
706,9.20E-1
707,1.20E+0
708,9.60E-1
709,1.36E+0
710,1.08E+0
711,1.40E+0
712,1.28E+0
713,1.52E+0
714,1.40E+0
715,1.56E+0
716,1.44E+0
717,1.56E+0
718,1.56E+0
719,1.32E+0
720,1.48E+0
721,1.28E+0
722,1.44E+0
723,1.08E+0
724,1.36E+0
725,9.20E-1
726,1.20E+0
727,8.40E-1
728,8.00E-1
729,1.16E+0
730,7.60E-1
731,9.20E-1
732,9.20E-1
733,7.60E-1
734,9.20E-1
735,7.60E-1
736,7.60E-1
737,8.80E-1
738,8.00E-1
739,1.04E+0
740,8.80E-1
741,1.12E+0
742,8.80E-1
743,1.24E+0
744,1.04E+0
745,1.40E+0
746,1.24E+0
747,1.52E+0
748,1.44E+0
749,1.56E+0
750,1.56E+0
751,1.32E+0
752,1.48E+0
753,1.08E+0
754,1.32E+0
755,1.04E+0
756,1.12E+0
757,8.40E-1
758,9.60E-1
759,7.60E-1
760,7.60E-1
761,9.60E-1
762,8.40E-1
763,1.20E+0
764,9.20E-1
765,1.28E+0
766,1.08E+0
767,1.44E+0
768,1.28E+0
769,1.56E+0
770,1.44E+0
771,1.60E+0
772,1.60E+0
773,1.36E+0
774,1.48E+0
775,1.24E+0
776,1.40E+0
777,1.00E+0
778,1.24E+0
779,8.80E-1
780,1.00E+0
781,8.00E-1
782,7.60E-1
783,8.80E-1
784,7.60E-1
785,9.20E-1
786,7.60E-1
787,1.20E+0
788,9.20E-1
789,1.32E+0
790,1.24E+0
791,1.48E+0
792,1.44E+0
793,1.64E+0
794,1.60E+0
795,1.36E+0
796,1.52E+0
797,1.00E+0
798,1.24E+0
799,8.80E-1
800,9.60E-1
801,7.60E-1
802,7.60E-1
803,9.20E-1
804,8.00E-1
805,1.20E+0
806,1.04E+0
807,1.44E+0
808,1.32E+0
809,1.56E+0
810,1.44E+0
811,1.64E+0
812,1.64E+0
813,1.44E+0
814,1.60E+0
815,1.20E+0
816,1.32E+0
817,9.20E-1
818,1.16E+0
819,8.00E-1
820,9.60E-1
821,7.20E-1
822,7.20E-1
823,9.60E-1
824,9.20E-1
825,1.36E+0
826,1.28E+0
827,1.68E+0
828,1.68E+0
829,1.44E+0
830,1.60E+0
831,1.04E+0
832,1.28E+0
833,7.60E-1
834,8.40E-1
835,7.20E-1
836,7.60E-1
837,1.12E+0
838,8.80E-1
839,1.36E+0
840,1.16E+0
841,1.52E+0
842,1.36E+0
843,1.64E+0
844,1.48E+0
845,1.72E+0
846,1.60E+0
847,1.76E+0
848,1.68E+0
849,1.32E+0
850,1.44E+0
851,1.00E+0
852,1.20E+0
853,8.00E-1
854,9.60E-1
855,7.20E-1
856,7.60E-1
857,9.60E-1
858,8.80E-1
859,1.40E+0
860,1.36E+0
861,1.76E+0
862,1.80E+0
863,1.56E+0
864,1.64E+0
865,1.24E+0
866,1.32E+0
867,7.60E-1
868,9.20E-1
869,7.20E-1
870,8.00E-1
871,1.52E+0
872,1.12E+0
873,1.76E+0
874,1.68E+0
875,1.80E+0
876,1.76E+0
877,1.16E+0
878,1.44E+0
879,7.60E-1
880,7.60E-1
881,1.08E+0
882,9.60E-1
883,1.52E+0
884,1.44E+0
885,1.84E+0
886,1.84E+0
887,1.44E+0
888,1.68E+0
889,9.60E-1
890,1.04E+0
891,7.60E-1
892,7.60E-1
893,1.16E+0
894,1.12E+0
895,1.76E+0
896,1.52E+0
897,1.84E+0
898,1.88E+0
899,1.72E+0
900,1.84E+0
901,1.44E+0
902,1.80E+0
903,1.36E+0
904,1.48E+0
905,1.08E+0
906,1.28E+0
907,9.60E-1
908,1.12E+0
909,8.80E-1
910,1.04E+0
911,7.20E-1
912,9.20E-1
913,7.20E-1
914,7.20E-1
915,9.20E-1
916,7.60E-1
917,9.60E-1
918,8.40E-1
919,1.16E+0
920,8.00E-1
921,1.24E+0
922,9.60E-1
923,1.32E+0
924,1.60E+0
925,1.16E+0
926,1.72E+0
927,1.44E+0
928,1.60E+0
929,1.84E+0
930,1.68E+0
931,1.88E+0
932,1.88E+0
933,1.76E+0
934,1.88E+0
935,1.60E+0
936,1.84E+0
937,1.60E+0
938,1.60E+0
939,1.88E+0
940,1.84E+0
941,1.48E+0
942,1.80E+0
943,1.40E+0
944,1.76E+0
945,1.20E+0
946,1.56E+0
947,1.16E+0
948,1.40E+0
949,9.60E-1
950,9.20E-1
951,1.40E+0
952,9.20E-1
953,1.32E+0
954,1.40E+0
955,8.00E-1
956,1.20E+0
957,9.20E-1
958,8.40E-1
959,1.20E+0
960,1.16E+0
961,8.40E-1
962,1.16E+0
963,8.00E-1
964,9.60E-1
965,8.00E-1
966,7.60E-1
967,1.04E+0
968,7.20E-1
969,1.00E+0
970,9.20E-1
971,7.60E-1
972,9.20E-1
973,7.20E-1
974,1.04E+0
975,7.20E-1
976,9.20E-1
977,7.60E-1
978,7.20E-1
979,9.20E-1
980,8.40E-1
981,7.20E-1
982,8.40E-1
983,7.20E-1
984,8.80E-1
985,7.20E-1
986,7.20E-1
987,9.60E-1
988,7.20E-1
989,1.04E+0
990,8.40E-1
991,1.24E+0
992,1.40E+0
993,9.20E-1
994,1.16E+0
995,1.48E+0
996,1.16E+0
997,1.72E+0
998,1.24E+0
999,1.64E+0
1000,1.72E+0
1001,1.32E+0
1002,1.76E+0
1003,1.36E+0
1004,1.44E+0
1005,1.76E+0
1006,1.36E+0
1007,1.84E+0
1008,1.80E+0
1009,1.56E+0
1010,1.84E+0
1011,1.48E+0
1012,1.64E+0
1013,1.44E+0
1014,1.60E+0
1015,1.24E+0
1016,1.60E+0
1017,9.60E-1
1018,8.80E-1
1019,1.32E+0
1020,1.80E+0
1021,7.20E-1
1022,1.80E+0
1023,7.60E-1
1024,7.60E-1
1025,1.64E+0
1026,1.60E+0
1027,7.20E-1
1028,1.40E+0
1029,7.20E-1
1030,7.60E-1
1031,1.84E+0
1032,7.60E-1
1033,1.84E+0
1034,7.60E-1
1035,1.88E+0
1036,7.20E-1
1037,1.84E+0
1038,7.20E-1
1039,1.64E+0
1040,1.64E+0
1041,7.20E-1
1042,7.20E-1
1043,1.80E+0
1044,1.76E+0
1045,7.20E-1
1046,7.20E-1
1047,1.88E+0
1048,7.60E-1
1049,1.84E+0
1050,1.88E+0
1051,7.60E-1
1052,1.84E+0
1053,7.60E-1
1054,7.60E-1
1055,1.80E+0
1056,1.52E+0
1057,7.60E-1
1058,7.60E-1
1059,1.52E+0
1060,7.60E-1
1061,1.56E+0
1062,1.40E+0
1063,7.60E-1
1064,1.88E+0
1065,7.20E-1
1066,7.20E-1
1067,1.88E+0
1068,1.88E+0
1069,7.20E-1
1070,1.68E+0
1071,7.20E-1
1072,7.20E-1
1073,1.52E+0
1074,1.88E+0
1075,7.20E-1
1076,7.20E-1
1077,1.92E+0
1078,1.92E+0
1079,7.60E-1
1080,7.60E-1
1081,1.72E+0
1082,7.60E-1
1083,1.68E+0
1084,7.60E-1
1085,1.84E+0
1086,7.20E-1
1087,1.80E+0
1088,8.40E-1
1089,1.80E+0
1090,1.84E+0
1091,1.16E+0
1092,1.36E+0
1093,1.84E+0
1094,1.88E+0
1095,7.60E-1
1096,1.88E+0
1097,8.80E-1
1098,1.92E+0
1099,1.32E+0
1100,1.28E+0
1101,1.92E+0
1102,1.88E+0
1103,7.60E-1
1104,8.40E-1
1105,1.92E+0
1106,1.88E+0
1107,1.04E+0
1108,1.88E+0
1109,1.24E+0
1110,7.60E-1
1111,1.92E+0
1112,1.88E+0
1113,9.60E-1
1114,1.84E+0
1115,9.20E-1
1116,1.80E+0
1117,8.00E-1
1118,1.76E+0
1119,9.60E-1
1120,1.84E+0
1121,1.08E+0
1122,1.76E+0
1123,1.00E+0
1124,8.80E-1
1125,1.84E+0
1126,9.20E-1
1127,1.64E+0
1128,1.76E+0
1129,1.08E+0
1130,1.84E+0
1131,8.80E-1
1132,1.72E+0
1133,1.04E+0
1134,8.00E-1
1135,1.64E+0
1136,1.72E+0
1137,7.60E-1
1138,1.68E+0
1139,8.00E-1
1140,1.52E+0
1141,7.60E-1
1142,9.60E-1
1143,1.56E+0
1144,7.60E-1
1145,1.56E+0
1146,1.36E+0
1147,7.60E-1
1148,1.36E+0
1149,8.00E-1
1150,1.16E+0
1151,8.00E-1
1152,8.00E-1
1153,1.20E+0
1154,7.60E-1
1155,1.20E+0
1156,1.24E+0
1157,8.00E-1
1158,7.60E-1
1159,1.28E+0
1160,7.60E-1
1161,1.08E+0
1162,1.00E+0
1163,7.60E-1
1164,1.16E+0
1165,7.60E-1
1166,1.00E+0
1167,7.60E-1
1168,7.60E-1
1169,1.00E+0
1170,7.60E-1
1171,9.20E-1
1172,9.20E-1
1173,7.60E-1
1174,1.08E+0
1175,7.60E-1
1176,9.60E-1
1177,7.60E-1
1178,7.60E-1
1179,1.16E+0
1180,7.60E-1
1181,9.60E-1
1182,1.00E+0
1183,7.60E-1
1184,7.60E-1
1185,1.04E+0
1186,8.00E-1
1187,1.08E+0
1188,1.04E+0
1189,7.60E-1
1190,1.00E+0
1191,8.00E-1
1192,7.60E-1
1193,1.08E+0
1194,7.60E-1
1195,9.60E-1
1196,7.60E-1
1197,1.00E+0
1198,1.00E+0
1199,7.60E-1
1200,7.60E-1
1201,9.60E-1
1202,7.60E-1
1203,9.60E-1
1204,8.40E-1
1205,7.20E-1
1206,7.60E-1
1207,8.80E-1
1208,8.80E-1
1209,7.20E-1
1210,7.20E-1
1211,9.20E-1
1212,7.60E-1
1213,8.80E-1
1214,7.60E-1
1215,8.40E-1
1216,7.60E-1
1217,9.20E-1
1218,8.40E-1
1219,7.20E-1
1220,8.40E-1
1221,7.20E-1
1222,7.60E-1
1223,1.88E+0
1224,1.88E+0
1225,7.60E-1
1226,1.88E+0
1227,7.60E-1
1228,7.60E-1
1229,1.56E+0
1230,1.20E+0
1231,7.20E-1
1232,7.60E-1
1233,1.00E+0
1234,1.00E+0
1235,7.20E-1
1236,9.20E-1
1237,7.20E-1
1238,9.20E-1
1239,7.20E-1
1240,7.20E-1
1241,9.60E-1
1242,8.40E-1
1243,7.20E-1
1244,8.40E-1
1245,7.20E-1
1246,9.20E-1
1247,7.20E-1
1248,7.60E-1
1249,9.20E-1
1250,7.20E-1
1251,9.20E-1
1252,8.80E-1
1253,7.60E-1
1254,1.00E+0
1255,7.20E-1
1256,7.20E-1
1257,9.20E-1
1258,7.20E-1
1259,1.04E+0
1260,1.00E+0
1261,7.20E-1
1262,9.20E-1
1263,7.20E-1
1264,7.60E-1
1265,1.00E+0
1266,7.20E-1
1267,9.20E-1
1268,8.80E-1
1269,7.20E-1
1270,8.80E-1
1271,7.60E-1
1272,8.80E-1
1273,7.20E-1
1274,8.80E-1
1275,7.20E-1
1276,7.60E-1
1277,8.80E-1
1278,7.20E-1
1279,9.20E-1
1280,9.20E-1
1281,7.60E-1
1282,7.60E-1
1283,1.00E+0
1284,7.60E-1
1285,1.04E+0
1286,7.60E-1
1287,9.20E-1
1288,9.60E-1
1289,7.20E-1
1290,7.60E-1
1291,8.80E-1
1292,7.60E-1
1293,9.20E-1
