metingen/metingen suiker/blanco/blanco_2g.csv

X,CH1,Start,Increment
Sequence,VOLT,-6.00E-1,8.00E-3
0,6.00E-1
1,6.80E-1
2,6.00E-1
3,6.80E-1
4,6.00E-1
5,7.20E-1
6,6.00E-1
7,7.20E-1
8,6.00E-1
9,7.20E-1
10,7.60E-1
11,6.00E-1
12,6.00E-1
13,7.60E-1
14,8.00E-1
15,6.00E-1
16,6.00E-1
17,8.80E-1
18,6.00E-1
19,8.80E-1
20,6.40E-1
21,9.20E-1
22,6.00E-1
23,1.00E+0
24,9.20E-1
25,6.80E-1
26,7.20E-1
27,1.00E+0
28,6.80E-1
29,1.00E+0
30,1.00E+0
31,6.80E-1
32,7.60E-1
33,9.20E-1
34,1.00E+0
35,6.40E-1
36,9.60E-1
37,7.60E-1
38,7.20E-1
39,1.00E+0
40,1.16E+0
41,7.60E-1
42,8.00E-1
43,1.16E+0
44,1.08E+0
45,8.80E-1
46,9.60E-1
47,1.28E+0
48,9.60E-1
49,1.36E+0
50,1.40E+0
51,1.08E+0
52,1.04E+0
53,1.48E+0
54,1.12E+0
55,1.36E+0
56,1.16E+0
57,1.40E+0
58,1.12E+0
59,1.40E+0
60,1.12E+0
61,1.36E+0
62,1.12E+0
63,1.36E+0
64,1.00E+0
65,1.40E+0
66,1.04E+0
67,1.40E+0
68,1.40E+0
69,1.08E+0
70,1.32E+0
71,1.08E+0
72,1.36E+0
73,1.16E+0
74,1.12E+0
75,1.44E+0
76,1.48E+0
77,1.08E+0
78,1.44E+0
79,1.16E+0
80,1.44E+0
81,1.16E+0
82,1.20E+0
83,1.40E+0
84,1.24E+0
85,1.40E+0
86,1.44E+0
87,1.20E+0
88,1.16E+0
89,1.40E+0
90,1.40E+0
91,1.12E+0
92,1.04E+0
93,1.36E+0
94,9.60E-1
95,1.28E+0
96,1.04E+0
97,1.24E+0
98,9.60E-1
99,1.32E+0
100,9.20E-1
101,1.32E+0
102,1.24E+0
103,1.04E+0
104,8.80E-1
105,1.28E+0
106,1.28E+0
107,8.40E-1
108,1.04E+0
109,7.60E-1
110,1.04E+0
111,8.00E-1
112,1.08E+0
113,8.40E-1
114,1.00E+0
115,1.24E+0
116,1.24E+0
117,9.60E-1
118,1.08E+0
119,1.44E+0
120,1.08E+0
121,1.36E+0
122,1.44E+0
123,9.60E-1
124,9.60E-1
125,1.36E+0
126,1.08E+0
127,1.28E+0
128,1.16E+0
129,1.44E+0
130,1.04E+0
131,1.44E+0
132,1.36E+0
133,1.12E+0
134,1.08E+0
135,1.40E+0
136,1.04E+0
137,1.36E+0
138,1.40E+0
139,1.20E+0
140,1.08E+0
141,1.52E+0
142,1.52E+0
143,1.04E+0
144,1.44E+0
145,1.20E+0
146,1.44E+0
147,1.20E+0
148,1.44E+0
149,1.24E+0
150,1.52E+0
151,1.24E+0
152,1.52E+0
153,1.20E+0
154,1.32E+0
155,1.56E+0
156,1.40E+0
157,1.56E+0
158,1.56E+0
159,1.44E+0
160,1.44E+0
161,1.60E+0
162,1.48E+0
163,1.60E+0
164,1.60E+0
165,1.40E+0
166,1.60E+0
167,1.40E+0
168,1.44E+0
169,1.60E+0
170,1.56E+0
171,1.44E+0
172,1.60E+0
173,1.40E+0
174,1.56E+0
175,1.40E+0
176,1.60E+0
177,1.28E+0
178,1.32E+0
179,1.56E+0
180,1.40E+0
181,1.52E+0
182,1.56E+0
183,1.32E+0
184,1.32E+0
185,1.56E+0
186,1.44E+0
187,1.24E+0
188,1.20E+0
189,1.56E+0
190,1.44E+0
191,1.16E+0
192,1.20E+0
193,1.40E+0
194,1.04E+0
195,1.40E+0
196,1.36E+0
197,1.04E+0
198,1.40E+0
199,1.20E+0
200,1.08E+0
201,1.40E+0
202,1.40E+0
203,1.04E+0
204,1.08E+0
205,1.36E+0
206,1.44E+0
207,1.12E+0
208,1.44E+0
209,1.20E+0
210,1.24E+0
211,1.40E+0
212,1.44E+0
213,1.04E+0
214,1.16E+0
215,1.52E+0
216,1.24E+0
217,1.48E+0
218,1.56E+0
219,1.24E+0
220,1.24E+0
221,1.48E+0
222,1.24E+0
223,1.48E+0
224,1.20E+0
225,1.52E+0
226,1.20E+0
227,1.52E+0
228,1.24E+0
229,1.52E+0
230,1.16E+0
231,1.48E+0
232,1.40E+0
233,1.12E+0
234,1.36E+0
235,1.08E+0
236,1.32E+0
237,1.04E+0
238,1.24E+0
239,9.60E-1
240,1.16E+0
241,8.00E-1
242,1.24E+0
243,8.00E-1
244,9.60E-1
245,1.20E+0
246,1.24E+0
247,8.80E-1
248,1.32E+0
249,8.80E-1
250,9.60E-1
251,1.24E+0
252,1.32E+0
253,9.60E-1
254,9.60E-1
255,1.44E+0
256,1.36E+0
257,1.12E+0
258,1.44E+0
259,1.12E+0
260,1.00E+0
261,1.44E+0
262,1.08E+0
263,1.32E+0
264,1.36E+0
265,1.04E+0
266,9.60E-1
267,1.40E+0
268,1.32E+0
269,9.60E-1
270,1.08E+0
271,1.32E+0
272,1.28E+0
273,9.20E-1
274,1.28E+0
275,9.60E-1
276,1.00E+0
277,1.28E+0
278,1.32E+0
279,8.40E-1
280,1.32E+0
281,1.00E+0
282,9.60E-1
283,1.24E+0
284,1.36E+0
285,1.00E+0
286,1.00E+0
287,1.28E+0
288,1.32E+0
289,1.00E+0
290,1.36E+0
291,9.20E-1
292,9.20E-1
293,1.32E+0
294,1.24E+0
295,1.00E+0
296,1.00E+0
297,1.36E+0
298,1.00E+0
299,1.28E+0
300,1.04E+0
301,1.28E+0
302,9.60E-1
303,1.36E+0
304,1.12E+0
305,1.32E+0
306,1.08E+0
307,1.44E+0
308,1.40E+0
309,1.00E+0
310,1.40E+0
311,1.16E+0
312,1.16E+0
313,1.44E+0
314,1.44E+0
315,1.12E+0
316,1.44E+0
317,1.24E+0
318,1.44E+0
319,1.20E+0
320,1.44E+0
321,1.20E+0
322,1.44E+0
323,1.24E+0
324,1.48E+0
325,1.20E+0
326,1.24E+0
327,1.52E+0
328,1.44E+0
329,1.28E+0
330,1.52E+0
331,1.28E+0
332,1.28E+0
333,1.56E+0
334,1.32E+0
335,1.56E+0
336,1.56E+0
337,1.40E+0
338,1.36E+0
339,1.56E+0
340,1.56E+0
341,1.40E+0
342,1.40E+0
343,1.56E+0
344,1.56E+0
345,1.40E+0
346,1.56E+0
347,1.40E+0
348,1.36E+0
349,1.52E+0
350,1.52E+0
351,1.24E+0
352,1.40E+0
353,1.52E+0
354,1.52E+0
355,1.20E+0
356,1.52E+0
357,1.36E+0
358,1.48E+0
359,1.36E+0
360,1.52E+0
361,1.32E+0
362,1.40E+0
363,1.52E+0
364,1.40E+0
365,1.52E+0
366,1.52E+0
367,1.40E+0
368,1.40E+0
369,1.52E+0
370,1.40E+0
371,1.52E+0
372,1.40E+0
373,1.48E+0
374,1.48E+0
375,1.40E+0
376,1.48E+0
377,1.40E+0
378,1.40E+0
379,1.48E+0
380,1.40E+0
381,1.48E+0
382,1.36E+0
383,1.48E+0
384,1.40E+0
385,1.48E+0
386,1.40E+0
387,1.52E+0
388,1.52E+0
389,1.32E+0
390,1.48E+0
391,1.28E+0
392,1.20E+0
393,1.44E+0
394,1.40E+0
395,1.20E+0
396,1.12E+0
397,1.48E+0
398,1.40E+0
399,1.12E+0
400,1.36E+0
401,1.20E+0
402,1.36E+0
403,1.16E+0
404,1.40E+0
405,1.16E+0
406,1.16E+0
407,1.36E+0
408,1.32E+0
409,9.20E-1
410,1.32E+0
411,8.80E-1
412,1.04E+0
413,8.40E-1
414,1.12E+0
415,8.00E-1
416,1.24E+0
417,8.40E-1
418,8.40E-1
419,1.16E+0
420,8.80E-1
421,1.16E+0
422,1.08E+0
423,8.40E-1
424,1.08E+0
425,7.20E-1
426,7.20E-1
427,1.00E+0
428,6.80E-1
429,9.20E-1
430,9.20E-1
431,6.80E-1
432,6.40E-1
433,9.60E-1
434,8.40E-1
435,6.40E-1
436,7.60E-1
437,6.00E-1
438,6.80E-1
439,6.00E-1
440,6.00E-1
441,7.60E-1
442,6.00E-1
443,7.20E-1
444,6.00E-1
445,8.00E-1
446,6.40E-1
447,8.80E-1
448,7.20E-1
449,9.20E-1
450,7.20E-1
451,1.00E+0
452,7.60E-1
453,1.08E+0
454,8.80E-1
455,1.20E+0
456,9.20E-1
457,1.32E+0
458,1.36E+0
459,1.12E+0
460,1.16E+0
461,1.40E+0
462,1.44E+0
463,1.20E+0
464,1.48E+0
465,1.32E+0
466,1.40E+0
467,1.52E+0
468,1.48E+0
469,1.36E+0
470,1.48E+0
471,1.36E+0
472,1.32E+0
473,1.48E+0
474,1.16E+0
475,1.44E+0
476,1.44E+0
477,1.12E+0
478,9.60E-1
479,1.24E+0
480,1.20E+0
481,7.60E-1
482,1.08E+0
483,7.60E-1
484,9.20E-1
485,6.40E-1
486,8.40E-1
487,6.00E-1
488,6.00E-1
489,7.20E-1
490,6.00E-1
491,8.00E-1
492,6.40E-1
493,1.00E+0
494,8.80E-1
495,1.16E+0
496,8.80E-1
497,1.24E+0
498,9.20E-1
499,1.40E+0
500,1.44E+0
501,1.04E+0
502,1.24E+0
503,1.56E+0
504,1.56E+0
505,1.32E+0
506,1.44E+0
507,1.52E+0
508,1.52E+0
509,1.40E+0
510,1.40E+0
511,1.52E+0
512,1.48E+0
513,1.36E+0
514,1.48E+0
515,1.28E+0
516,1.40E+0
517,1.08E+0
518,1.36E+0
519,1.08E+0
520,1.24E+0
521,8.40E-1
522,1.12E+0
523,6.80E-1
524,8.00E-1
525,6.00E-1
526,7.60E-1
527,6.00E-1
528,6.80E-1
529,6.00E-1
530,6.00E-1
531,7.60E-1
532,6.40E-1
533,1.08E+0
534,7.60E-1
535,1.28E+0
536,1.32E+0
537,1.08E+0
538,1.40E+0
539,1.08E+0
540,1.28E+0
541,1.44E+0
542,1.36E+0
543,1.52E+0
544,1.44E+0
545,1.56E+0
546,1.52E+0
547,1.40E+0
548,1.52E+0
549,1.36E+0
550,1.32E+0
551,1.52E+0
552,1.48E+0
553,1.12E+0
554,1.44E+0
555,1.12E+0
556,1.00E+0
557,1.28E+0
558,1.32E+0
559,1.00E+0
560,1.20E+0
561,1.04E+0
562,1.16E+0
563,8.40E-1
564,1.12E+0
565,7.20E-1
566,1.00E+0
567,7.60E-1
568,7.60E-1
569,1.08E+0
570,9.60E-1
571,6.80E-1
572,6.40E-1
573,8.80E-1
574,6.40E-1
575,8.00E-1
576,6.00E-1
577,8.40E-1
578,7.60E-1
579,6.00E-1
580,6.00E-1
581,6.80E-1
582,6.00E-1
583,7.60E-1
584,6.00E-1
585,7.20E-1
586,7.60E-1
587,6.00E-1
588,6.40E-1
589,8.40E-1
590,7.60E-1
591,1.04E+0
592,9.20E-1
593,1.28E+0
594,9.60E-1
595,1.28E+0
596,1.04E+0
597,1.36E+0
598,1.08E+0
599,1.40E+0
600,1.24E+0
601,1.48E+0
602,1.48E+0
603,1.36E+0
604,1.48E+0
605,1.36E+0
606,1.44E+0
607,1.32E+0
608,1.44E+0
609,1.36E+0
610,1.44E+0
611,1.24E+0
612,1.24E+0
613,1.44E+0
614,1.36E+0
615,1.20E+0
616,1.32E+0
617,1.04E+0
618,8.40E-1
619,1.16E+0
620,1.08E+0
621,7.60E-1
622,9.60E-1
623,7.60E-1
624,9.60E-1
625,6.40E-1
626,8.00E-1
627,6.00E-1
628,6.00E-1
629,7.60E-1
630,6.40E-1
631,8.40E-1
632,6.80E-1
633,8.80E-1
634,8.00E-1
635,1.08E+0
636,8.80E-1
637,1.32E+0
638,1.08E+0
639,1.36E+0
640,1.20E+0
641,1.40E+0
642,1.44E+0
643,1.28E+0
644,1.44E+0
645,1.32E+0
646,1.44E+0
647,1.24E+0
648,1.16E+0
649,1.40E+0
650,1.36E+0
651,1.16E+0
652,1.12E+0
653,1.36E+0
654,1.32E+0
655,1.04E+0
656,1.16E+0
657,9.20E-1
658,9.60E-1
659,7.20E-1
660,8.80E-1
661,6.00E-1
662,6.40E-1
663,8.40E-1
664,6.40E-1
665,8.80E-1
666,9.20E-1
667,6.40E-1
668,7.20E-1
669,9.20E-1
670,9.20E-1
671,7.60E-1
672,8.40E-1
673,1.12E+0
674,1.12E+0
675,8.00E-1
676,1.16E+0
677,6.80E-1
678,7.20E-1
679,6.40E-1
680,6.40E-1
681,7.60E-1
682,6.40E-1
683,1.36E+0
684,7.20E-1
685,1.40E+0
686,9.20E-1
687,1.40E+0
688,1.04E+0
689,1.40E+0
690,1.36E+0
691,1.12E+0
692,1.20E+0
693,1.40E+0
694,1.20E+0
695,1.40E+0
696,1.36E+0
697,1.20E+0
698,1.28E+0
699,1.36E+0
700,1.16E+0
701,1.40E+0
702,1.40E+0
703,1.20E+0
704,1.28E+0
705,1.40E+0
706,1.40E+0
707,1.28E+0
708,1.28E+0
709,1.40E+0
710,1.40E+0
711,1.28E+0
712,1.28E+0
713,1.40E+0
714,1.40E+0
715,1.28E+0
716,1.40E+0
717,1.24E+0
718,1.36E+0
719,1.24E+0
720,1.36E+0
721,1.20E+0
722,1.36E+0
723,1.20E+0
724,1.36E+0
725,1.12E+0
726,1.36E+0
727,1.20E+0
728,1.32E+0
729,1.16E+0
730,1.36E+0
731,1.12E+0
732,1.12E+0
733,1.36E+0
734,1.16E+0
735,1.36E+0
736,1.16E+0
737,1.36E+0
738,1.12E+0
739,1.32E+0
740,1.20E+0
741,1.36E+0
742,1.12E+0
743,1.36E+0
744,1.32E+0
745,1.20E+0
746,1.24E+0
747,1.36E+0
